INDEX VERSION 1.127+C:\Development\abschlussarbeit\.metadata\.plugins\org.eclipse.jdt.core
4119870901.index
425788928.index
2924642132.index
593149069.index
472352508.index
3328595095.index
1991852544.index
685051502.index
1155873594.index
579759225.index
339541322.index
3700947225.index
832371634.index
3660875416.index
3696505698.index
3145212828.index
1726191299.index
2037482924.index
2000172598.index
1128683064.index
363513417.index
3224173628.index
3902398911.index
532628905.index
3321747211.index
1277831158.index
2677695791.index
2502126211.index
4213758560.index
2981811092.index
2986942359.index
1144244853.index
2980723885.index
2352102040.index
442449285.index
377934868.index
2806052160.index
4288954103.index
3844447501.index
2051781022.index
305714950.index
2665674387.index
53709898.index
1768559826.index
3795277166.index
2868412643.index
1913950115.index
915899152.index
1357791818.index
2575123618.index
3652903918.index
1864820582.index
1480775022.index
3855572404.index
3827949125.index
1556790661.index
3272076387.index
3791858811.index
2835174609.index
2554999180.index
705431270.index
1401981820.index
2164626619.index
3821681128.index
3740232898.index
2750278036.index
3665747302.index
999086028.index
3845719238.index
1383916114.index
1293387033.index
1488361991.index
2794900730.index
4238625570.index
3670956674.index
2198883028.index
2824627785.index
3098799739.index
593170541.index
1266353086.index
167815057.index
1236320087.index
980488471.index
3419048755.index
1550717163.index
4049178292.index
2049567153.index
4050238094.index
2494097065.index
386717200.index
263407852.index
686484407.index
3084849555.index
1689057429.index
228733327.index
1852118886.index
2309336523.index
2976045711.index
705423327.index
1522452748.index
2159581788.index
3728413115.index
2186576732.index
528504876.index
2438131299.index
1665818083.index
2440101830.index
1109290442.index
3703561547.index
3258437958.index
3520282757.index
3443432560.index
1953338244.index
4045693006.index
2493619716.index
2408493017.index
44213959.index
963445088.index
1426169888.index
3961283958.index
13683585.index
1074299790.index
1703300452.index
1706185130.index
2952991975.index
3498973851.index
1255467552.index
4025986314.index
2314470545.index
1255331949.index
923259652.index
980698675.index
789183562.index
3137492353.index
674351686.index
3358167540.index
2495856939.index
4101911384.index
2393416462.index
985543770.index
4247705939.index
1284344454.index
2018803565.index
2001220094.index
3124070964.index
4279153786.index
3216732416.index
3952065907.index
3222269814.index
99185325.index
2787491724.index
1783083044.index
