0;1;0,00016103;;1;2;0,00016103;1-2 Average;0,125;;;;0,639852452
0;2;0,00108077;;1;3;0,00108077;1-3 Average;0,035714286;;;;
0;3;0,00078506;;1;4;0,00078506;1-4 Average;0;;;;
0;4;0,00107948;;1;5;0,00107948;1-5 Average;0,1875;;;;
0;5;0,06666667;;1;6;0,06666667;1-6 Average;0,3125;;;;
0;6;0,00056062;;1;7;0,00056062;1-7 Average;0,041666667;;;;
0;7;0,00141663;;1;8;0,00141663;1-8 Average;0;;;;
0;8;0,00104565;;1;9;0,00104565;1-9 Average;0;;;;
0;9;0,00065467;;1;10;0,00065467;1-10 Average;0,041666667;;;;
0;20;0,00159672;;1;21;0,00159672;1-21 Average;0;;;;
0;21;0,00144769;;1;22;0,00144769;1-22 Average;0,428571429;;;;
0;22;0,00071204;;1;23;0,00071204;1-23 Average;0;;;;
0;23;0,00205664;;1;24;0,00205664;1-24 Average;0;;;;
0;24;0,00060408;;1;25;0,00060408;1-25 Average;0;;;;
0;25;0,000075;;1;26;0,000075;1-26 Average;0,0625;;;;
0;26;0,000215;;1;27;0,000215;1-27 Average;0;;;;
0;27;0,00082678;;1;28;0,00082678;1-28 Average;0,15;;;;
0;28;0,00079275;;1;29;0,00079275;1-29 Average;0,166666667;;;;
0;29;0;;1;30;0;1-30 Average;0,083333333;;;;
0;30;0;;1;31;0;1-31 Average;0;;;;
0;31;0,00126741;;1;32;0,00126741;1-32 Average;0,4;;;;
0;32;0,35460633;;1;33;0,35460633;1-33 Average;1;;;;
0;33;0;;1;34;0;1-34 Average;0,083333333;;;;
0;34;0,00053234;;1;35;0,00053234;1-35 Average;0,3;;;;
0;35;0,0014367;;1;36;0,0014367;1-36 Average;0,1875;;;;
0;36;0,00083566;;1;37;0,00083566;1-37 Average;0,035714286;;;;
0;37;0,0008165;;1;38;0,0008165;1-38 Average;0,0625;;;;
0;38;0,00018403;;1;39;0,00018403;1-39 Average;0,25;;;;
0;39;0;;1;40;0;1-40 Average;0,083333333;;;;
0;40;0,00060991;;1;41;0,00060991;1-41 Average;0,166666667;;;;
0;41;0,00056815;;1;42;0,00056815;1-42 Average;0,083333333;;;;
0;42;0,00032546;;1;43;0,00032546;1-43 Average;0,125;;;;
0;43;0,00039443;;1;44;0,00039443;1-44 Average;0,035714286;;;;
1;2;0,00312617;;2;3;0,00312617;2-3 Average;0,1875;;;;
1;3;0,00737041;;2;4;0,00737041;2-4 Average;0;;;;
1;4;0,00299025;;2;5;0,00299025;2-5 Average;0,035714286;;;;
1;5;0;;2;6;0;2-6 Average;0,071428571;;;;
1;6;0,00286565;;2;7;0,00286565;2-7 Average;0,125;;;;
1;7;0,00244133;;2;8;0,00244133;2-8 Average;0,0625;;;;
1;8;0;;2;9;0;2-9 Average;0,071428571;;;;
1;9;0,00835313;;2;10;0,00835313;2-10 Average;0;;;;
1;20;0,00190824;;2;21;0,00190824;2-21 Average;0,035714286;;;;
1;21;0,02222222;;2;22;0,02222222;2-22 Average;0,4375;;;;
1;22;0;;2;23;0;2-23 Average;0,083333333;;;;
1;23;0,00423139;;2;24;0,00423139;2-24 Average;0,1;;;;
1;24;0,00231553;;2;25;0,00231553;2-25 Average;0;;;;
1;25;0,00221028;;2;26;0,00221028;2-26 Average;0;;;;
1;26;0,01234533;;2;27;0,01234533;2-27 Average;0,15;;;;
1;27;0,00310325;;2;28;0,00310325;2-28 Average;0;;;;
1;28;0,01400528;;2;29;0,01400528;2-29 Average;0,0625;;;;
1;29;0;;2;30;0;2-30 Average;0,041666667;;;;
1;30;0;;2;31;0;2-31 Average;0;;;;
1;31;0,01148695;;2;32;0,01148695;2-32 Average;0,125;;;;
1;32;0,00022734;;2;33;0,00022734;2-33 Average;0,1875;;;;
1;33;0;;2;34;0;2-34 Average;0;;;;
1;34;0,00980392;;2;35;0,00980392;2-35 Average;0;;;;
1;35;0,00312617;;2;36;0,00312617;2-36 Average;0;;;;
1;36;0,00289412;;2;37;0,00289412;2-37 Average;0,1;;;;
1;37;0,00289905;;2;38;0,00289905;2-38 Average;0;;;;
1;38;0,0952381;;2;39;0,0952381;2-39 Average;0,0625;;;;
1;39;0;;2;40;0;2-40 Average;0,083333333;;;;
1;40;0,00270427;;2;41;0,00270427;2-41 Average;0,0625;;;;
1;41;0,00286565;;2;42;0,00286565;2-42 Average;0,166666667;;;;
1;42;0,00082916;;2;43;0,00082916;2-43 Average;0,05;;;;
1;43;0,00365439;;2;44;0,00365439;2-44 Average;0;;;;
2;3;0,06402755;;3;4;0,06402755;3-4 Average;0,35;;;;
2;4;0,1015239;;3;5;0,1015239;3-5 Average;0,25;;;;
2;5;0;;3;6;0;3-6 Average;0;;;;
2;6;0,09333114;;3;7;0,09333114;3-7 Average;0,35;;;;
2;7;0,00328653;;3;8;0,00328653;3-8 Average;0,2;;;;
2;8;0;;3;9;0;3-9 Average;0;;;;
2;9;0,07320335;;3;10;0,07320335;3-10 Average;0,3;;;;
2;20;0,00463518;;3;21;0,00463518;3-21 Average;0,2;;;;
2;21;0,00129145;;3;22;0,00129145;3-22 Average;0,05;;;;
2;22;0,00243999;;3;23;0,00243999;3-23 Average;0,083333333;;;;
2;23;0,12002567;;3;24;0,12002567;3-24 Average;0,107142857;;;;
2;24;0,00557041;;3;25;0,00557041;3-25 Average;0,2;;;;
2;25;0,00375886;;3;26;0,00375886;3-26 Average;0,25;;;;
2;26;0,10850974;;3;27;0,10850974;3-27 Average;0,2;;;;
2;27;0,00326186;;3;28;0,00326186;3-28 Average;0,25;;;;
2;28;0,00730341;;3;29;0,00730341;3-29 Average;0,25;;;;
2;29;0;;3;30;0;3-30 Average;0,0625;;;;
2;30;0;;3;31;0;3-31 Average;0;;;;
2;31;0,00622357;;3;32;0,00622357;3-32 Average;0,1875;;;;
2;32;0,00225799;;3;33;0,00225799;3-33 Average;0,333333333;;;;
2;33;0;;3;34;0;3-34 Average;0;;;;
2;34;0,00027972;;3;35;0,00027972;3-35 Average;0;;;;
2;35;0,10238481;;3;36;0,10238481;3-36 Average;0,2;;;;
2;36;0,09762741;;3;37;0,09762741;3-37 Average;0,25;;;;
2;37;0,25;;3;38;0,25;3-38 Average;1;;;;
2;38;0,00361977;;3;39;0,00361977;3-39 Average;0;;;;
2;39;0;;3;40;0;3-40 Average;0,166666667;;;;
2;40;0,003411;;3;41;0,003411;3-41 Average;0;;;;
2;41;0,09539721;;3;42;0,09539721;3-42 Average;0,5;;;;
2;42;0,00057764;;3;43;0,00057764;3-43 Average;0,1875;;;;
2;43;0,00530516;;3;44;0,00530516;3-44 Average;0,166666667;;;;
3;4;0,06583657;;4;5;0,06583657;4-5 Average;0,416666667;;;;
3;5;0;;4;6;0;4-6 Average;0;;;;
3;6;0,24970613;;4;7;0,24970613;4-7 Average;0,666666667;;;;
3;7;0,22988357;;4;8;0,22988357;4-8 Average;0,75;;;;
3;8;0,00038251;;4;9;0,00038251;4-9 Average;0;;;;
3;9;0,16173195;;4;10;0,16173195;4-10 Average;0,5;;;;
3;20;0,12496795;;4;21;0,12496795;4-21 Average;0,75;;;;
3;21;0;;4;22;0;4-22 Average;0,083333333;;;;
3;22;0,00009602;;4;23;0,00009602;4-23 Average;0,392857143;;;;
3;23;0,14162511;;4;24;0,14162511;4-24 Average;0,625;;;;
3;24;0,00168271;;4;25;0,00168271;4-25 Average;0;;;;
3;25;0,07020506;;4;26;0,07020506;4-26 Average;0,458333333;;;;
3;26;0,13041079;;4;27;0,13041079;4-27 Average;0,428571429;;;;
3;27;0,12781276;;4;28;0,12781276;4-28 Average;0,541666667;;;;
3;28;0,02982322;;4;29;0,02982322;4-29 Average;0,583333333;;;;
3;29;0;;4;30;0;4-30 Average;0;;;;
3;30;0;;4;31;0;4-31 Average;0,1875;;;;
3;31;0,01470619;;4;32;0,01470619;4-32 Average;0;;;;
3;32;0,00020784;;4;33;0,00020784;4-33 Average;0,1;;;;
3;33;0;;4;34;0;4-34 Average;0,071428571;;;;
3;34;0,01234568;;4;35;0,01234568;4-35 Average;0,0625;;;;
3;35;0,18883427;;4;36;0,18883427;4-36 Average;0,85;;;;
3;36;0,00205607;;4;37;0,00205607;4-37 Average;0,083333333;;;;
3;37;0,00174577;;4;38;0,00174577;4-38 Average;0,05;;;;
3;38;0,00221857;;4;39;0,00221857;4-39 Average;0,25;;;;
3;39;0,0625;;4;40;0,0625;4-40 Average;0,142857143;;;;
3;40;0,00288949;;4;41;0,00288949;4-41 Average;0;;;;
3;41;0,11971416;;4;42;0,11971416;4-42 Average;0,5;;;;
3;42;0,0005818;;4;43;0,0005818;4-43 Average;0,3125;;;;
3;43;0,00534381;;4;44;0,00534381;4-44 Average;0,194444444;;;;
4;5;0;;5;6;0;5-6 Average;0;;;;
4;6;0,09246523;;5;7;0,09246523;5-7 Average;0,25;;;;
4;7;0,00464468;;5;8;0,00464468;5-8 Average;0,333333333;;;;
4;8;0,00024197;;5;9;0,00024197;5-9 Average;0,166666667;;;;
4;9;0,07517735;;5;10;0,07517735;5-10 Average;0,6;;;;
4;20;0,0044172;;5;21;0,0044172;5-21 Average;0,375;;;;
4;21;0,00102074;;5;22;0,00102074;5-22 Average;0,083333333;;;;
4;22;0,0021466;;5;23;0,0021466;5-23 Average;0,357142857;;;;
4;23;0,11955538;;5;24;0,11955538;5-24 Average;0,291666667;;;;
4;24;0,00367284;;5;25;0,00367284;5-25 Average;0,05;;;;
4;25;0,00292725;;5;26;0,00292725;5-26 Average;0,1875;;;;
4;26;0,10416811;;5;27;0,10416811;5-27 Average;0,4;;;;
4;27;0,00415185;;5;28;0,00415185;5-28 Average;0,166666667;;;;
4;28;0,01054174;;5;29;0,01054174;5-29 Average;0,2;;;;
4;29;0;;5;30;0;5-30 Average;0,05;;;;
4;30;0;;5;31;0;5-31 Average;0;;;;
4;31;0,00775982;;5;32;0,00775982;5-32 Average;0,1875;;;;
4;32;0,00175163;;5;33;0,00175163;5-33 Average;0,25;;;;
4;33;0;;5;34;0;5-34 Average;0;;;;
4;34;0,00025765;;5;35;0,00025765;5-35 Average;0,0625;;;;
4;35;0,09847885;;5;36;0,09847885;5-36 Average;0,333333333;;;;
4;36;0,00488563;;5;37;0,00488563;5-37 Average;0,416666667;;;;
4;37;0,00415178;;5;38;0,00415178;5-38 Average;0,1875;;;;
4;38;0,00343878;;5;39;0,00343878;5-39 Average;0,0625;;;;
4;39;0;;5;40;0;5-40 Average;0,1;;;;
4;40;0,00514777;;5;41;0,00514777;5-41 Average;0;;;;
4;41;0,2675117;;5;42;0,2675117;5-42 Average;0,875;;;;
4;42;0,00134591;;5;43;0,00134591;5-43 Average;0,2;;;;
4;43;0,09852692;;5;44;0,09852692;5-44 Average;0,291666667;;;;
5;6;0;;6;7;0;6-7 Average;0;;;;
5;7;0;;6;8;0;6-8 Average;0,25;;;;
5;8;0,00032206;;6;9;0,00032206;6-9 Average;0;;;;
5;9;0;;6;10;0;6-10 Average;0;;;;
5;20;0;;6;21;0;6-21 Average;0;;;;
5;21;0;;6;22;0;6-22 Average;0;;;;
5;22;0;;6;23;0;6-23 Average;0,25;;;;
5;23;0;;6;24;0;6-24 Average;0;;;;
5;24;0;;6;25;0;6-25 Average;0,083333333;;;;
5;25;0;;6;26;0;6-26 Average;0,208333333;;;;
5;26;0;;6;27;0;6-27 Average;0,083333333;;;;
5;27;0;;6;28;0;6-28 Average;0,125;;;;
5;28;0,00013924;;6;29;0,00013924;6-29 Average;0;;;;
5;29;0;;6;30;0;6-30 Average;0,25;;;;
5;30;0;;6;31;0;6-31 Average;0,166666667;;;;
5;31;0;;6;32;0;6-32 Average;0,1;;;;
5;32;0;;6;33;0;6-33 Average;0,0625;;;;
5;33;0;;6;34;0;6-34 Average;0;;;;
5;34;0;;6;35;0;6-35 Average;0;;;;
5;35;0;;6;36;0;6-36 Average;0,083333333;;;;
5;36;0;;6;37;0;6-37 Average;0;;;;
5;37;0;;6;38;0;6-38 Average;0;;;;
5;38;0;;6;39;0;6-39 Average;0,125;;;;
5;39;0;;6;40;0;6-40 Average;0;;;;
5;40;0;;6;41;0;6-41 Average;0,05;;;;
5;41;0;;6;42;0;6-42 Average;0;;;;
5;42;0;;6;43;0;6-43 Average;0;;;;
5;43;0;;6;44;0;6-44 Average;0,05;;;;
6;7;0,16480028;;7;8;0,16480028;7-8 Average;0,625;;;;
6;8;0;;7;9;0;7-9 Average;0;;;;
6;9;0,07742919;;7;10;0,07742919;7-10 Average;0,5;;;;
6;20;0,09034141;;7;21;0,09034141;7-21 Average;0,4375;;;;
6;21;0,00024626;;7;22;0,00024626;7-22 Average;0,035714286;;;;
6;22;0,0000817;;7;23;0,0000817;7-23 Average;0,5;;;;
6;23;0,11106857;;7;24;0,11106857;7-24 Average;0,25;;;;
6;24;0,00243748;;7;25;0,00243748;7-25 Average;0,208333333;;;;
6;25;0,01221746;;7;26;0,01221746;7-26 Average;0,3;;;;
6;26;0,19251116;;7;27;0,19251116;7-27 Average;0,375;;;;
6;27;0,36409982;;7;28;0,36409982;7-28 Average;0,8125;;;;
6;28;0,02932749;;7;29;0,02932749;7-29 Average;0,25;;;;
6;29;0;;7;30;0;7-30 Average;0;;;;
6;30;0;;7;31;0;7-31 Average;0;;;;
6;31;0,01331899;;7;32;0,01331899;7-32 Average;0,125;;;;
6;32;0,0005159;;7;33;0,0005159;7-33 Average;0,041666667;;;;
6;33;0;;7;34;0;7-34 Average;0,1;;;;
6;34;0,02159129;;7;35;0,02159129;7-35 Average;0,1;;;;
6;35;0,27292246;;7;36;0,27292246;7-36 Average;0,666666667;;;;
6;36;0,00221816;;7;37;0,00221816;7-37 Average;0,166666667;;;;
6;37;0,00290427;;7;38;0,00290427;7-38 Average;0,3;;;;
6;38;0,00327503;;7;39;0,00327503;7-39 Average;0,05;;;;
6;39;0;;7;40;0;7-40 Average;0,125;;;;
6;40;0,00304501;;7;41;0,00304501;7-41 Average;0;;;;
6;41;0,08884019;;7;42;0,08884019;7-42 Average;0,392857143;;;;
6;42;0,00079098;;7;43;0,00079098;7-43 Average;0,25;;;;
6;43;0,00518522;;7;44;0,00518522;7-44 Average;0;;;;
7;8;0,00053899;;8;9;0,00053899;8-9 Average;0,0625;;;;
7;9;0,19371008;;8;10;0,19371008;8-10 Average;0,5;;;;
7;20;0,3369472;;8;21;0,3369472;8-21 Average;0,928571429;;;;
7;21;0,00092111;;8;22;0,00092111;8-22 Average;0,05;;;;
7;22;0,00064942;;8;23;0,00064942;8-23 Average;0,392857143;;;;
7;23;0,00569078;;8;24;0,00569078;8-24 Average;0,375;;;;
7;24;0,0028098;;8;25;0,0028098;8-25 Average;0,1875;;;;
7;25;0,00160536;;8;26;0,00160536;8-26 Average;0,5;;;;
7;26;0,09259475;;8;27;0,09259475;8-27 Average;0,416666667;;;;
7;27;0,09218367;;8;28;0,09218367;8-28 Average;0,71875;;;;
7;28;0,00455669;;8;29;0,00455669;8-29 Average;0,291666667;;;;
7;29;0;;8;30;0;8-30 Average;0;;;;
7;30;0;;8;31;0;8-31 Average;0,15;;;;
7;31;0,00320017;;8;32;0,00320017;8-32 Average;0,0625;;;;
7;32;0,00148586;;8;33;0,00148586;8-33 Average;0;;;;
7;33;0;;8;34;0;8-34 Average;0;;;;
7;34;0,00031852;;8;35;0,00031852;8-35 Average;0,25;;;;
7;35;0,00507797;;8;36;0,00507797;8-36 Average;0,875;;;;
7;36;0,00337562;;8;37;0,00337562;8-37 Average;0,125;;;;
7;37;0,00283105;;8;38;0,00283105;8-38 Average;0,125;;;;
7;38;0,00277424;;8;39;0,00277424;8-39 Average;0,25;;;;
7;39;0;;8;40;0;8-40 Average;0,05;;;;
7;40;0,00372598;;8;41;0,00372598;8-41 Average;0;;;;
7;41;0,08161263;;8;42;0,08161263;8-42 Average;0,4375;;;;
7;42;0,00082185;;8;43;0,00082185;8-43 Average;0,05;;;;
7;43;0,00714519;;8;44;0,00714519;8-44 Average;0;;;;
8;9;0,00043917;;9;10;0,00043917;9-10 Average;0,208333333;;;;
8;20;0,00059289;;9;21;0,00059289;9-21 Average;0,1;;;;
8;21;0;;9;22;0;9-22 Average;0;;;;
8;22;0;;9;23;0;9-23 Average;0;;;;
8;23;0,0014348;;9;24;0,0014348;9-24 Average;0,0625;;;;
8;24;0;;9;25;0;9-25 Average;0;;;;
8;25;0;;9;26;0;9-26 Average;0;;;;
8;26;0;;9;27;0;9-27 Average;0,083333333;;;;
8;27;0;;9;28;0;9-28 Average;0;;;;
8;28;0;;9;29;0;9-29 Average;0;;;;
8;29;0;;9;30;0;9-30 Average;0;;;;
8;30;0;;9;31;0;9-31 Average;0;;;;
8;31;0;;9;32;0;9-32 Average;0;;;;
8;32;0,00020996;;9;33;0,00020996;9-33 Average;0,071428571;;;;
8;33;0;;9;34;0;9-34 Average;0,45;;;;
8;34;0;;9;35;0;9-35 Average;0;;;;
8;35;0,00074619;;9;36;0,00074619;9-36 Average;0,03125;;;;
8;36;0;;9;37;0;9-37 Average;0,35;;;;
8;37;0;;9;38;0;9-38 Average;0;;;;
8;38;0;;9;39;0;9-39 Average;0;;;;
8;39;0;;9;40;0;9-40 Average;0,333333333;;;;
8;40;0,00087265;;9;41;0,00087265;9-41 Average;0,178571429;;;;
8;41;0;;9;42;0;9-42 Average;0;;;;
8;42;0;;9;43;0;9-43 Average;0,291666667;;;;
8;43;0;;9;44;0;9-44 Average;0,166666667;;;;
9;20;0,07532745;;10;21;0,07532745;10-21 Average;0,5;;;;
9;21;0;;10;22;0;10-22 Average;0;;;;
9;22;0,00009514;;10;23;0,00009514;10-23 Average;0,166666667;;;;
9;23;0,08549043;;10;24;0,08549043;10-24 Average;0,583333333;;;;
9;24;0,00217496;;10;25;0,00217496;10-25 Average;0,083333333;;;;
9;25;0,00910009;;10;26;0,00910009;10-26 Average;0,178571429;;;;
9;26;0,08367018;;10;27;0,08367018;10-27 Average;0,25;;;;
9;27;0,00321459;;10;28;0,00321459;10-28 Average;0,4375;;;;
9;28;0,02688523;;10;29;0,02688523;10-29 Average;0,2;;;;
9;29;0;;10;30;0;10-30 Average;0;;;;
9;30;0;;10;31;0;10-31 Average;0,2;;;;
9;31;0,01744388;;10;32;0,01744388;10-32 Average;0,25;;;;
9;32;0,0001964;;10;33;0,0001964;10-33 Average;0;;;;
9;33;0;;10;34;0;10-34 Average;0;;;;
9;34;0,00724638;;10;35;0,00724638;10-35 Average;0,071428571;;;;
9;35;0,07507096;;10;36;0,07507096;10-36 Average;0,55;;;;
9;36;0,00226295;;10;37;0,00226295;10-37 Average;0,1;;;;
9;37;0,00206821;;10;38;0,00206821;10-38 Average;0,25;;;;
9;38;0,00254725;;10;39;0,00254725;10-39 Average;0,166666667;;;;
9;39;0;;10;40;0;10-40 Average;0,166666667;;;;
9;40;0,00525243;;10;41;0,00525243;10-41 Average;0;;;;
9;41;0,13675923;;10;42;0,13675923;10-42 Average;0,625;;;;
9;42;0,00037232;;10;43;0,00037232;10-43 Average;0;;;;
9;43;0,00720311;;10;44;0,00720311;10-44 Average;0,208333333;;;;
10;0;0,00130619;;11;1;0,00130619;11-1 Average;0,125;;;;
10;1;0,00340569;;11;2;0,00340569;11-2 Average;0;;;;
10;2;0,16234284;;11;3;0,16234284;11-3 Average;0,25;;;;
10;3;0,21948113;;11;4;0,21948113;11-4 Average;0,6875;;;;
10;4;0,23606659;;11;5;0,23606659;11-5 Average;0,625;;;;
10;5;0;;11;6;0;11-6 Average;0,125;;;;
10;6;0,1541198;;11;7;0,1541198;11-7 Average;0,678571429;;;;
10;7;0,14397299;;11;8;0,14397299;11-8 Average;0,55;;;;
10;8;0,00049407;;11;9;0,00049407;11-9 Average;0,083333333;;;;
10;9;0,18451967;;11;10;0,18451967;11-10 Average;0,7;;;;
10;11;0,29681842;;11;12;0,29681842;11-12 Average;0,4375;;;;
10;12;0;;11;13;0;11-13 Average;0;;;;
10;13;0,00078298;;11;14;0,00078298;11-14 Average;0,107142857;;;;
10;14;0;;11;15;0;11-15 Average;0;;;;
10;15;0,34537343;;11;16;0,34537343;11-16 Average;0,666666667;;;;
10;16;0,08465704;;11;17;0,08465704;11-17 Average;0,083333333;;;;
10;17;0,00978163;;11;18;0,00978163;11-18 Average;0,15;;;;
10;18;0,00209256;;11;19;0,00209256;11-19 Average;0;;;;
10;19;0,00109474;;11;20;0,00109474;11-20 Average;0,15;;;;
10;20;0,08100966;;11;21;0,08100966;11-21 Average;0,583333333;;;;
10;21;0,00098396;;11;22;0,00098396;11-22 Average;0,083333333;;;;
10;22;0,00155936;;11;23;0,00155936;11-23 Average;0,4375;;;;
10;23;0,18711028;;11;24;0,18711028;11-24 Average;0,583333333;;;;
10;24;0,00332558;;11;25;0,00332558;11-25 Average;0,05;;;;
10;25;0,00245889;;11;26;0,00245889;11-26 Average;0,041666667;;;;
10;26;0,17014009;;11;27;0,17014009;11-27 Average;0,3;;;;
10;27;0,08396752;;11;28;0,08396752;11-28 Average;0,34375;;;;
10;28;0,0100886;;11;29;0,0100886;11-29 Average;0,5;;;;
10;29;0;;11;30;0;11-30 Average;0,208333333;;;;
10;30;0;;11;31;0;11-31 Average;0,041666667;;;;
10;31;0,00644344;;11;32;0,00644344;11-32 Average;0,208333333;;;;
10;32;0,00093574;;11;33;0,00093574;11-33 Average;0;;;;
10;33;0;;11;34;0;11-34 Average;0;;;;
10;34;0,00049105;;11;35;0,00049105;11-35 Average;0,083333333;;;;
10;35;0,08432983;;11;36;0,08432983;11-36 Average;0,541666667;;;;
10;36;0,15100539;;11;37;0,15100539;11-37 Average;0,3125;;;;
10;37;0,00372206;;11;38;0,00372206;11-38 Average;0,333333333;;;;
10;38;0,0038314;;11;39;0,0038314;11-39 Average;0,2;;;;
10;39;0;;11;40;0;11-40 Average;0;;;;
10;40;0,00426973;;11;41;0,00426973;11-41 Average;0;;;;
10;41;0,29807493;;11;42;0,29807493;11-42 Average;0,75;;;;
10;42;0,00130114;;11;43;0,00130114;11-43 Average;0,125;;;;
10;43;0,08452738;;11;44;0,08452738;11-44 Average;0,666666667;;;;
11;0;0,0009049;;12;1;0,0009049;12-1 Average;0,055555556;;;;
11;1;0,00286565;;12;2;0,00286565;12-2 Average;0;;;;
11;2;0,18438715;;12;3;0,18438715;12-3 Average;0,291666667;;;;
11;3;0,11921761;;12;4;0,11921761;12-4 Average;0,625;;;;
11;4;0,17944152;;12;5;0,17944152;12-5 Average;0,541666667;;;;
11;5;0;;12;6;0;12-6 Average;0,041666667;;;;
11;6;0,08765872;;12;7;0,08765872;12-7 Average;0,541666667;;;;
11;7;0,24032074;;12;8;0,24032074;12-8 Average;0,65;;;;
11;8;0,00023044;;12;9;0,00023044;12-9 Average;0;;;;
11;9;0,20174762;;12;10;0,20174762;12-10 Average;0,625;;;;
11;12;0;;12;13;0;12-13 Average;0;;;;
11;13;0,00083609;;12;14;0,00083609;12-14 Average;0,0625;;;;
11;14;0;;12;15;0;12-15 Average;0;;;;
11;15;0,53967268;;12;16;0,53967268;12-16 Average;0,916666667;;;;
11;16;0,09368485;;12;17;0,09368485;12-17 Average;0;;;;
11;17;0,00593995;;12;18;0,00593995;12-18 Average;0;;;;
11;18;0,00140975;;12;19;0,00140975;12-19 Average;0;;;;
11;19;0,00123361;;12;20;0,00123361;12-20 Average;0,375;;;;
11;20;0,0092736;;12;21;0,0092736;12-21 Average;0,8;;;;
11;21;0,00114795;;12;22;0,00114795;12-22 Average;0,125;;;;
11;22;0,00179327;;12;23;0,00179327;12-23 Average;0,3;;;;
11;23;0,11027824;;12;24;0,11027824;12-24 Average;0,5625;;;;
11;24;0,00326129;;12;25;0,00326129;12-25 Average;0,142857143;;;;
11;25;0,00198158;;12;26;0,00198158;12-26 Average;0,1875;;;;
11;26;0,09676533;;12;27;0,09676533;12-27 Average;0,583333333;;;;
11;27;0,00570846;;12;28;0,00570846;12-28 Average;0,583333333;;;;
11;28;0,00673231;;12;29;0,00673231;12-29 Average;0,25;;;;
11;29;0;;12;30;0;12-30 Average;0,035714286;;;;
11;30;0;;12;31;0;12-31 Average;0;;;;
11;31;0,00383737;;12;32;0,00383737;12-32 Average;0,2;;;;
11;32;0,00135279;;12;33;0,00135279;12-33 Average;0,125;;;;
11;33;0;;12;34;0;12-34 Average;0;;;;
11;34;0,00013448;;12;35;0,00013448;12-35 Average;0;;;;
11;35;0,09386918;;12;36;0,09386918;12-36 Average;0,5;;;;
11;36;0,16981376;;12;37;0,16981376;12-37 Average;0,2;;;;
11;37;0,00369875;;12;38;0,00369875;12-38 Average;0,083333333;;;;
11;38;0,00327503;;12;39;0,00327503;12-39 Average;0,027777778;;;;
11;39;0,00009187;;12;40;0,00009187;12-40 Average;0;;;;
11;40;0,00440144;;12;41;0,00440144;12-41 Average;0;;;;
11;41;0,17000606;;12;42;0,17000606;12-42 Average;0,75;;;;
11;42;0,00127677;;12;43;0,00127677;12-43 Average;0,3125;;;;
11;43;0,00861628;;12;44;0,00861628;12-44 Average;0,3;;;;
12;0;0;;13;1;0;13-1 Average;0,035714286;;;;
12;1;0;;13;2;0;13-2 Average;0,1;;;;
12;2;0;;13;3;0;13-3 Average;0,166666667;;;;
12;3;0;;13;4;0;13-4 Average;0,25;;;;
12;4;0;;13;5;0;13-5 Average;0;;;;
12;5;0;;13;6;0;13-6 Average;0,083333333;;;;
12;6;0;;13;7;0;13-7 Average;0,178571429;;;;
12;7;0;;13;8;0;13-8 Average;0,09375;;;;
12;8;0;;13;9;0;13-9 Average;0;;;;
12;9;0;;13;10;0;13-10 Average;0,0625;;;;
12;13;0;;13;14;0;13-14 Average;0,1875;;;;
12;14;0;;13;15;0;13-15 Average;0,083333333;;;;
12;15;0;;13;16;0;13-16 Average;0,125;;;;
12;16;0;;13;17;0;13-17 Average;0,05;;;;
12;17;0;;13;18;0;13-18 Average;0;;;;
12;18;0;;13;19;0;13-19 Average;0,0625;;;;
12;19;0;;13;20;0;13-20 Average;0,0625;;;;
12;20;0;;13;21;0;13-21 Average;0,25;;;;
12;21;0,15384615;;13;22;0,15384615;13-22 Average;0,25;;;;
12;22;0;;13;23;0;13-23 Average;0,1875;;;;
12;23;0;;13;24;0;13-24 Average;0,1;;;;
12;24;0;;13;25;0;13-25 Average;0,125;;;;
12;25;0;;13;26;0;13-26 Average;0;;;;
12;26;0;;13;27;0;13-27 Average;0,125;;;;
12;27;0;;13;28;0;13-28 Average;0,15;;;;
12;28;0;;13;29;0;13-29 Average;0,125;;;;
12;29;0,125;;13;30;0,125;13-30 Average;0,3125;;;;
12;30;0;;13;31;0;13-31 Average;0,4375;;;;
12;31;0;;13;32;0;13-32 Average;0,1875;;;;
12;32;0;;13;33;0;13-33 Average;0,0625;;;;
12;33;0;;13;34;0;13-34 Average;0;;;;
12;34;0,16666667;;13;35;0,16666667;13-35 Average;0,583333333;;;;
12;35;0;;13;36;0;13-36 Average;0,041666667;;;;
12;36;0;;13;37;0;13-37 Average;0,05;;;;
12;37;0;;13;38;0;13-38 Average;0,0625;;;;
12;38;0;;13;39;0;13-39 Average;0,05;;;;
12;39;0;;13;40;0;13-40 Average;0,035714286;;;;
12;40;0;;13;41;0;13-41 Average;0,083333333;;;;
12;41;0;;13;42;0;13-42 Average;0,083333333;;;;
12;42;0;;13;43;0;13-43 Average;0,1875;;;;
12;43;0;;13;44;0;13-44 Average;0;;;;
13;0;0,52631579;;14;1;0,52631579;14-1 Average;1;;;;
13;1;0;;14;2;0;14-2 Average;0;;;;
13;2;0,00155144;;14;3;0,00155144;14-3 Average;0,2;;;;
13;3;0,00011802;;14;4;0,00011802;14-4 Average;0,083333333;;;;
13;4;0,0010776;;14;5;0,0010776;14-5 Average;0,083333333;;;;
13;5;0;;14;6;0;14-6 Average;0,166666667;;;;
13;6;0,00022396;;14;7;0,00022396;14-7 Average;0,25;;;;
13;7;0,00096805;;14;8;0,00096805;14-8 Average;0;;;;
13;8;0;;14;9;0;14-9 Average;0;;;;
13;9;0,00014342;;14;10;0,00014342;14-10 Average;0;;;;
13;14;0;;14;15;0;14-15 Average;0,285714286;;;;
13;15;0,00096551;;14;16;0,00096551;14-16 Average;0,1;;;;
13;16;0;;14;17;0;14-17 Average;0,05;;;;
13;17;0;;14;18;0;14-18 Average;0,05;;;;
13;18;0;;14;19;0;14-19 Average;0;;;;
13;19;0;;14;20;0;14-20 Average;0,05;;;;
13;20;0,00129184;;14;21;0,00129184;14-21 Average;0,125;;;;
13;21;0,00311627;;14;22;0,00311627;14-22 Average;0,333333333;;;;
13;22;0,00141512;;14;23;0,00141512;14-23 Average;0,125;;;;
13;23;0;;14;24;0;14-24 Average;0,0625;;;;
13;24;0,00068934;;14;25;0,00068934;14-25 Average;0,09375;;;;
13;25;0;;14;26;0;14-26 Average;0,05;;;;
13;26;0;;14;27;0;14-27 Average;0,083333333;;;;
13;27;0,00079439;;14;28;0,00079439;14-28 Average;0;;;;
13;28;0,00045867;;14;29;0,00045867;14-29 Average;0,0625;;;;
13;29;0;;14;30;0;14-30 Average;0;;;;
13;30;0;;14;31;0;14-31 Average;0,05;;;;
13;31;0,00165209;;14;32;0,00165209;14-32 Average;0,321428571;;;;
13;32;0,33653603;;14;33;0,33653603;14-33 Average;0,95;;;;
13;33;0;;14;34;0;14-34 Average;0;;;;
13;34;0,00075415;;14;35;0,00075415;14-35 Average;0,05;;;;
13;35;0,00025031;;14;36;0,00025031;14-36 Average;0,05;;;;
13;36;0,00109148;;14;37;0,00109148;14-37 Average;0,125;;;;
13;37;0,00078323;;14;38;0,00078323;14-38 Average;0,2;;;;
13;38;0;;14;39;0;14-39 Average;0,083333333;;;;
13;39;0;;14;40;0;14-40 Average;0,05;;;;
13;40;0,0001723;;14;41;0,0001723;14-41 Average;0;;;;
13;41;0,00040133;;14;42;0,00040133;14-42 Average;0;;;;
13;42;0,00017636;;14;43;0,00017636;14-43 Average;0,041666667;;;;
13;43;0,00016236;;14;44;0,00016236;14-44 Average;0;;;;
14;0;0;;15;1;0;15-1 Average;0,1;;;;
14;1;0;;15;2;0;15-2 Average;0,1;;;;
14;2;0;;15;3;0;15-3 Average;0;;;;
14;3;0;;15;4;0;15-4 Average;0;;;;
14;4;0;;15;5;0;15-5 Average;0,0625;;;;
14;5;0,07142857;;15;6;0,07142857;15-6 Average;0,25;;;;
14;6;0;;15;7;0;15-7 Average;0,05;;;;
14;7;0;;15;8;0;15-8 Average;0;;;;
14;8;0;;15;9;0;15-9 Average;0;;;;
14;9;0;;15;10;0;15-10 Average;0;;;;
14;15;0;;15;16;0;15-16 Average;0;;;;
14;16;0;;15;17;0;15-17 Average;0;;;;
14;17;0;;15;18;0;15-18 Average;0;;;;
14;18;0;;15;19;0;15-19 Average;0,0625;;;;
14;19;0;;15;20;0;15-20 Average;0,0625;;;;
14;20;0;;15;21;0;15-21 Average;0,035714286;;;;
14;21;0;;15;22;0;15-22 Average;0,0625;;;;
14;22;0;;15;23;0;15-23 Average;0;;;;
14;23;0;;15;24;0;15-24 Average;0;;;;
14;24;0;;15;25;0;15-25 Average;0,3;;;;
14;25;0;;15;26;0;15-26 Average;0,4375;;;;
14;26;0;;15;27;0;15-27 Average;0;;;;
14;27;0;;15;28;0;15-28 Average;0,178571429;;;;
14;28;0;;15;29;0;15-29 Average;0;;;;
14;29;0;;15;30;0;15-30 Average;0,1;;;;
14;30;0;;15;31;0;15-31 Average;0;;;;
14;31;0;;15;32;0;15-32 Average;0,1;;;;
14;32;0;;15;33;0;15-33 Average;0,3;;;;
14;33;0;;15;34;0;15-34 Average;0;;;;
14;34;0;;15;35;0;15-35 Average;0,125;;;;
14;35;0;;15;36;0;15-36 Average;0;;;;
14;36;0;;15;37;0;15-37 Average;0;;;;
14;37;0;;15;38;0;15-38 Average;0,083333333;;;;
14;38;0;;15;39;0;15-39 Average;0,416666667;;;;
14;39;0;;15;40;0;15-40 Average;0,1;;;;
14;40;0;;15;41;0;15-41 Average;0,0625;;;;
14;41;0;;15;42;0;15-42 Average;0,125;;;;
14;42;0;;15;43;0;15-43 Average;0;;;;
14;43;0;;15;44;0;15-44 Average;0,178571429;;;;
15;0;0,00129006;;16;1;0,00129006;16-1 Average;0,1;;;;
15;1;0,00264522;;16;2;0,00264522;16-2 Average;0;;;;
15;2;0,25224125;;16;3;0,25224125;16-3 Average;0,5;;;;
15;3;0,16889381;;16;4;0,16889381;16-4 Average;0,6875;;;;
15;4;0,0868868;;16;5;0,0868868;16-5 Average;0,6;;;;
15;5;0;;16;6;0;16-6 Average;0;;;;
15;6;0,08106255;;16;7;0,08106255;16-7 Average;0,55;;;;
15;7;0,29840922;;16;8;0,29840922;16-8 Average;0,625;;;;
15;8;0,00051555;;16;9;0,00051555;16-9 Average;0,071428571;;;;
15;9;0,25204392;;16;10;0,25204392;16-10 Average;0,833333333;;;;
15;16;0,08653654;;16;17;0,08653654;16-17 Average;0,25;;;;
15;17;0,00507253;;16;18;0,00507253;16-18 Average;0,166666667;;;;
15;18;0,00129697;;16;19;0,00129697;16-19 Average;0,125;;;;
15;19;0,00156611;;16;20;0,00156611;16-20 Average;0,125;;;;
15;20;0,16882537;;16;21;0,16882537;16-21 Average;0,5;;;;
15;21;0,00103316;;16;22;0,00103316;16-22 Average;0,05;;;;
15;22;0,00199636;;16;23;0,00199636;16-23 Average;0,25;;;;
15;23;0,10059493;;16;24;0,10059493;16-24 Average;0,464285714;;;;
15;24;0,00322849;;16;25;0,00322849;16-25 Average;0,107142857;;;;
15;25;0,00181645;;16;26;0,00181645;16-26 Average;0,375;;;;
15;26;0,08835096;;16;27;0,08835096;16-27 Average;0,3;;;;
15;27;0,00454012;;16;28;0,00454012;16-28 Average;0,458333333;;;;
15;28;0,00605908;;16;29;0,00605908;16-29 Average;0,125;;;;
15;29;0;;16;30;0;16-30 Average;0,035714286;;;;
15;30;0;;16;31;0;16-31 Average;0,041666667;;;;
15;31;0,00359533;;16;32;0,00359533;16-32 Average;0,083333333;;;;
15;32;0,00105897;;16;33;0,00105897;16-33 Average;0;;;;
15;33;0;;16;34;0;16-34 Average;0;;;;
15;34;0,00020879;;16;35;0,00020879;16-35 Average;0;;;;
15;35;0,08758923;;16;36;0,08758923;16-36 Average;0,535714286;;;;
15;36;0,15765027;;16;37;0,15765027;16-37 Average;0,208333333;;;;
15;37;0,00332887;;16;38;0,00332887;16-38 Average;0,5;;;;
15;38;0,00299025;;16;39;0,00299025;16-39 Average;0,1875;;;;
15;39;0,00012759;;16;40;0,00012759;16-40 Average;0,15;;;;
15;40;0,00416409;;16;41;0,00416409;16-41 Average;0;;;;
15;41;0,15720109;;16;42;0,15720109;16-42 Average;0,45;;;;
15;42;0,00080572;;16;43;0,00080572;16-43 Average;0,208333333;;;;
15;43;0,00955638;;16;44;0,00955638;16-44 Average;0,125;;;;
16;0;0,00177619;;17;1;0,00177619;17-1 Average;0;;;;
16;1;0,00365439;;17;2;0,00365439;17-2 Average;0,041666667;;;;
16;2;0,10202182;;17;3;0,10202182;17-3 Average;0,214285714;;;;
16;3;0,06584775;;17;4;0,06584775;17-4 Average;0;;;;
16;4;0,09999714;;17;5;0,09999714;17-5 Average;0,125;;;;
16;5;0;;17;6;0;17-6 Average;0,035714286;;;;
16;6;0,09369925;;17;7;0,09369925;17-7 Average;0,2;;;;
16;7;0,00356041;;17;8;0,00356041;17-8 Average;0,03125;;;;
16;8;0,00120825;;17;9;0,00120825;17-9 Average;0,15625;;;;
16;9;0,14560275;;17;10;0,14560275;17-10 Average;0,1875;;;;
16;17;0,00524848;;17;18;0,00524848;17-18 Average;0;;;;
16;18;0,00202747;;17;19;0,00202747;17-19 Average;0;;;;
16;19;0,00122306;;17;20;0,00122306;17-20 Average;0,083333333;;;;
16;20;0,00350765;;17;21;0,00350765;17-21 Average;0;;;;
16;21;0;;17;22;0;17-22 Average;0;;;;
16;22;0;;17;23;0;17-23 Average;0,083333333;;;;
16;23;0,35294118;;17;24;0,35294118;17-24 Average;0,625;;;;
16;24;0,00229446;;17;25;0,00229446;17-25 Average;0,1875;;;;
16;25;0,00217974;;17;26;0,00217974;17-26 Average;0,071428571;;;;
16;26;0,10757309;;17;27;0,10757309;17-27 Average;0,25;;;;
16;27;0,10306918;;17;28;0,10306918;17-28 Average;0,071428571;;;;
16;28;0,00588155;;17;29;0,00588155;17-29 Average;0,15;;;;
16;29;0;;17;30;0;17-30 Average;0;;;;
16;30;0;;17;31;0;17-31 Average;0,041666667;;;;
16;31;0,0027794;;17;32;0,0027794;17-32 Average;0,071428571;;;;
16;32;0,000301;;17;33;0,000301;17-33 Average;0;;;;
16;33;0;;17;34;0;17-34 Average;0;;;;
16;34;0;;17;35;0;17-35 Average;0;;;;
16;35;0,1034429;;17;36;0,1034429;17-36 Average;0,05;;;;
16;36;0,00244904;;17;37;0,00244904;17-37 Average;0,0625;;;;
16;37;0,00274754;;17;38;0,00274754;17-38 Average;0,125;;;;
16;38;0,00423139;;17;39;0,00423139;17-39 Average;0;;;;
16;39;0;;17;40;0;17-40 Average;0;;;;
16;40;0,00337442;;17;41;0,00337442;17-41 Average;0;;;;
16;41;0,09432365;;17;42;0,09432365;17-42 Average;0;;;;
16;42;0,00122966;;17;43;0,00122966;17-43 Average;0,035714286;;;;
16;43;0,10133139;;17;44;0,10133139;17-44 Average;0,416666667;;;;
17;0;0,00072958;;18;1;0,00072958;18-1 Average;0,125;;;;
17;1;0,00259961;;18;2;0,00259961;18-2 Average;0,125;;;;
17;2;0,09353355;;18;3;0,09353355;18-3 Average;0,3125;;;;
17;3;0,00901899;;18;4;0,00901899;18-4 Average;0,1875;;;;
17;4;0,00762094;;18;5;0,00762094;18-5 Average;0,083333333;;;;
17;5;0;;18;6;0;18-6 Average;0;;;;
17;6;0,00701876;;18;7;0,00701876;18-7 Average;0;;;;
17;7;0,00271259;;18;8;0,00271259;18-8 Average;0,166666667;;;;
17;8;0;;18;9;0;18-9 Average;0,5;;;;
17;9;0,00640145;;18;10;0,00640145;18-10 Average;0,083333333;;;;
17;18;0,17391304;;18;19;0,17391304;18-19 Average;0,75;;;;
17;19;0,09130057;;18;20;0,09130057;18-20 Average;0,625;;;;
17;20;0,00371246;;18;21;0,00371246;18-21 Average;0,05;;;;
17;21;0;;18;22;0;18-22 Average;0,0625;;;;
17;22;0;;18;23;0;18-23 Average;0,071428571;;;;
17;23;0,00814979;;18;24;0,00814979;18-24 Average;0;;;;
17;24;0,00457085;;18;25;0,00457085;18-25 Average;0,1;;;;
17;25;0,00436309;;18;26;0,00436309;18-26 Average;0;;;;
17;26;0,00621092;;18;27;0,00621092;18-27 Average;0,05;;;;
17;27;0,00295056;;18;28;0,00295056;18-28 Average;0;;;;
17;28;0,00833843;;18;29;0,00833843;18-29 Average;0,5;;;;
17;29;0;;18;30;0;18-30 Average;0;;;;
17;30;0;;18;31;0;18-31 Average;0;;;;
17;31;0,00505824;;18;32;0,00505824;18-32 Average;0,25;;;;
17;32;0,00028868;;18;33;0,00028868;18-33 Average;0;;;;
17;33;0;;18;34;0;18-34 Average;0,178571429;;;;
17;34;0;;18;35;0;18-35 Average;0,083333333;;;;
17;35;0,00529085;;18;36;0,00529085;18-36 Average;0,05;;;;
17;36;0,00403554;;18;37;0,00403554;18-37 Average;0,458333333;;;;
17;37;0,11111111;;18;38;0,11111111;18-38 Average;0,3125;;;;
17;38;0,00297098;;18;39;0,00297098;18-39 Average;0,0625;;;;
17;39;0;;18;40;0;18-40 Average;0,53125;;;;
17;40;0,0062852;;18;41;0,0062852;18-41 Average;0,071428571;;;;
17;41;0,0072234;;18;42;0,0072234;18-42 Average;0,125;;;;
17;42;0,07407407;;18;43;0,07407407;18-43 Average;0,55;;;;
17;43;0,00541332;;18;44;0,00541332;18-44 Average;0,125;;;;
18;0;0,00009602;;19;1;0,00009602;19-1 Average;0;;;;
18;1;0,00194349;;19;2;0,00194349;19-2 Average;0;;;;
18;2;0,09949517;;19;3;0,09949517;19-3 Average;0,178571429;;;;
18;3;0,00134945;;19;4;0,00134945;19-4 Average;0,15;;;;
18;4;0,00247303;;19;5;0,00247303;19-5 Average;0,125;;;;
18;5;0;;19;6;0;19-6 Average;0,083333333;;;;
18;6;0,00193617;;19;7;0,00193617;19-7 Average;0;;;;
18;7;0,00131211;;19;8;0,00131211;19-8 Average;0;;;;
18;8;0;;19;9;0;19-9 Average;0,35;;;;
18;9;0,00185634;;19;10;0,00185634;19-10 Average;0,0625;;;;
18;19;0,00049244;;19;20;0,00049244;19-20 Average;0,642857143;;;;
18;20;0,00224459;;19;21;0,00224459;19-21 Average;0,15;;;;
18;21;0;;19;22;0;19-22 Average;0,083333333;;;;
18;22;0;;19;23;0;19-23 Average;0,25;;;;
18;23;0,00236538;;19;24;0,00236538;19-24 Average;0,208333333;;;;
18;24;0,00479939;;19;25;0,00479939;19-25 Average;0,4;;;;
18;25;0,00457085;;19;26;0,00457085;19-26 Average;0,1875;;;;
18;26;0,00363456;;19;27;0,00363456;19-27 Average;0,0625;;;;
18;27;0,0019541;;19;28;0,0019541;19-28 Average;0;;;;
18;28;0,00399856;;19;29;0,00399856;19-29 Average;0,0625;;;;
18;29;0;;19;30;0;19-30 Average;0,1;;;;
18;30;0;;19;31;0;19-31 Average;0;;;;
18;31;0,00349595;;19;32;0,00349595;19-32 Average;0,15;;;;
18;32;0,00013803;;19;33;0,00013803;19-33 Average;0;;;;
18;33;0,0002005;;19;34;0,0002005;19-34 Average;0;;;;
18;34;0;;19;35;0;19-35 Average;0;;;;
18;35;0,00212057;;19;36;0,00212057;19-36 Average;0;;;;
18;36;0,00294913;;19;37;0,00294913;19-37 Average;0,428571429;;;;
18;37;0,00525874;;19;38;0,00525874;19-38 Average;0,083333333;;;;
18;38;0,00223501;;19;39;0,00223501;19-39 Average;0,027777778;;;;
18;39;0;;19;40;0;19-40 Average;0,25;;;;
18;40;0,00353776;;19;41;0,00353776;19-41 Average;0;;;;
18;41;0,00236551;;19;42;0,00236551;19-42 Average;0;;;;
18;42;0,00039774;;19;43;0,00039774;19-43 Average;0,541666667;;;;
18;43;0,00259079;;19;44;0,00259079;19-44 Average;0,166666667;;;;
19;0;0,00022307;;20;1;0,00022307;20-1 Average;0,0625;;;;
19;1;0,0010176;;20;2;0,0010176;20-2 Average;0,1;;;;
19;2;0,0007043;;20;3;0,0007043;20-3 Average;0,416666667;;;;
19;3;0,00061028;;20;4;0,00061028;20-4 Average;0,083333333;;;;
19;4;0,00112851;;20;5;0,00112851;20-5 Average;0,3125;;;;
19;5;0;;20;6;0;20-6 Average;0,125;;;;
19;6;0,00091942;;20;7;0,00091942;20-7 Average;0,1875;;;;
19;7;0,00047464;;20;8;0,00047464;20-8 Average;0,083333333;;;;
19;8;0;;20;9;0;20-9 Average;0,375;;;;
19;9;0,00055995;;20;10;0,00055995;20-10 Average;0,1875;;;;
19;20;0,0018865;;20;21;0,0018865;20-21 Average;0,083333333;;;;
19;21;0;;20;22;0;20-22 Average;0;;;;
19;22;0;;20;23;0;20-23 Average;0,125;;;;
19;23;0,00143889;;20;24;0,00143889;20-24 Average;0,125;;;;
19;24;0,00039885;;20;25;0,00039885;20-25 Average;0,15;;;;
19;25;0,00037891;;20;26;0,00037891;20-26 Average;0,25;;;;
19;26;0,00093948;;20;27;0,00093948;20-27 Average;0,125;;;;
19;27;0,00070523;;20;28;0,00070523;20-28 Average;0;;;;
19;28;0,00138821;;20;29;0,00138821;20-29 Average;0,05;;;;
19;29;0;;20;30;0;20-30 Average;0;;;;
19;30;0;;20;31;0;20-31 Average;0;;;;
19;31;0,00077151;;20;32;0,00077151;20-32 Average;0,125;;;;
19;32;0,00032717;;20;33;0,00032717;20-33 Average;0,035714286;;;;
19;33;0;;20;34;0;20-34 Average;0,041666667;;;;
19;34;0;;20;35;0;20-35 Average;0;;;;
19;35;0,0007687;;20;36;0,0007687;20-36 Average;0,125;;;;
19;36;0,3639588;;20;37;0,3639588;20-37 Average;0,8125;;;;
19;37;0,00058275;;20;38;0,00058275;20-38 Average;0,1875;;;;
19;38;0,00117828;;20;39;0,00117828;20-39 Average;0,375;;;;
19;39;0;;20;40;0;20-40 Average;0,75;;;;
19;40;0,00096938;;20;41;0,00096938;20-41 Average;0,178571429;;;;
19;41;0,00071266;;20;42;0,00071266;20-42 Average;0,166666667;;;;
19;42;0,32;;20;43;0,32;20-43 Average;0,642857143;;;;
19;43;0,00098497;;20;44;0,00098497;20-44 Average;0,0625;;;;
20;21;0,00127679;;21;22;0,00127679;21-22 Average;0;;;;
20;22;0,00059725;;21;23;0,00059725;21-23 Average;0,375;;;;
20;23;0,1166235;;21;24;0,1166235;21-24 Average;0,375;;;;
20;24;0,00357833;;21;25;0,00357833;21-25 Average;0,2;;;;
20;25;0,00208686;;21;26;0,00208686;21-26 Average;0,166666667;;;;
20;26;0,10235264;;21;27;0,10235264;21-27 Average;0,5;;;;
20;27;0,09884755;;21;28;0,09884755;21-28 Average;0,6;;;;
20;28;0,00413203;;21;29;0,00413203;21-29 Average;0,35;;;;
20;29;0;;21;30;0;21-30 Average;0;;;;
20;30;0;;21;31;0;21-31 Average;0,25;;;;
20;31;0,00402582;;21;32;0,00402582;21-32 Average;0,25;;;;
20;32;0,00197481;;21;33;0,00197481;21-33 Average;0,107142857;;;;
20;33;0;;21;34;0;21-34 Average;0;;;;
20;34;0,00035834;;21;35;0,00035834;21-35 Average;0;;;;
20;35;0,00470522;;21;36;0,00470522;21-36 Average;0,607142857;;;;
20;36;0,00526646;;21;37;0,00526646;21-37 Average;0,25;;;;
20;37;0,00453517;;21;38;0,00453517;21-38 Average;0,0625;;;;
20;38;0,00219447;;21;39;0,00219447;21-39 Average;0,125;;;;
20;39;0,00013948;;21;40;0,00013948;21-40 Average;0,1;;;;
20;40;0,00380874;;21;41;0,00380874;21-41 Average;0;;;;
20;41;0,00338305;;21;42;0,00338305;21-42 Average;0,25;;;;
20;42;0,00080687;;21;43;0,00080687;21-43 Average;0,071428571;;;;
20;43;0,00580755;;21;44;0,00580755;21-44 Average;0;;;;
21;22;0,00213042;;22;23;0,00213042;22-23 Average;0,178571429;;;;
21;23;0;;22;24;0;22-24 Average;0;;;;
21;24;0,00247883;;22;25;0,00247883;22-25 Average;0;;;;
21;25;0;;22;26;0;22-26 Average;0;;;;
21;26;0;;22;27;0;22-27 Average;0;;;;
21;27;0,00138026;;22;28;0,00138026;22-28 Average;0;;;;
21;28;0,00050191;;22;29;0,00050191;22-29 Average;0,083333333;;;;
21;29;0;;22;30;0;22-30 Average;0;;;;
21;30;0;;22;31;0;22-31 Average;0;;;;
21;31;0,00428922;;22;32;0,00428922;22-32 Average;0,2;;;;
21;32;0,00236895;;22;33;0,00236895;22-33 Average;0,5;;;;
21;33;0;;22;34;0;22-34 Average;0;;;;
21;34;0,00080727;;22;35;0,00080727;22-35 Average;0;;;;
21;35;0,00027704;;22;36;0,00027704;22-36 Average;0;;;;
21;36;0,00271161;;22;37;0,00271161;22-37 Average;0,083333333;;;;
21;37;0,00126347;;22;38;0,00126347;22-38 Average;0,3;;;;
21;38;0;;22;39;0;22-39 Average;0,0625;;;;
21;39;0;;22;40;0;22-40 Average;0,2;;;;
21;40;0;;22;41;0;22-41 Average;0,041666667;;;;
21;41;0,00180951;;22;42;0,00180951;22-42 Average;0,25;;;;
21;42;0,00014797;;22;43;0,00014797;22-43 Average;0,125;;;;
21;43;0,125;;22;44;0,125;22-44 Average;0,375;;;;
22;23;0;;23;24;0;23-24 Average;0,34375;;;;
22;24;0,0015236;;23;25;0,0015236;23-25 Average;0,125;;;;
22;25;0;;23;26;0;23-26 Average;0;;;;
22;26;0;;23;27;0;23-27 Average;0,2;;;;
22;27;0,00049062;;23;28;0,00049062;23-28 Average;0,357142857;;;;
22;28;0,00043192;;23;29;0,00043192;23-29 Average;0,083333333;;;;
22;29;0;;23;30;0;23-30 Average;0,15;;;;
22;30;0;;23;31;0;23-31 Average;0,0625;;;;
22;31;0,00221076;;23;32;0,00221076;23-32 Average;0;;;;
22;32;0,00215186;;23;33;0,00215186;23-33 Average;0;;;;
22;33;0;;23;34;0;23-34 Average;0,05;;;;
22;34;0,000296;;23;35;0,000296;23-35 Average;0,0625;;;;
22;35;0,00009078;;23;36;0,00009078;23-36 Average;0,5;;;;
22;36;0,00179327;;23;37;0,00179327;23-37 Average;0,083333333;;;;
22;37;0,00226621;;23;38;0,00226621;23-38 Average;0,25;;;;
22;38;0;;23;39;0;23-39 Average;0,0625;;;;
22;39;0;;23;40;0;23-40 Average;0,208333333;;;;
22;40;0,00005669;;23;41;0,00005669;23-41 Average;0;;;;
22;41;0,00355948;;23;42;0,00355948;23-42 Average;0,333333333;;;;
22;42;0,00026019;;23;43;0,00026019;23-43 Average;0,071428571;;;;
22;43;0,00020004;;23;44;0,00020004;23-44 Average;0;;;;
23;24;0,00272468;;24;25;0,00272468;24-25 Average;0,15;;;;
23;25;0,0025644;;24;26;0,0025644;24-26 Average;0,1;;;;
23;26;0,25274304;;24;27;0,25274304;24-27 Average;0;;;;
23;27;0,0036108;;24;28;0,0036108;24-28 Average;0,333333333;;;;
23;28;0,00980577;;24;29;0,00980577;24-29 Average;0,333333333;;;;
23;29;0;;24;30;0;24-30 Average;0;;;;
23;30;0;;24;31;0;24-31 Average;0,041666667;;;;
23;31;0,00439028;;24;32;0,00439028;24-32 Average;0,0625;;;;
23;32;0,00037625;;24;33;0,00037625;24-33 Average;0,0625;;;;
23;33;0;;24;34;0;24-34 Average;0;;;;
23;34;0;;24;35;0;24-35 Average;0,0625;;;;
23;35;0,12169753;;24;36;0,12169753;24-36 Average;0,25;;;;
23;36;0,00283573;;24;37;0,00283573;24-37 Average;0,3125;;;;
23;37;0,00338158;;24;38;0,00338158;24-38 Average;0,1875;;;;
23;38;0,00502478;;24;39;0,00502478;24-39 Average;0,05;;;;
23;39;0;;24;40;0;24-40 Average;0;;;;
23;40;0,00390722;;24;41;0,00390722;24-41 Average;0;;;;
23;41;0,11364615;;24;42;0,11364615;24-42 Average;0,35;;;;
23;42;0,00139734;;24;43;0,00139734;24-43 Average;0;;;;
23;43;0,12062883;;24;44;0,12062883;24-44 Average;0,416666667;;;;
24;25;0,52631579;;25;26;0,52631579;25-26 Average;1;;;;
24;26;0,00452266;;25;27;0,00452266;25-27 Average;0;;;;
24;27;0,00290256;;25;28;0,00290256;25-28 Average;0,291666667;;;;
24;28;0,00507777;;25;29;0,00507777;25-29 Average;0,1875;;;;
24;29;0;;25;30;0;25-30 Average;0,3125;;;;
24;30;0;;25;31;0;25-31 Average;0,125;;;;
24;31;0,00480083;;25;32;0,00480083;25-32 Average;0,125;;;;
24;32;0,00090612;;25;33;0,00090612;25-33 Average;0,107142857;;;;
24;33;0;;25;34;0;25-34 Average;0;;;;
24;34;0,00061115;;25;35;0,00061115;25-35 Average;0;;;;
24;35;0,00269406;;25;36;0,00269406;25-36 Average;0,1;;;;
24;36;0,0053003;;25;37;0,0053003;25-37 Average;0,333333333;;;;
24;37;0,00677454;;25;38;0,00677454;25-38 Average;0,3;;;;
24;38;0,00270145;;25;39;0,00270145;25-39 Average;0,125;;;;
24;39;0;;25;40;0;25-40 Average;0;;;;
24;40;0,00404633;;25;41;0,00404633;25-41 Average;0;;;;
24;41;0,00404495;;25;42;0,00404495;25-42 Average;0,0625;;;;
24;42;0,00069319;;25;43;0,00069319;25-43 Average;0,125;;;;
24;43;0,0034123;;25;44;0,0034123;25-44 Average;0,208333333;;;;
25;26;0,00428463;;26;27;0,00428463;26-27 Average;0;;;;
25;27;0,10184643;;26;28;0,10184643;26-28 Average;0,25;;;;
25;28;0,02856993;;26;29;0,02856993;26-29 Average;0,25;;;;
25;29;0;;26;30;0;26-30 Average;0,1875;;;;
25;30;0;;26;31;0;26-31 Average;0,15;;;;
25;31;0,0137857;;26;32;0,0137857;26-32 Average;0;;;;
25;32;0,00011042;;26;33;0,00011042;26-33 Average;0;;;;
25;33;0;;26;34;0;26-34 Average;0;;;;
25;34;0,01212121;;26;35;0,01212121;26-35 Average;0,083333333;;;;
25;35;0,10232809;;26;36;0,10232809;26-36 Average;0;;;;
25;36;0,00320752;;26;37;0,00320752;26-37 Average;0,178571429;;;;
25;37;0,00469858;;26;38;0,00469858;26-38 Average;0,05;;;;
25;38;0,00255927;;26;39;0,00255927;26-39 Average;0,166666667;;;;
25;39;0;;26;40;0;26-40 Average;0,125;;;;
25;40;0,00370036;;26;41;0,00370036;26-41 Average;0,125;;;;
25;41;0,0027942;;26;42;0,0027942;26-42 Average;0,1;;;;
25;42;0,00030313;;26;43;0,00030313;26-43 Average;0,107142857;;;;
25;43;0,00307362;;26;44;0,00307362;26-44 Average;0,03125;;;;
26;27;0,10737874;;27;28;0,10737874;27-28 Average;0,416666667;;;;
26;28;0,03237926;;27;29;0,03237926;27-29 Average;0,25;;;;
26;29;0;;27;30;0;27-30 Average;0,214285714;;;;
26;30;0;;27;31;0;27-31 Average;0,083333333;;;;
26;31;0,01571162;;27;32;0,01571162;27-32 Average;0,05;;;;
26;32;0,0003225;;27;33;0,0003225;27-33 Average;0,041666667;;;;
26;33;0;;27;34;0;27-34 Average;0,041666667;;;;
26;34;0;;27;35;0;27-35 Average;0,083333333;;;;
26;35;0,10751234;;27;36;0,10751234;27-36 Average;0,5;;;;
26;36;0,00358886;;27;37;0,00358886;27-37 Average;0;;;;
26;37;0,00411234;;27;38;0,00411234;27-38 Average;0,208333333;;;;
26;38;0,00382087;;27;39;0,00382087;27-39 Average;0,25;;;;
26;39;0;;27;40;0;27-40 Average;0;;;;
26;40;0,09575758;;27;41;0,09575758;27-41 Average;0;;;;
26;41;0,09920773;;27;42;0,09920773;27-42 Average;0,25;;;;
26;42;0,00054535;;27;43;0,00054535;27-43 Average;0,083333333;;;;
26;43;0,00674017;;27;44;0,00674017;27-44 Average;0,1875;;;;
27;28;0,00543025;;28;29;0,00543025;28-29 Average;0,45;;;;
27;29;0;;28;30;0;28-30 Average;0;;;;
27;30;0;;28;31;0;28-31 Average;0,0625;;;;
27;31;0,00308696;;28;32;0,00308696;28-32 Average;0,125;;;;
27;32;0,00106389;;28;33;0,00106389;28-33 Average;0,0625;;;;
27;33;0;;28;34;0;28-34 Average;0;;;;
27;34;0,00088154;;28;35;0,00088154;28-35 Average;0,1;;;;
27;35;0,10379409;;28;36;0,10379409;28-36 Average;0,45;;;;
27;36;0,00259745;;28;37;0,00259745;28-37 Average;0,25;;;;
27;37;0,00371098;;28;38;0,00371098;28-38 Average;0,071428571;;;;
27;38;0,00359324;;28;39;0,00359324;28-39 Average;0,25;;;;
27;39;0;;28;40;0;28-40 Average;0,25;;;;
27;40;0,00182709;;28;41;0,00182709;28-41 Average;0;;;;
27;41;0,00435862;;28;42;0,00435862;28-42 Average;0,35;;;;
27;42;0,00100162;;28;43;0,00100162;28-43 Average;0,05;;;;
27;43;0,00306918;;28;44;0,00306918;28-44 Average;0;;;;
28;29;0;;29;30;0;29-30 Average;0,1;;;;
28;30;0;;29;31;0;29-31 Average;0,0625;;;;
28;31;0,03054538;;29;32;0,03054538;29-32 Average;0,166666667;;;;
28;32;0,00083969;;29;33;0,00083969;29-33 Average;0,083333333;;;;
28;33;0;;29;34;0;29-34 Average;0;;;;
28;34;0,02909091;;29;35;0,02909091;29-35 Average;0;;;;
28;35;0,00661514;;29;36;0,00661514;29-36 Average;0,321428571;;;;
28;36;0,00430738;;29;37;0,00430738;29-37 Average;0,2;;;;
28;37;0,00623405;;29;38;0,00623405;29-38 Average;0,375;;;;
28;38;0,00515923;;29;39;0,00515923;29-39 Average;0,321428571;;;;
28;39;0;;29;40;0;29-40 Average;0,0625;;;;
28;40;0,00582989;;29;41;0,00582989;29-41 Average;0;;;;
28;41;0,01022378;;29;42;0,01022378;29-42 Average;0,285714286;;;;
28;42;0,00085029;;29;43;0,00085029;29-43 Average;0,125;;;;
28;43;0,01064056;;29;44;0,01064056;29-44 Average;0,083333333;;;;
29;30;0;;30;31;0;30-31 Average;0,166666667;;;;
29;31;0;;30;32;0;30-32 Average;0;;;;
29;32;0;;30;33;0;30-33 Average;0,125;;;;
29;33;0;;30;34;0;30-34 Average;0;;;;
29;34;0;;30;35;0;30-35 Average;0,3;;;;
29;35;0;;30;36;0;30-36 Average;0,166666667;;;;
29;36;0;;30;37;0;30-37 Average;0,083333333;;;;
29;37;0;;30;38;0;30-38 Average;0;;;;
29;38;0;;30;39;0;30-39 Average;0,321428571;;;;
29;39;0;;30;40;0;30-40 Average;0;;;;
29;40;0;;30;41;0;30-41 Average;0;;;;
29;41;0;;30;42;0;30-42 Average;0,25;;;;
29;42;0;;30;43;0;30-43 Average;0,083333333;;;;
29;43;0;;30;44;0;30-44 Average;0;;;;
30;31;0;;31;32;0;31-32 Average;0;;;;
30;32;0;;31;33;0;31-33 Average;0;;;;
30;33;0;;31;34;0;31-34 Average;0;;;;
30;34;0;;31;35;0;31-35 Average;0,041666667;;;;
30;35;0;;31;36;0;31-36 Average;0,25;;;;
30;36;0;;31;37;0;31-37 Average;0,041666667;;;;
30;37;0;;31;38;0;31-38 Average;0;;;;
30;38;0;;31;39;0;31-39 Average;0,6;;;;
30;39;0;;31;40;0;31-40 Average;0;;;;
30;40;0;;31;41;0;31-41 Average;0;;;;
30;41;0;;31;42;0;31-42 Average;0;;;;
30;42;0;;31;43;0;31-43 Average;0,041666667;;;;
30;43;0;;31;44;0;31-44 Average;0;;;;
31;32;0,00227376;;32;33;0,00227376;32-33 Average;0,178571429;;;;
31;33;0;;32;34;0;32-34 Average;0,083333333;;;;
31;34;0,01180239;;32;35;0,01180239;32-35 Average;0;;;;
31;35;0,00313085;;32;36;0,00313085;32-36 Average;0;;;;
31;36;0,00500085;;32;37;0,00500085;32-37 Average;0,083333333;;;;
31;37;0,00672858;;32;38;0,00672858;32-38 Average;0,05;;;;
31;38;0,00321;;32;39;0,00321;32-39 Average;0,15625;;;;
31;39;0;;32;40;0;32-40 Average;0,208333333;;;;
31;40;0,00406258;;32;41;0,00406258;32-41 Average;0;;;;
31;41;0,00763079;;32;42;0,00763079;32-42 Average;0,083333333;;;;
31;42;0,00091533;;32;43;0,00091533;32-43 Average;0,125;;;;
31;43;0,00662479;;32;44;0,00662479;32-44 Average;0,5;;;;
32;33;0;;33;34;0;33-34 Average;0;;;;
32;34;0,00112233;;33;35;0,00112233;33-35 Average;0,0625;;;;
32;35;0,00058469;;33;36;0,00058469;33-36 Average;0,071428571;;;;
32;36;0,00252397;;33;37;0,00252397;33-37 Average;0,05;;;;
32;37;0,00188207;;33;38;0,00188207;33-38 Average;0,25;;;;
32;38;0,00027605;;33;39;0,00027605;33-39 Average;0,0625;;;;
32;39;0;;33;40;0;33-40 Average;0,15625;;;;
32;40;0,00024899;;33;41;0,00024899;33-41 Average;0;;;;
32;41;0,00062584;;33;42;0,00062584;33-42 Average;0,083333333;;;;
32;42;0,00043937;;33;43;0,00043937;33-43 Average;0,1875;;;;
32;43;0,00031549;;33;44;0,00031549;33-44 Average;0,05;;;;
33;34;0;;34;35;0;34-35 Average;0;;;;
33;35;0;;34;36;0;34-36 Average;0;;;;
33;36;0;;34;37;0;34-37 Average;0,583333333;;;;
33;37;0;;34;38;0;34-38 Average;0,05;;;;
33;38;0;;34;39;0;34-39 Average;0,083333333;;;;
33;39;0;;34;40;0;34-40 Average;0,5;;;;
33;40;0,00123411;;34;41;0,00123411;34-41 Average;0,875;;;;
33;41;0;;34;42;0;34-42 Average;0,333333333;;;;
33;42;0;;34;43;0;34-43 Average;0,15;;;;
33;43;0;;34;44;0;34-44 Average;0,1;;;;
34;35;0,00022771;;35;36;0,00022771;35-36 Average;0;;;;
34;36;0,00034101;;35;37;0,00034101;35-37 Average;0;;;;
34;37;0,00034168;;35;38;0,00034168;35-38 Average;0;;;;
34;38;0;;35;39;0;35-39 Average;0,083333333;;;;
34;39;0;;35;40;0;35-40 Average;0,2;;;;
34;40;0;;35;41;0;35-41 Average;0,035714286;;;;
34;41;0,00013116;;35;42;0,00013116;35-42 Average;0,05;;;;
34;42;0,00017177;;35;43;0,00017177;35-43 Average;0;;;;
34;43;0;;35;44;0;35-44 Average;0,041666667;;;;
35;36;0,00236087;;36;37;0,00236087;36-37 Average;0,15;;;;
35;37;0,002918;;36;38;0,002918;36-38 Average;0,166666667;;;;
35;38;0,00361977;;36;39;0,00361977;36-39 Average;0,125;;;;
35;39;0;;36;40;0;36-40 Average;0,166666667;;;;
35;40;0,00289661;;36;41;0,00289661;36-41 Average;0;;;;
35;41;0,09345412;;36;42;0,09345412;36-42 Average;0,464285714;;;;
35;42;0,00071456;;36;43;0,00071456;36-43 Average;0,125;;;;
35;43;0,00430814;;36;44;0,00430814;36-44 Average;0,2;;;;
36;37;0,00794673;;37;38;0,00794673;37-38 Average;0,15;;;;
36;38;0,00330756;;37;39;0,00330756;37-39 Average;0,1;;;;
36;39;0;;37;40;0;37-40 Average;0,5625;;;;
36;40;0,00328509;;37;41;0,00328509;37-41 Average;0,285714286;;;;
36;41;0,00476978;;37;42;0,00476978;37-42 Average;0,0625;;;;
36;42;0,14858628;;37;43;0,14858628;37-43 Average;0,571428571;;;;
36;43;0,00355333;;37;44;0,00355333;37-44 Average;0,1;;;;
37;38;0,00347886;;38;39;0,00347886;38-39 Average;0,05;;;;
37;39;0;;38;40;0;38-40 Average;0,1875;;;;
37;40;0,00356295;;38;41;0,00356295;38-41 Average;0;;;;
37;41;0,00434786;;38;42;0,00434786;38-42 Average;0,125;;;;
37;42;0,00068766;;38;43;0,00068766;38-43 Average;0,107142857;;;;
37;43;0,00366425;;38;44;0,00366425;38-44 Average;0,1;;;;
38;39;0;;39;40;0;39-40 Average;0,125;;;;
38;40;0,0030906;;39;41;0,0030906;39-41 Average;0;;;;
38;41;0,00327503;;39;42;0,00327503;39-42 Average;0;;;;
38;42;0,0009328;;39;43;0,0009328;39-43 Average;0,125;;;;
38;43;0,00423139;;39;44;0,00423139;39-44 Average;0,083333333;;;;
39;40;0;;40;41;0;40-41 Average;0,25;;;;
39;41;0;;40;42;0;40-42 Average;0;;;;
39;42;0;;40;43;0;40-43 Average;0,875;;;;
39;43;0,00008321;;40;44;0,00008321;40-44 Average;0,1875;;;;
40;41;0,00442393;;41;42;0,00442393;41-42 Average;0,1;;;;
40;42;0,00053158;;41;43;0,00053158;41-43 Average;0,25;;;;
40;43;0,00653303;;41;44;0,00653303;41-44 Average;0,041666667;;;;
41;42;0,00102629;;42;43;0,00102629;42-43 Average;0,1875;;;;
41;43;0,09600057;;42;44;0,09600057;42-44 Average;0,4;;;;
42;43;0,00085173;;43;44;0,00085173;43-44 Average;0,166666667;;;;
44;0;0,00080507;;45;1;0,00080507;45-1 Average;0,2;;;;
44;1;0,08727273;;45;2;0,08727273;45-2 Average;0;;;;
44;2;0,0068372;;45;3;0,0068372;45-3 Average;0,1875;;;;
44;3;0,01595312;;45;4;0,01595312;45-4 Average;0,1;;;;
44;4;0,01020203;;45;5;0,01020203;45-5 Average;0,125;;;;
44;5;0;;45;6;0;45-6 Average;0,0625;;;;
44;6;0,0209779;;45;7;0,0209779;45-7 Average;0,35;;;;
44;7;0,00737543;;45;8;0,00737543;45-8 Average;0;;;;
44;8;0,00039355;;45;9;0,00039355;45-9 Average;0,03125;;;;
44;9;0,02038204;;45;10;0,02038204;45-10 Average;0,125;;;;
44;10;0,08033954;;45;11;0,08033954;45-11 Average;0;;;;
44;11;0,0083161;;45;12;0,0083161;45-12 Average;0,125;;;;
44;12;0;;45;13;0;45-13 Average;0;;;;
44;13;0,00034225;;45;14;0,00034225;45-14 Average;0,15;;;;
44;14;0;;45;15;0;45-15 Average;0;;;;
44;15;0,00914757;;45;16;0,00914757;45-16 Average;0,142857143;;;;
44;16;0,00625294;;45;17;0,00625294;45-17 Average;0,25;;;;
44;17;0,00611141;;45;18;0,00611141;45-18 Average;0,125;;;;
44;18;0,00320462;;45;19;0,00320462;45-19 Average;0,05;;;;
44;19;0,00100618;;45;20;0,00100618;45-20 Average;0,125;;;;
44;20;0,00584024;;45;21;0,00584024;45-21 Average;0,125;;;;
44;21;0,01052632;;45;22;0,01052632;45-22 Average;0,071428571;;;;
44;22;0,0001434;;45;23;0,0001434;45-23 Average;0,083333333;;;;
44;23;0,00719088;;45;24;0,00719088;45-24 Average;0;;;;
44;24;0,00305807;;45;25;0,00305807;45-25 Average;0,041666667;;;;
44;25;0,01162076;;45;26;0,01162076;45-26 Average;0,083333333;;;;
44;26;0,00723472;;45;27;0,00723472;45-27 Average;0;;;;
44;27;0,00296833;;45;28;0,00296833;45-28 Average;0,1875;;;;
44;28;0,03590207;;45;29;0,03590207;45-29 Average;0,05;;;;
44;29;0;;45;30;0;45-30 Average;0,25;;;;
44;30;0;;45;31;0;45-31 Average;0,083333333;;;;
44;31;0,09320795;;45;32;0,09320795;45-32 Average;0,75;;;;
44;32;0,00021471;;45;33;0,00021471;45-33 Average;0,083333333;;;;
44;33;0;;45;34;0;45-34 Average;0;;;;
44;34;0,12962963;;45;35;0,12962963;45-35 Average;0,208333333;;;;
44;35;0,00631779;;45;36;0,00631779;45-36 Average;0,1;;;;
44;36;0,00394956;;45;37;0,00394956;45-37 Average;0;;;;
44;37;0,00456101;;45;38;0,00456101;45-38 Average;0,0625;;;;
44;38;0,09090909;;45;39;0,09090909;45-39 Average;0,25;;;;
44;39;0;;45;40;0;45-40 Average;0;;;;
44;40;0,00623855;;45;41;0,00623855;45-41 Average;0;;;;
44;41;0,0077996;;45;42;0,0077996;45-42 Average;0,083333333;;;;
44;42;0,00102804;;45;43;0,00102804;45-43 Average;0;;;;
44;43;0,01222303;;45;44;0,01222303;45-44 Average;0,35;;;;
44;45;0,00761204;;45;46;0,00761204;45-46 Average;0;;;;
44;46;0,00293665;;45;47;0,00293665;45-47 Average;0;;;;
44;47;0,00525875;;45;48;0,00525875;45-48 Average;0,1875;;;;
44;48;0,1;;45;49;0,1;45-49 Average;0,125;;;;
44;49;0,00966665;;45;50;0,00966665;45-50 Average;0,708333333;;;;
45;0;0,00181029;;46;1;0,00181029;46-1 Average;0,2;;;;
45;1;0,00274284;;46;2;0,00274284;46-2 Average;0,1;;;;
45;2;0,00256719;;46;3;0,00256719;46-3 Average;0,291666667;;;;
45;3;0,00204687;;46;4;0,00204687;46-4 Average;0,34375;;;;
45;4;0,00476346;;46;5;0,00476346;46-5 Average;0,1875;;;;
45;5;0;;46;6;0;46-6 Average;0;;;;
45;6;0,00243678;;46;7;0,00243678;46-7 Average;0,2;;;;
45;7;0,00520076;;46;8;0,00520076;46-8 Average;0,2;;;;
45;8;0,00016345;;46;9;0,00016345;46-9 Average;0;;;;
45;9;0,00457176;;46;10;0,00457176;46-10 Average;0,4;;;;
45;10;0,00290265;;46;11;0,00290265;46-11 Average;0;;;;
45;11;0,00552505;;46;12;0,00552505;46-12 Average;0,166666667;;;;
45;12;0;;46;13;0;46-13 Average;0,041666667;;;;
45;13;0,00063149;;46;14;0,00063149;46-14 Average;0,25;;;;
45;14;0;;46;15;0;46-15 Average;0;;;;
45;15;0,00628053;;46;16;0,00628053;46-16 Average;0,125;;;;
45;16;0,0030541;;46;17;0,0030541;46-17 Average;0,125;;;;
45;17;0,00330599;;46;18;0,00330599;46-18 Average;0;;;;
45;18;0,00289817;;46;19;0,00289817;46-19 Average;0,125;;;;
45;19;0,00081691;;46;20;0,00081691;46-20 Average;0,041666667;;;;
45;20;0,00501299;;46;21;0,00501299;46-21 Average;0,125;;;;
45;21;0;;46;22;0;46-22 Average;0,142857143;;;;
45;22;0;;46;23;0;46-23 Average;0,125;;;;
45;23;0,00359306;;46;24;0,00359306;46-24 Average;0,15625;;;;
45;24;0,00259348;;46;25;0,00259348;46-25 Average;0;;;;
45;25;0,10246381;;46;26;0,10246381;46-26 Average;0;;;;
45;26;0,00269068;;46;27;0,00269068;46-27 Average;0,0625;;;;
45;27;0,00268046;;46;28;0,00268046;46-28 Average;0,15;;;;
45;28;0,00363019;;46;29;0,00363019;46-29 Average;0,375;;;;
45;29;0;;46;30;0;46-30 Average;0;;;;
45;30;0;;46;31;0;46-31 Average;0,0625;;;;
45;31;0,0040179;;46;32;0,0040179;46-32 Average;0,1;;;;
45;32;0,00249734;;46;33;0,00249734;46-33 Average;0,071428571;;;;
45;33;0;;46;34;0;46-34 Average;0;;;;
45;34;0;;46;35;0;46-35 Average;0,0625;;;;
45;35;0,00205593;;46;36;0,00205593;46-36 Average;0,3;;;;
45;36;0,00312061;;46;37;0,00312061;46-37 Average;0,083333333;;;;
45;37;0,00320898;;46;38;0,00320898;46-38 Average;0,125;;;;
45;38;0,00317592;;46;39;0,00317592;46-39 Average;0,28125;;;;
45;39;0,00010352;;46;40;0,00010352;46-40 Average;0,1;;;;
45;40;0,00400495;;46;41;0,00400495;46-41 Average;0;;;;
45;41;0,00381423;;46;42;0,00381423;46-42 Average;0,15;;;;
45;42;0,00065353;;46;43;0,00065353;46-43 Average;0,083333333;;;;
45;43;0,00766883;;46;44;0,00766883;46-44 Average;0,111111111;;;;
45;46;0,00419575;;46;47;0,00419575;46-47 Average;0;;;;
45;47;0,00749725;;46;48;0,00749725;46-48 Average;0,2;;;;
45;48;0,0034175;;46;49;0,0034175;46-49 Average;0,0625;;;;
45;49;0,00069343;;46;50;0,00069343;46-50 Average;0,25;;;;
46;0;0,00027004;;47;1;0,00027004;47-1 Average;0,035714286;;;;
46;1;0,0023648;;47;2;0,0023648;47-2 Average;0;;;;
46;2;0,0030762;;47;3;0,0030762;47-3 Average;0,0625;;;;
46;3;0,00277675;;47;4;0,00277675;47-4 Average;0,1875;;;;
46;4;0,00408239;;47;5;0,00408239;47-5 Average;0,166666667;;;;
46;5;0;;47;6;0;47-6 Average;0;;;;
46;6;0,00268251;;47;7;0,00268251;47-7 Average;0;;;;
46;7;0,00280589;;47;8;0,00280589;47-8 Average;0,0625;;;;
46;8;0,125;;47;9;0,125;47-9 Average;0,958333333;;;;
46;9;0,00255345;;47;10;0,00255345;47-10 Average;0,083333333;;;;
46;10;0,00373188;;47;11;0,00373188;47-11 Average;0,0625;;;;
46;11;0,00302564;;47;12;0,00302564;47-12 Average;0;;;;
46;12;0;;47;13;0;47-13 Average;0,035714286;;;;
46;13;0;;47;14;0;47-14 Average;0;;;;
46;14;0;;47;15;0;47-15 Average;0,03125;;;;
46;15;0,09775962;;47;16;0,09775962;47-16 Average;0;;;;
46;16;0,00447066;;47;17;0,00447066;47-17 Average;0,15;;;;
46;17;0,00426776;;47;18;0,00426776;47-18 Average;0,25;;;;
46;18;0,00232483;;47;19;0,00232483;47-19 Average;0,4375;;;;
46;19;0,00225657;;47;20;0,00225657;47-20 Average;0,3125;;;;
46;20;0,11543305;;47;21;0,11543305;47-21 Average;0;;;;
46;21;0,00017603;;47;22;0,00017603;47-22 Average;0;;;;
46;22;0;;47;23;0;47-23 Average;0;;;;
46;23;0,00581946;;47;24;0,00581946;47-24 Average;0,05;;;;
46;24;0,00236531;;47;25;0,00236531;47-25 Average;0,107142857;;;;
46;25;0,00222617;;47;26;0,00222617;47-26 Average;0;;;;
46;26;0,00236588;;47;27;0,00236588;47-27 Average;0,125;;;;
46;27;0,00253973;;47;28;0,00253973;47-28 Average;0,035714286;;;;
46;28;0,00456201;;47;29;0,00456201;47-29 Average;0;;;;
46;29;0;;47;30;0;47-30 Average;0,071428571;;;;
46;30;0;;47;31;0;47-31 Average;0;;;;
46;31;0,00230773;;47;32;0,00230773;47-32 Average;0,041666667;;;;
46;32;0,00042756;;47;33;0,00042756;47-33 Average;0,041666667;;;;
46;33;0;;47;34;0;47-34 Average;0,1875;;;;
46;34;0;;47;35;0;47-35 Average;0;;;;
46;35;0,00229241;;47;36;0,00229241;47-36 Average;0,1;;;;
46;36;0,00433897;;47;37;0,00433897;47-37 Average;0,75;;;;
46;37;0,00367386;;47;38;0,00367386;47-38 Average;0,0625;;;;
46;38;0,00280821;;47;39;0,00280821;47-39 Average;0,125;;;;
46;39;0;;47;40;0;47-40 Average;0,6;;;;
46;40;0,00216656;;47;41;0,00216656;47-41 Average;0,178571429;;;;
46;41;0,00385776;;47;42;0,00385776;47-42 Average;0;;;;
46;42;0,00080118;;47;43;0,00080118;47-43 Average;0,2;;;;
46;43;0,00321547;;47;44;0,00321547;47-44 Average;0,107142857;;;;
46;47;0,00368764;;47;48;0,00368764;47-48 Average;0,083333333;;;;
46;48;0,00280821;;47;49;0,00280821;47-49 Average;0,035714286;;;;
46;49;0,00058824;;47;50;0,00058824;47-50 Average;0;;;;
47;0;0,00174411;;48;1;0,00174411;48-1 Average;0,208333333;;;;
47;1;0,00162553;;48;2;0,00162553;48-2 Average;0,0625;;;;
47;2;0,00296534;;48;3;0,00296534;48-3 Average;0,25;;;;
47;3;0,003449;;48;4;0,003449;48-4 Average;0,291666667;;;;
47;4;0,00354491;;48;5;0,00354491;48-5 Average;0,125;;;;
47;5;0,000343;;48;6;0,000343;48-6 Average;0,1875;;;;
47;6;0,00250645;;48;7;0,00250645;48-7 Average;0,1875;;;;
47;7;0,07505292;;48;8;0,07505292;48-8 Average;0,375;;;;
47;8;0;;48;9;0;48-9 Average;0,071428571;;;;
47;9;0,00605139;;48;10;0,00605139;48-10 Average;0,208333333;;;;
47;10;0,00334426;;48;11;0,00334426;48-11 Average;0,166666667;;;;
47;11;0,00723056;;48;12;0,00723056;48-12 Average;0,285714286;;;;
47;12;0;;48;13;0;48-13 Average;0,1;;;;
47;13;0,00015352;;48;14;0,00015352;48-14 Average;0,1;;;;
47;14;0;;48;15;0;48-15 Average;0;;;;
47;15;0,01072195;;48;16;0,01072195;48-16 Average;0,458333333;;;;
47;16;0,00288781;;48;17;0,00288781;48-17 Average;0,178571429;;;;
47;17;0,00353552;;48;18;0,00353552;48-18 Average;0,166666667;;;;
47;18;0,00189927;;48;19;0,00189927;48-19 Average;0,166666667;;;;
47;19;0,00053203;;48;20;0,00053203;48-20 Average;0,083333333;;;;
47;20;0,15397436;;48;21;0,15397436;48-21 Average;0,5625;;;;
47;21;0;;48;22;0;48-22 Average;0;;;;
47;22;0,0001964;;48;23;0,0001964;48-23 Average;0,1;;;;
47;23;0,00474226;;48;24;0,00474226;48-24 Average;0,35;;;;
47;24;0,00196524;;48;25;0,00196524;48-25 Average;0,125;;;;
47;25;0,00175296;;48;26;0,00175296;48-26 Average;0,111111111;;;;
47;26;0,00255823;;48;27;0,00255823;48-27 Average;0,125;;;;
47;27;0,00182331;;48;28;0,00182331;48-28 Average;0,285714286;;;;
47;28;0,00303466;;48;29;0,00303466;48-29 Average;0,1;;;;
47;29;0;;48;30;0;48-30 Average;0,125;;;;
47;30;0;;48;31;0;48-31 Average;0,0625;;;;
47;31;0,00253703;;48;32;0,00253703;48-32 Average;0,083333333;;;;
47;32;0,00203048;;48;33;0,00203048;48-33 Average;0,25;;;;
47;33;0;;48;34;0;48-34 Average;0;;;;
47;34;0;;48;35;0;48-35 Average;0;;;;
47;35;0,00226679;;48;36;0,00226679;48-36 Average;0,4;;;;
47;36;0,00254384;;48;37;0,00254384;48-37 Average;0,1875;;;;
47;37;0,0025536;;48;38;0,0025536;48-38 Average;0;;;;
47;38;0,00182873;;48;39;0,00182873;48-39 Average;0,166666667;;;;
47;39;0;;48;40;0;48-40 Average;0;;;;
47;40;0,00401162;;48;41;0,00401162;48-41 Average;0;;;;
47;41;0,00318701;;48;42;0,00318701;48-42 Average;0,25;;;;
47;42;0,00049902;;48;43;0,00049902;48-43 Average;0,1875;;;;
47;43;0,00554993;;48;44;0,00554993;48-44 Average;0,125;;;;
47;48;0,00190533;;48;49;0,00190533;48-49 Average;0;;;;
47;49;0,00051203;;48;50;0,00051203;48-50 Average;0,15;;;;
48;0;0,00073232;;49;1;0,00073232;49-1 Average;0,125;;;;
48;1;0,21126932;;49;2;0,21126932;49-2 Average;0,571428571;;;;
48;2;0,00361977;;49;3;0,00361977;49-3 Average;0,125;;;;
48;3;0,00221857;;49;4;0,00221857;49-4 Average;0;;;;
48;4;0,00358541;;49;5;0,00358541;49-5 Average;0,05;;;;
48;5;0;;49;6;0;49-6 Average;0,107142857;;;;
48;6;0,00327503;;49;7;0,00327503;49-7 Average;0,041666667;;;;
48;7;0,00277424;;49;8;0,00277424;49-8 Average;0;;;;
48;8;0,0000748;;49;9;0,0000748;49-9 Average;0;;;;
48;9;0,00254725;;49;10;0,00254725;49-10 Average;0;;;;
48;10;0,0038314;;49;11;0,0038314;49-11 Average;0,2;;;;
48;11;0,00341468;;49;12;0,00341468;49-12 Average;0,1875;;;;
48;12;0;;49;13;0;49-13 Average;0,2;;;;
48;13;0;;49;14;0;49-14 Average;0,15;;;;
48;14;0;;49;15;0;49-15 Average;0;;;;
48;15;0,00299025;;49;16;0,00299025;49-16 Average;0;;;;
48;16;0,00423139;;49;17;0,00423139;49-17 Average;0,071428571;;;;
48;17;0,00297098;;49;18;0,00297098;49-18 Average;0,125;;;;
48;18;0,00223501;;49;19;0,00223501;49-19 Average;0,09375;;;;
48;19;0,00117828;;49;20;0,00117828;49-20 Average;0,125;;;;
48;20;0,00219447;;49;21;0,00219447;49-21 Average;0,03125;;;;
48;21;0,02962963;;49;22;0,02962963;49-22 Average;0,5;;;;
48;22;0;;49;23;0;49-23 Average;0;;;;
48;23;0,00502478;;49;24;0,00502478;49-24 Average;0;;;;
48;24;0,00270145;;49;25;0,00270145;49-25 Average;0,05;;;;
48;25;0,00255927;;49;26;0,00255927;49-26 Average;0,107142857;;;;
48;26;0,00382087;;49;27;0,00382087;49-27 Average;0,0625;;;;
48;27;0,00359324;;49;28;0,00359324;49-28 Average;0,0625;;;;
48;28;0,00519695;;49;29;0,00519695;49-29 Average;0;;;;
48;29;0;;49;30;0;49-30 Average;0;;;;
48;30;0;;49;31;0;49-31 Average;0;;;;
48;31;0,00321;;49;32;0,00321;49-32 Average;0,25;;;;
48;32;0,00083787;;49;33;0,00083787;49-33 Average;0,1;;;;
48;33;0;;49;34;0;49-34 Average;0;;;;
48;34;0;;49;35;0;49-35 Average;0;;;;
48;35;0,00361977;;49;36;0,00361977;49-36 Average;0,1;;;;
48;36;0,00330756;;49;37;0,00330756;49-37 Average;0,027777778;;;;
48;37;0,00347886;;49;38;0,00347886;49-38 Average;0;;;;
48;38;0,11111111;;49;39;0,11111111;49-39 Average;0,041666667;;;;
48;39;0;;49;40;0;49-40 Average;0,0625;;;;
48;40;0,00313917;;49;41;0,00313917;49-41 Average;0;;;;
48;41;0,00327503;;49;42;0,00327503;49-42 Average;0;;;;
48;42;0,0009328;;49;43;0,0009328;49-43 Average;0,125;;;;
48;43;0,00423139;;49;44;0,00423139;49-44 Average;0,1875;;;;
48;49;0,00039072;;49;50;0,00039072;49-50 Average;0,1875;;;;
49;0;0,00400962;;50;1;0,00400962;50-1 Average;0,625;;;;
49;1;0,00985871;;50;2;0,00985871;50-2 Average;0;;;;
49;2;0,00185348;;50;3;0,00185348;50-3 Average;0,214285714;;;;
49;3;0,0137984;;50;4;0,0137984;50-4 Average;0,25;;;;
49;4;0,00138878;;50;5;0,00138878;50-5 Average;0,125;;;;
49;5;0;;50;6;0;50-6 Average;0;;;;
49;6;0,01125094;;50;7;0,01125094;50-7 Average;0;;;;
49;7;0,00125256;;50;8;0,00125256;50-8 Average;0;;;;
49;8;0;;50;9;0;50-9 Average;0,125;;;;
49;9;0,01534522;;50;10;0,01534522;50-10 Average;0;;;;
49;10;0,0014162;;50;11;0,0014162;50-11 Average;0,071428571;;;;
49;11;0,00161003;;50;12;0,00161003;50-12 Average;0,1;;;;
49;12;0;;50;13;0;50-13 Average;0;;;;
49;13;0,00580155;;50;14;0,00580155;50-14 Average;0,3;;;;
49;14;0;;50;15;0;50-15 Average;0,05;;;;
49;15;0,00172998;;50;16;0,00172998;50-16 Average;0;;;;
49;16;0,00045513;;50;17;0,00045513;50-17 Average;0,0625;;;;
49;17;0,00083891;;50;18;0,00083891;50-18 Average;0,1;;;;
49;18;0,0002108;;50;19;0,0002108;50-19 Average;0,0625;;;;
49;19;0,00033285;;50;20;0,00033285;50-20 Average;0,107142857;;;;
49;20;0,00242902;;50;21;0,00242902;50-21 Average;0,1;;;;
49;21;0,00325859;;50;22;0,00325859;50-22 Average;0,5;;;;
49;22;0,00233453;;50;23;0,00233453;50-23 Average;0,05;;;;
49;23;0,00075648;;50;24;0,00075648;50-24 Average;0,083333333;;;;
49;24;0,0011912;;50;25;0,0011912;50-25 Average;0,25;;;;
49;25;0,01182072;;50;26;0,01182072;50-26 Average;0,15;;;;
49;26;0,01224024;;50;27;0,01224024;50-27 Average;0;;;;
49;27;0,000741;;50;28;0,000741;50-28 Average;0,375;;;;
49;28;0,02687163;;50;29;0,02687163;50-29 Average;0,166666667;;;;
49;29;0;;50;30;0;50-30 Average;0;;;;
49;30;0;;50;31;0;50-31 Average;0;;;;
49;31;0,20330569;;50;32;0,20330569;50-32 Average;0,916666667;;;;
49;32;0,00681122;;50;33;0,00681122;50-33 Average;0,5;;;;
49;33;0;;50;34;0;50-34 Average;0,03125;;;;
49;34;0,0134929;;50;35;0,0134929;50-35 Average;0;;;;
49;35;0,00072504;;50;36;0,00072504;50-36 Average;0,138888889;;;;
49;36;0,00192528;;50;37;0,00192528;50-37 Average;0,05;;;;
49;37;0,00148755;;50;38;0,00148755;50-38 Average;0,208333333;;;;
49;38;0,00039072;;50;39;0,00039072;50-39 Average;0,125;;;;
49;39;0,00031838;;50;40;0,00031838;50-40 Average;0,125;;;;
49;40;0,00027938;;50;41;0,00027938;50-41 Average;0,05;;;;
49;41;0,0021865;;50;42;0,0021865;50-42 Average;0,1;;;;
49;42;0,00048648;;50;43;0,00048648;50-43 Average;0,0625;;;;
49;43;0,0011719;;50;44;0,0011719;50-44 Average;0,15;;;;
