0	1
2	3
4	5
6	7
8	9
9	15
9	16
9	37
9	60
9	265
9	351
9	543
9	546
9	709
9	768
9	806
9	1199
10	11
12	13
14	15
15	132
15	163
15	206
15	538
15	875
15	1093
16	128
17	18
19	20
19	135
19	273
19	400
19	568
23	24
23	1227
25	26
26	60
26	247
27	28
29	30
31	32
33	34
35	36
38	39
40	41
40	281
42	43
46	47
48	49
51	797
52	53
54	55
56	57
56	455
57	234
57	286
57	646
58	59
60	61
60	123
60	133
60	140
60	151
60	153
60	166
60	221
60	231
60	239
60	288
60	326
60	333
60	387
60	388
60	396
60	417
60	428
60	451
60	454
60	478
60	504
60	547
60	565
60	596
60	714
60	815
60	979
60	991
60	1075
62	63
63	214
64	65
68	69
68	1163
69	189
69	238
69	849
69	891
70	71
72	73
74	75
74	408
76	77
78	79
80	81
81	158
82	83
84	85
86	87
88	89
90	91
94	95
94	209
94	368
95	278
96	97
98	99
100	101
101	897
102	103
104	105
104	145
104	284
105	171
105	504
106	107
107	664
108	109
110	111
112	113
113	206
113	622
114	115
116	117
117	816
118	119
118	835
120	121
122	123
122	373
123	165
124	125
124	309
124	384
126	127
126	188
126	248
126	548
127	917
128	146
128	179
128	350
128	528
128	812
128	842
128	1028
129	130
131	132
132	300
134	135
135	473
136	137
138	139
139	235
141	142
141	334
143	144
146	149
147	148
147	419
150	151
151	164
151	418
151	559
152	153
154	155
157	521
159	160
161	162
162	1015
164	165
165	209
165	231
165	279
165	476
165	628
166	302
167	168
169	170
170	195
172	173
174	175
176	1197
178	291
178	514
178	527
178	1089
179	730
180	181
182	183
184	185
186	187
187	192
190	191
193	194
196	197
196	1060
198	199
199	517
200	201
202	203
206	354
207	208
209	335
209	916
210	211
211	794
215	216
217	218
219	220
224	225
229	230
231	585
231	680
232	233
233	397
234	240
234	825
236	237
237	1050
241	242
242	1205
243	244
245	246
246	894
249	250
251	252
252	275
253	254
255	256
257	258
259	260
260	391
261	262
263	264
265	266
265	354
265	359
267	268
267	505
267	621
267	1204
269	270
271	272
272	520
274	275
274	747
276	277
278	529
279	280
281	533
283	288
286	872
286	1148
287	288
288	530
288	869
288	922
288	1055
292	293
294	295
296	297
298	299
300	301
303	304
305	306
309	964
310	311
312	313
314	315
316	317
318	319
320	321
322	323
326	466
327	328
328	407
328	493
329	330
331	332
333	677
333	1241
335	665
336	337
340	341
342	343
343	706
344	345
346	347
348	349
352	353
357	358
360	361
362	363
364	365
366	367
369	370
371	372
374	375
376	377
378	379
378	781
380	381
382	383
385	386
389	390
392	393
394	395
395	750
395	1092
401	402
403	404
405	406
409	410
409	1052
411	412
413	414
418	562
419	672
420	421
422	423
426	427
429	430
433	434
435	436
437	438
439	440
441	442
443	444
445	446
447	448
452	453
456	457
458	459
460	461
462	463
464	465
467	468
469	470
471	472
473	689
474	475
477	478
479	480
480	1082
481	482
483	484
485	486
485	1010
487	488
494	495
496	497
498	499
500	501
500	1051
502	503
506	507
508	509
510	511
512	513
514	1136
515	516
517	1196
518	519
521	649
522	523
522	625
525	526
526	713
528	1236
531	532
534	535
539	540
541	542
544	545
547	857
551	552
553	554
555	556
557	558
557	860
560	561
563	564
566	567
567	633
569	570
571	572
571	971
573	574
575	576
577	578
579	580
581	582
583	584
586	587
588	589
590	591
592	593
592	878
594	595
596	974
597	598
599	600
601	602
603	604
603	930
605	606
607	608
607	723
609	610
609	1210
611	612
613	614
615	616
617	618
619	620
623	624
626	627
629	630
631	632
634	635
636	637
638	639
640	641
642	643
644	645
647	648
650	651
652	653
654	655
655	1063
656	657
658	659
660	661
662	663
662	809
666	667
670	671
673	674
678	679
681	682
683	684
685	686
687	688
690	691
692	693
694	695
696	697
698	699
700	701
702	703
704	705
707	708
711	712
715	716
717	718
719	720
721	722
724	725
726	727
728	729
731	732
733	734
735	736
737	738
739	740
741	742
743	744
745	746
748	749
751	752
753	754
757	758
759	760
762	763
764	765
766	767
769	770
771	772
771	1141
773	774
775	776
777	778
779	780
782	783
784	785
786	787
788	789
790	791
792	793
795	796
798	799
800	801
802	803
804	805
807	808
810	811
813	814
817	818
819	820
821	822
823	824
827	828
827	1068
829	830
831	832
833	834
836	837
838	839
840	841
843	844
845	846
847	848
851	852
853	854
855	856
858	859
861	862
863	864
865	866
867	868
870	871
873	874
876	877
876	927
879	880
881	882
883	884
885	886
887	888
888	1105
892	893
895	896
898	899
900	901
904	905
906	907
908	909
910	911
912	913
914	915
918	919
920	921
920	1242
925	926
928	929
931	932
933	934
935	936
937	938
939	940
941	942
944	945
946	947
948	949
950	951
952	953
956	957
958	959
960	961
962	963
967	968
969	970
972	973
975	976
977	978
980	981
982	983
984	985
986	987
989	990
992	993
994	995
996	997
998	999
1000	1001
1002	1003
1004	1005
1006	1007
1008	1009
1011	1012
1013	1014
1016	1017
1020	1021
1022	1023
1024	1025
1026	1027
1026	1029
1030	1031
1032	1033
1034	1035
1036	1037
1038	1039
1040	1041
1042	1043
1044	1045
1046	1047
1048	1049
1053	1054
1056	1057
1058	1059
1058	1104
1061	1062
1064	1065
1066	1067
1069	1070
1071	1072
1073	1074
1076	1077
1078	1079
1080	1081
1083	1084
1085	1086
1087	1088
1090	1091
1094	1095
1096	1097
1098	1099
1100	1101
1102	1103
1106	1107
1108	1109
1110	1111
1112	1113
1114	1115
1116	1117
1118	1119
1120	1121
1122	1123
1124	1125
1126	1127
1128	1129
1130	1131
1132	1133
1134	1135
1137	1138
1139	1140
1141	1164
1142	1143
1144	1145
1146	1147
1151	1152
1153	1154
1155	1156
1157	1158
1161	1162
1165	1166
1167	1168
1169	1170
1171	1172
1173	1174
1175	1176
1177	1178
1179	1180
1181	1182
1183	1184
1185	1186
1187	1188
1189	1190
1192	1193
1194	1195
1200	1201
1202	1203
1206	1207
1208	1209
1211	1212
1213	1214
1215	1216
1217	1218
1219	1220
1221	1222
1223	1224
1225	1226
1228	1229
1230	1231
1232	1233
1234	1235
1237	1238
1243	1244
1245	1246
