<?xml version="1.0" encoding="UTF-8"?>
<session version="1.0">
<refactoring comment="Delete resource &apos;ısıl&apos;" deleteContents="true" description="Delete resource &apos;ısıl&apos;" element1="/ısıl" flags="7" id="org.eclipse.ltk.core.refactoring.delete.resources" resources="1" stamp="1454106046123"/>
</session>