44	45	26798.98454072	1.40644	13	10
44	46	15050.87495596	0.295985	13	7
44	47	23802.53035379	0.3551	13	15
44	48	62186.19406246	0.349763	13	9
44	49	3551.69502490	0.275869	13	9
44	10	82083.38568147	0.628916	13	15
44	11	34245.36453138	1.186812	13	12
44	12	-903.93726052	0.298858	13	7
44	13	1216.42340895	0.241386	13	7
44	14	-1175.96032813	0.281616	13	10
44	15	38606.19065594	0.330468	13	14
44	16	27122.26884432	0.240565	13	10
44	17	29023.10425332	0.289827	13	12
44	18	8302.01001539	0.339499	13	11
44	19	8536.69147540	0.26027	13	10
44	0	3418.96661884	0.296805	13	12
44	1	53692.79071504	0.364541	13	12
44	2	23228.61895561	0.26109	13	10
44	3	26982.86867281	0.459371	13	22
44	4	37702.04123929	0.243849	13	11
44	5	-972.43524286	0.51397	13	18
44	6	22918.81633062	0.3161	13	12
44	7	34694.22334181	0.30009	13	13
44	8	1421.31384578	0.248775	13	9
44	9	34918.95137777	0.479487	13	18
44	20	28380.85988082	0.25288	13	11
44	21	1119.61951236	0.208133	13	6
44	22	255.93962711	2.19587	13	8
44	23	34532.96410611	0.202386	13	7
44	24	10407.26482217	0.233586	13	9
44	25	9178.68591442	0.566107	13	10
44	26	25777.49018604	0.239333	13	9
44	27	16338.94685579	0.597717	13	10
44	28	35625.25643628	0.234817	13	6
44	29	-1317.10593976	0.23687	13	9
44	30	-1475.40247921	0.15805	13	6
44	31	70440.77112535	0.409698	13	11
44	32	1108.08898065	0.184324	13	5
44	33	-928.93730695	0.196638	13	8
44	34	77421.29407667	0.172418	13	5
44	35	26189.03796129	0.669968	13	10
44	36	14667.18462082	0.357562	13	12
44	37	14237.93710561	0.292701	13	6
44	38	61783.09860469	0.310763	13	9
44	39	-1042.76009737	0.261501	13	10
44	40	30535.94218811	0.265606	13	12
44	41	30634.36061254	0.269711	13	12
44	42	7732.67470037	0.89206	13	15
44	43	48475.56287550	0.261501	13	10
45	46	13312.53681683	0.160513	10	7
45	47	22084.46619694	0.238923	10	15
45	48	12159.75858627	0.147787	10	9
45	49	6137.63963049	0.162565	10	9
45	10	13370.99781002	0.247954	10	15
45	11	25583.62451514	0.172418	10	12
45	12	-1026.11844226	0.13424	10	7
45	13	4501.67001247	0.135061	10	7
45	14	-2215.15356211	0.177755	10	10
45	15	28574.54784844	0.241386	10	14
45	16	12213.35574828	0.162566	10	10
45	17	12226.89806523	0.175703	10	12
45	18	9015.05765033	0.279974	10	11
45	19	3712.45573241	0.231533	10	10
45	0	8284.70602220	0.175292	10	12
45	1	7736.60640128	0.195818	10	12
45	2	8157.07309817	0.184733	10	10
45	3	11303.60231387	0.423656	10	22
45	4	17549.01061908	0.177755	10	11
45	5	4969.30849191	0.293521	10	18
45	6	10963.75427400	0.217575	10	12
45	7	28722.25782415	0.200333	10	13
45	8	1155.58035459	0.154355	10	9
45	9	19966.97235304	0.290648	10	18
45	20	19889.54421990	0.159282	10	11
45	21	1123.32599141	0.147787	10	6
45	22	-1154.63669438	0.172007	10	8
45	23	15149.52134395	0.165439	10	7
45	24	7608.28096280	0.161334	10	9
45	25	76626.37559631	0.204438	10	10
45	26	8168.85893406	0.147377	10	9
45	27	14429.33154282	0.174471	10	10
45	28	12313.56483767	1.080077	10	6
45	29	-1771.38862534	0.270943	10	9
45	30	-1830.62951674	0.239333	10	6
45	31	10342.07889169	0.375626	10	11
45	32	11727.62735028	0.135472	10	5
45	33	-2167.87634621	0.203618	10	8
45	34	-776.86412525	0.172008	10	5
45	35	9631.74285880	0.162565	10	10
45	36	8193.57320944	0.194586	10	12
45	37	11169.46639160	0.14163	10	6
45	38	8862.58404775	0.151892	10	9
45	39	-460.18594928	0.573496	10	10
45	40	19835.57669227	0.271764	10	12
45	41	22869.55125501	0.184734	10	12
45	42	3665.21901421	0.261912	10	15
45	43	33880.19583625	0.194586	10	10
46	47	16757.90546093	0.18925	7	15
46	48	12907.00386122	0.105504	7	9
46	49	3410.17030397	0.185965	7	9
46	10	32506.43663727	0.184734	7	15
46	11	19972.77785864	0.138756	7	12
46	12	-2457.42078637	0.075946	7	7
46	13	-1298.89981616	0.085388	7	7
46	14	-1628.52028546	0.111251	7	10
46	15	83062.65012805	0.159692	7	14
46	16	22252.74197075	0.11864	7	10
46	17	21173.68121927	0.110429	7	12
46	18	9473.27286400	0.10222	7	11
46	19	36899.74928745	0.093599	7	10
46	0	867.98114428	0.120693	7	12
46	1	10211.32092637	0.178987	7	12
46	2	15337.76396874	0.11084	7	10
46	3	18019.97802334	4.106018	7	22
46	4	28127.46542899	0.228659	7	11
46	5	-594.12882329	0.157229	7	18
46	6	18031.17588900	0.125619	7	12
46	7	17453.83955306	0.125619	7	13
46	8	88011.27557461	0.092367	7	9
46	9	19480.30427871	0.128083	7	18
46	20	97650.12691231	0.124388	7	11
46	21	-64.94146130	0.061578	7	6
46	22	-1393.75701133	0.073893	7	8
46	23	37162.86203731	0.061988	7	7
46	24	7591.49846651	0.068967	7	9
46	25	6882.90832576	0.069378	7	10
46	26	12135.58765856	0.083335	7	9
46	27	15318.83067549	0.093188	7	10
46	28	20316.02143369	0.061167	7	6
46	29	-2025.59981965	0.080872	7	9
46	30	-2357.89487029	0.056652	7	6
46	31	12812.92870013	0.151892	7	11
46	32	981.73361185	0.057472	7	5
46	33	-561.33569140	0.080462	7	8
46	34	-1453.68272121	0.056241	7	5
46	35	20895.10801567	0.092367	7	10
46	36	34717.81200494	0.531212	7	12
46	37	15662.68083962	0.068557	7	6
46	38	12983.17480859	0.092367	7	9
46	39	-695.78076971	0.091546	7	10
46	40	13876.33727084	0.093599	7	12
46	41	34729.21631915	0.091546	7	12
46	42	9848.64904600	0.12644	7	15
46	43	20093.29722668	0.082925	7	10
47	48	12039.20526101	0.16585	15	9
47	49	3178.97247554	0.203207	15	9
47	10	19357.37563927	0.216754	15	15
47	11	34415.78315687	0.188018	15	12
47	12	-565.34730291	0.148608	15	7
47	13	793.56935677	0.119871	15	7
47	14	-1251.28583218	0.12644	15	10
47	15	42608.03538245	0.188428	15	14
47	16	14886.05163134	0.146145	15	10
47	17	18430.92844589	0.231122	15	12
47	18	6954.86342471	0.250006	15	11
47	19	6357.39590964	0.209365	15	10
47	0	4898.69056841	0.166671	15	12
47	1	9371.13726228	0.266016	15	12
47	2	16071.61533170	0.135471	15	10
47	3	19001.53435808	0.270943	15	22
47	4	16108.83789570	0.154766	15	11
47	5	420.62396855	0.258627	15	18
47	6	18138.10480173	0.180629	15	12
47	7	77495.62441751	0.179808	15	13
47	8	-1150.46836833	0.146555	15	9
47	9	31070.77449699	0.224144	15	18
47	20	107604.01716304	0.168313	15	11
47	21	-590.44033931	0.11043	15	6
47	22	186.01518351	0.114535	15	8
47	23	24518.39428281	0.153124	15	7
47	24	7067.46733704	0.151482	15	9
47	25	5730.66928005	0.160513	15	10
47	26	11599.67031895	0.135472	15	9
47	27	12536.90843106	0.130135	15	10
47	28	12318.80350997	0.118229	15	6
47	29	-1059.35484770	0.135882	15	9
47	30	-1280.63467967	0.088672	15	6
47	31	9345.30480697	0.161334	15	11
47	32	5663.61875284	0.11864	15	5
47	33	-1179.53452590	0.117409	15	8
47	34	-281.93251680	0.33129	15	5
47	35	16690.11986643	0.147377	15	10
47	36	9382.38535377	0.240154	15	12
47	37	11793.23437917	0.11823	15	6
47	38	10158.37681958	0.139166	15	9
47	39	-1009.97562845	0.145324	15	10
47	40	26004.54947068	0.179807	15	12
47	41	20996.08712491	0.143272	15	12
47	42	4970.22578050	0.262732	15	15
47	43	33105.77581840	0.164208	15	10
48	49	1880.83810433	0.07923	9	9
48	10	13033.93997395	0.116998	9	15
48	11	15716.91856831	0.093188	9	12
48	12	-623.97802627	0.061167	9	7
48	13	-823.20851273	0.06281	9	7
48	14	-1842.07108698	0.083336	9	10
48	15	15282.15382539	0.107556	9	14
48	16	16907.44573268	0.077999	9	10
48	17	17155.61612537	0.089903	9	12
48	18	8841.53434813	0.07923	9	11
48	19	8449.41320575	0.082514	9	10
48	0	3212.97318200	0.088672	9	12
48	1	136793.64278186	0.168723	9	12
48	2	14646.26574683	0.076357	9	10
48	3	11067.10129977	0.149429	9	22
48	4	14599.30380033	0.71102	9	11
48	5	874.27292897	0.155177	9	18
48	6	17800.35205196	0.124798	9	12
48	7	16376.46724354	0.117408	9	13
48	8	-1011.11398362	0.076767	9	9
48	9	11549.50834205	0.123977	9	18
48	20	13042.79373767	0.100988	9	11
48	21	-217.73020717	0.047621	9	6
48	22	-1153.36057159	0.073893	9	8
48	23	20873.31252897	0.06322	9	7
48	24	9118.19961927	0.065684	9	9
48	25	8531.12856852	0.066504	9	10
48	26	14870.55957852	0.068557	9	9
48	27	20756.25285002	0.085798	9	10
48	28	26154.83771822	0.060346	9	6
48	29	-1922.35009392	0.073072	9	9
48	30	-1973.44190826	0.061578	9	6
48	31	14582.71959379	0.091957	9	11
48	32	3411.28069625	0.047209	9	5
48	33	-1764.04924666	0.066915	9	8
48	34	-1073.01416720	0.049262	9	5
48	35	17575.18637321	0.084567	9	10
48	36	14702.22234027	0.109608	9	12
48	37	17190.34270859	0.081694	9	6
48	38	75262.54858386	0.080872	9	9
48	39	-1268.61833192	0.122745	9	10
48	40	12881.97234361	0.128493	9	12
48	41	16084.40313117	0.19007	9	12
48	42	6815.92820702	0.182271	9	15
48	43	19347.92668613	0.255754	9	10
49	10	14855.77954995	0.116178	9	15
49	11	14812.69583069	0.091546	9	12
49	12	-1257.61737639	0.056242	9	7
49	13	54386.20230163	0.053778	9	7
49	14	-1635.60606221	0.077177	9	10
49	15	19624.93451549	0.10263	9	14
49	16	2791.34755850	0.071841	9	10
49	17	4590.75994062	0.084977	9	12
49	18	299.97492630	0.07882	9	11
49	19	1616.83309088	0.074304	9	10
49	0	41214.87665438	0.119462	9	12
49	1	1212.00548759	0.092367	9	12
49	2	18794.45728480	0.083336	9	10
49	3	8266.93190632	0.209365	9	22
49	4	16859.19530542	0.081283	9	11
49	5	-609.87454269	0.141629	9	18
49	6	6527.04794309	0.088672	9	12
49	7	14446.87498213	0.084567	9	13
49	8	-2218.03362749	0.081694	9	9
49	9	4104.98325438	0.142451	9	18
49	20	20185.79837903	0.128903	9	11
49	21	14808.39314476	0.056652	9	6
49	22	8877.68295230	0.310353	9	8
49	23	5996.39164654	0.056241	9	7
49	24	4571.29110007	0.066504	9	9
49	25	-160.18997001	0.064041	9	10
49	26	2568.91146555	0.067735	9	9
49	27	10084.05961897	0.066094	9	10
49	28	10951.10527252	0.076767	9	6
49	29	-1748.50665347	0.070199	9	9
49	30	-1809.17907997	0.052136	9	6
49	31	160003.13776776	0.217986	9	11
49	32	63466.57623648	0.049263	9	5
49	33	-2008.63727061	0.060347	9	8
49	34	12681.33464288	0.092777	9	5
49	35	6919.12234462	0.085388	9	10
49	36	12618.11305163	0.090725	9	12
49	37	10948.92404968	0.057883	9	6
49	38	1067.43715680	0.076768	9	9
49	39	594.73316760	0.072662	9	10
49	40	1052.65504236	0.163387	9	12
49	41	12616.85102208	0.089083	9	12
49	42	9380.04092112	0.112072	9	15
49	43	11507.46850370	0.077999	9	10
10	11	212169.05032882	0.142861	15	12
10	12	-583.32704806	0.074715	15	7
10	13	8325.11707517	0.085388	15	7
10	14	-1113.54443362	0.119871	15	10
10	15	246342.16752129	0.152303	15	14
10	16	70388.52019383	0.180218	15	10
10	17	52761.41714706	0.135061	15	12
10	18	8049.52049357	0.119461	15	11
10	19	8646.08913220	0.109198	15	10
10	0	10945.76229397	0.123567	15	12
10	1	10612.84051883	0.137524	15	12
10	2	121456.14046824	0.13465	15	10
10	3	164495.28279425	0.2849	15	22
10	4	184992.57902756	0.137113	15	11
10	5	-1337.87452175	0.193354	15	18
10	6	135570.14092904	0.154766	15	12
10	7	108213.47511636	0.157229	15	13
10	8	2426.01940352	0.107967	15	9
10	9	137027.91161205	0.212649	15	18
10	20	78368.13916667	0.148608	15	11
10	21	6778.51413161	0.13465	15	6
10	22	8808.89486122	0.109198	15	8
10	23	144371.04450777	0.119872	15	7
10	24	17278.45745018	0.123566	15	9
10	25	9875.13119826	0.129314	15	10
10	26	128843.63987688	0.116588	15	9
10	27	78176.85218701	0.12685	15	10
10	28	38362.78759945	0.102629	15	6
10	29	-1249.40012327	0.109198	15	9
10	30	-1283.60022373	0.085799	15	6
10	31	28771.41729134	0.127672	15	11
10	32	11052.55988720	0.085799	15	5
10	33	-942.21359547	0.089493	15	8
10	34	4532.73650649	0.077588	15	5
10	35	81072.33071939	0.120282	15	10
10	36	115768.23426536	0.153534	15	12
10	37	19108.58288598	0.10263	15	6
10	38	12583.72129323	0.108377	15	9
10	39	-885.85442217	0.116998	15	10
10	40	25344.90199246	0.128903	15	12
10	41	215171.38783881	0.163387	15	12
10	42	9736.25219536	0.154766	15	15
10	43	74000.56607985	0.119051	15	10
11	12	-742.41539951	0.065272	12	7
11	13	5656.68909626	0.2849	12	7
11	14	-914.04966699	1.255779	12	10
11	15	385749.18868269	0.144913	12	14
11	16	76649.02930783	0.102219	12	10
11	17	32624.94273703	0.763566	12	12
11	18	7046.91965927	0.106735	12	11
11	19	9445.31398309	0.092778	12	10
11	0	5254.97012090	0.099345	12	12
11	1	11933.94340539	0.103861	12	12
11	2	142417.07700738	0.09524	12	10
11	3	93439.80996331	0.266016	12	22
11	4	145719.29899340	0.097704	12	11
11	5	2729.20494298	0.162566	12	18
11	6	81871.03752421	0.182271	12	12
11	7	174333.70017445	0.122745	12	13
11	8	499.75767198	0.089493	12	9
11	9	146681.34347190	0.17365	12	18
11	20	42907.00555839	0.3395	12	11
11	21	7871.72592659	0.066504	12	6
11	22	10485.49600512	0.142861	12	8
11	23	96326.72772551	0.082515	12	7
11	24	15876.70024281	0.091135	12	9
11	25	7514.87545921	0.077589	12	10
11	26	75343.56583002	0.093599	12	9
11	27	35058.05417489	0.089493	12	10
11	28	29774.85590763	0.071431	12	6
11	29	-872.08617051	0.085798	12	9
11	30	-995.03661273	0.060347	12	6
11	31	23100.28035782	0.113303	12	11
11	32	8744.32361795	0.069378	12	5
11	33	-1096.86157229	0.080462	12	8
11	34	1703.71837509	0.077588	12	5
11	35	81764.51452310	0.114125	12	10
11	36	132248.57800347	0.108788	12	12
11	37	22272.89702962	0.066914	12	6
11	38	14330.95238618	0.081283	12	9
11	39	-85.58617948	0.082104	12	10
11	40	29965.11546134	0.099346	12	12
11	41	135857.03840020	0.104272	12	12
11	42	8687.00608277	0.128492	12	15
11	43	41258.16688659	0.088262	12	10
12	13	-1761.38415828	0.043105	7	7
12	14	-1336.74471633	0.057063	7	10
12	15	-789.13673005	0.078409	7	14
12	16	-1070.01549766	0.054188	7	10
12	17	-967.21712652	0.065683	7	12
12	18	-924.76542364	0.060346	7	11
12	19	-1349.37833115	0.05583	7	10
12	0	-791.79763989	0.066094	7	12
12	1	-801.46856505	0.065684	7	12
12	2	-935.56867506	0.05583	7	10
12	3	-546.20260695	0.120692	7	22
12	4	-925.27117534	0.058294	7	11
12	5	-807.62850332	0.098524	7	18
12	6	-735.02035700	0.066093	7	12
12	7	-915.92756858	0.509455	7	13
12	8	-1965.16982678	0.062809	7	9
12	9	-748.78822536	0.111251	7	18
12	20	-1076.66395380	0.058294	7	11
12	21	106814.98094952	0.050084	7	6
12	22	-1171.05481615	0.048852	7	8
12	23	-1549.22382663	0.069378	7	7
12	24	-914.54933559	0.060346	7	9
12	25	-1026.62399823	0.049263	7	10
12	26	-1253.44061449	0.052546	7	9
12	27	-815.62395861	0.056242	7	10
12	28	-1217.38080953	0.041462	7	6
12	29	85903.08330509	0.06322	7	9
12	30	-1844.80572052	0.069378	7	6
12	31	-1049.35275707	0.07882	7	11
12	32	-1366.30423839	0.032841	7	5
12	33	-2771.83081502	0.042694	7	8
12	34	115311.45699367	0.04762	7	5
12	35	-851.19959789	0.060757	7	10
12	36	-725.01415323	0.068967	7	12
12	37	-893.00596529	0.050084	7	6
12	38	-1917.46680924	0.058704	7	9
12	39	-1380.48124373	0.060757	7	10
12	40	-1527.79034888	0.066094	7	12
12	41	-885.70774494	0.058704	7	12
12	42	-612.48339155	0.081693	7	15
12	43	-1174.55460881	0.090315	7	10
13	14	-746.26942950	0.059525	7	10
13	15	9107.51060976	2.640462	7	14
13	16	-888.97536754	0.064451	7	10
13	17	-488.44565468	0.073073	7	12
13	18	-1386.53232288	0.069789	7	11
13	19	-861.36342372	0.056241	7	10
13	0	367325.85997367	0.085798	7	12
13	1	-1107.34890730	0.075125	7	12
13	2	18682.05571298	0.051315	7	10
13	3	902.41794140	0.11823	7	22
13	4	16491.21525382	0.059525	7	11
13	5	-258.40843014	0.090725	7	18
13	6	3123.35164009	0.071841	7	12
13	7	6742.82157220	0.074304	7	13
13	8	-1301.63513414	0.052136	7	9
13	9	519.10046519	0.091135	7	18
13	20	9862.90451565	0.05501	7	11
13	21	8178.33760423	0.035304	7	6
13	22	3923.85001121	0.050905	7	8
13	23	-1296.08162833	0.082104	7	7
13	24	2423.66769751	0.076768	7	9
13	25	-982.09670194	0.053368	7	10
13	26	-870.94120978	0.050904	7	9
13	27	6326.88218126	0.049263	7	10
13	28	10383.23589562	0.065683	7	6
13	29	-1560.45201120	0.056652	7	9
13	30	-2474.41437315	0.033252	7	6
13	31	9735.63427259	0.064041	7	11
13	32	246625.90958011	0.036536	7	5
13	33	-1970.89056566	0.042694	7	8
13	34	14874.42248210	0.030789	7	5
13	35	3158.89472658	0.049262	7	10
13	36	7419.75771632	0.051726	7	12
13	37	7291.66059372	0.027915	7	6
13	38	-1624.63067681	0.039	7	9
13	39	-1262.47199811	0.042284	7	10
13	40	844.70753464	0.046389	7	12
13	41	1765.29507364	0.048852	7	12
13	42	7777.59256383	0.06281	7	15
13	43	734.25058262	0.03982	7	10
14	15	-1044.24234261	0.071431	10	14
14	16	-1898.41788036	0.061989	10	10
14	17	-1478.77049672	0.075125	10	12
14	18	-1771.92412666	0.053367	10	11
14	19	-1929.64916173	0.056652	10	10
14	0	-1177.82062229	0.074714	10	12
14	1	-1856.39151628	0.059115	10	12
14	2	-1538.53985317	0.044747	10	10
14	3	-780.20248773	0.101809	10	22
14	4	-1251.61896322	0.057883	10	11
14	5	49369.95532011	0.107556	10	18
14	6	-1143.26292583	0.152303	10	12
14	7	-1177.45509770	0.077999	10	13
14	8	-1953.98250104	0.059936	10	9
14	9	-1041.01250625	0.117408	10	18
14	20	-1542.31361976	0.082104	10	11
14	21	-1065.16932858	0.08662	10	6
14	22	-1683.40009620	0.072251	10	8
14	23	-1061.33381259	0.087441	10	7
14	24	-1154.35882137	0.088672	10	9
14	25	-1943.45041096	0.077999	10	10
14	26	-1159.28569752	0.06363	10	9
14	27	-1238.94364620	0.09524	10	10
14	28	-1144.16966810	0.088672	10	6
14	29	-1743.11976719	0.075125	10	9
14	30	-1866.95244045	0.061168	10	6
14	31	-1573.80559100	0.089903	10	11
14	32	-982.15833537	0.044747	10	5
14	33	-2070.76052555	0.05583	10	8
14	34	-650.84354285	0.050494	10	5
14	35	-1510.27752865	0.07143	10	10
14	36	-1371.16348584	0.079641	10	12
14	37	-851.12853106	0.050084	10	6
14	38	-2250.45647799	0.061989	10	9
14	39	-2058.94515842	0.065684	10	10
14	40	-1658.97103324	0.08703	10	12
14	41	-1285.61992991	0.077999	10	12
14	42	-1154.50867367	0.289005	10	15
14	43	-2207.18797285	0.076767	10	10
15	16	73512.24369667	0.101398	14	10
15	17	35853.27777875	0.11905	14	12
15	18	6387.71469713	0.103861	14	11
15	19	25857.70853868	0.099345	14	10
15	0	14269.32554108	0.151893	14	12
15	1	11215.21007626	0.146145	14	12
15	2	188026.13368692	0.12644	14	10
15	3	132279.24782258	0.216344	14	22
15	4	92564.63629916	0.104272	14	11
15	5	3907.77145040	0.163798	14	18
15	6	75362.54025582	0.132598	14	12
15	7	225622.40949787	0.340321	14	13
15	8	2318.60717625	0.099757	14	9
15	9	187341.99042402	0.192123	14	18
15	20	153673.55310330	0.123566	14	11
15	21	7089.64412407	0.066915	14	6
15	22	9760.78609708	0.079231	14	8
15	23	91473.45881867	0.089083	14	7
15	24	14252.95751959	0.096882	14	9
15	25	6703.00709766	0.100577	14	10
15	26	68161.70299737	0.103861	14	9
15	27	28640.88781063	0.099346	14	10
15	28	27003.86834716	0.085799	14	6
15	29	-1428.05787721	0.092366	14	9
15	30	-1289.72572119	0.06363	14	6
15	31	22987.63359899	0.123566	14	11
15	32	14796.79834750	0.070609	14	5
15	33	-972.48225265	0.083746	14	8
15	34	3061.48639071	0.058294	14	5
15	35	84503.89083764	0.121924	14	10
15	36	139596.57173815	0.121924	14	12
15	37	20233.30860666	0.080873	14	6
15	38	13021.33731822	0.096472	14	9
15	39	1545.91381785	0.096883	14	10
15	40	32932.01140219	0.13424	14	12
15	41	127183.87147635	0.128082	14	12
15	42	8384.66353546	0.137524	14	15
15	43	52322.05538966	0.095652	14	10
16	17	25120.63666735	0.077999	10	12
16	18	8069.20522444	0.069378	10	11
16	19	9647.39391926	0.075946	10	10
16	0	6555.18198106	0.085798	10	12
16	1	14170.93424208	0.080461	10	12
16	2	79970.30410966	0.074714	10	10
16	3	58567.26455532	0.133419	10	22
16	4	83427.65954688	0.077998	10	11
16	5	-876.11438318	0.108787	10	18
16	6	76268.82991887	0.097293	10	12
16	7	17240.15960797	0.20567	10	13
16	8	3056.67577344	0.068968	10	9
16	9	113462.96837760	0.133419	10	18
16	20	17994.84622449	0.084157	10	11
16	21	1184.07914471	0.051725	10	6
16	22	-957.36358575	0.065273	10	8
16	23	245675.94118717	0.076767	10	7
16	24	7493.43101774	0.075125	10	9
16	25	6440.12568553	0.129724	10	10
16	26	82152.94580400	0.080051	10	9
16	27	83891.71973570	0.109609	10	10
16	28	24312.29613018	0.049262	10	6
16	29	-1555.56849640	0.066915	10	9
16	30	-1698.23715584	0.041052	10	6
16	31	15105.85176234	0.078409	10	11
16	32	1195.71720996	0.043104	10	5
16	33	-1314.73369947	0.059525	10	8
16	34	-673.00174684	0.042284	10	5
16	35	89030.26306441	0.093599	10	10
16	36	12565.72476118	0.091957	10	12
16	37	13916.30900442	0.062809	10	6
16	38	16439.06370512	0.064041	10	9
16	39	-1427.62160885	0.077178	10	10
16	40	21654.13303108	0.099757	10	12
16	41	79412.62650290	0.083335	10	12
16	42	7963.11970973	0.10222	10	15
16	43	74399.30702776	0.100167	10	10
17	18	120607.19858510	0.114535	12	11
17	19	65072.18459108	0.109199	12	10
17	0	1734.32607548	0.111251	12	12
17	1	13838.00099835	0.107967	12	12
17	2	73447.78074279	0.10304	12	10
17	3	58585.44080190	0.181039	12	22
17	4	32740.24973351	0.100577	12	11
17	5	-811.43840044	0.159282	12	18
17	6	38064.02208155	0.101399	12	12
17	7	17243.93490171	0.115356	12	13
17	8	-477.30972043	0.088673	12	9
17	9	33404.28623819	0.167082	12	18
17	20	19341.85840407	0.094009	12	11
17	21	-846.19168865	0.059525	12	6
17	22	-952.67600871	0.077588	12	8
17	23	45402.77797902	0.088673	12	7
17	24	15632.84838694	0.089083	12	9
17	25	14543.04343104	0.079641	12	10
17	26	23769.77175884	0.077999	12	9
17	27	18195.08520093	0.090725	12	10
17	28	34688.59797565	0.068146	12	6
17	29	-1410.46697845	0.081693	12	9
17	30	-953.94428715	0.05542	12	6
17	31	20069.35736010	0.090725	12	11
17	32	936.03302616	0.061578	12	5
17	33	-1015.62644574	0.067735	12	8
17	34	-887.75531469	0.044747	12	5
17	35	26635.65522429	0.093599	12	10
17	36	17155.87231622	0.127672	12	12
17	37	76873.17979841	0.080872	12	6
17	38	16413.12922325	0.089082	12	9
17	39	-984.65801474	0.098935	12	10
17	40	29750.38126454	0.116998	12	12
17	41	39626.38224854	0.121514	12	12
17	42	50514.74273086	0.16585	12	15
17	43	30371.23168209	0.100167	12	10
18	19	2181.68155581	0.073894	11	10
18	0	-763.43546554	0.091135	11	12
18	1	6852.07002261	0.089904	11	12
18	2	80330.01287940	0.120282	11	10
18	3	5061.37636378	0.167492	11	22
18	4	9433.57930028	0.107966	11	11
18	5	-697.65135066	0.140398	11	18
18	6	8309.83890917	0.096061	11	12
18	7	6650.05138358	0.149429	11	13
18	8	-1537.46107392	0.082104	11	9
18	9	5460.52229728	0.190482	11	18
18	20	8220.00523762	0.082104	11	11
18	21	-807.23735043	0.053778	11	6
18	22	-790.11438353	0.068146	11	8
18	23	10160.74032649	0.059525	11	7
18	24	16458.55091430	0.514382	11	9
18	25	15104.46363789	0.087851	11	10
18	26	12789.83493065	0.075536	11	9
18	27	9098.32516552	0.07841	11	10
18	28	13660.52549184	0.052547	11	6
18	29	-861.98019302	0.073894	11	9
18	30	-754.29137153	0.054189	11	6
18	31	8936.58040101	0.091135	11	11
18	32	-211.25910114	0.05583	11	5
18	33	553.57688839	0.076357	11	8
18	34	-848.88004887	0.047209	11	5
18	35	7171.79550650	0.077999	11	10
18	36	10085.34143323	0.086209	11	12
18	37	17663.21326978	0.050904	11	6
18	38	7760.80043809	0.065683	11	9
18	39	-1004.05354202	0.073483	11	10
18	40	14301.10825636	0.100577	11	12
18	41	9163.38737981	0.096472	11	12
18	42	2040.17613152	0.114946	11	15
18	43	10229.64455653	0.090315	11	10
19	0	-244.23800203	0.084977	10	12
19	1	6705.01831282	0.085798	10	12
19	2	5220.38506627	0.068146	10	10
19	3	8648.50583236	0.166261	10	22
19	4	7767.34390202	0.07923	10	11
19	5	-633.79170335	0.13465	10	18
19	6	9281.01373892	0.085389	10	12
19	7	7407.74958297	0.084567	10	13
19	8	-1263.32656650	0.061168	10	9
19	9	10255.19982429	0.120693	10	18
19	20	29282.09932918	0.080051	10	11
19	21	-1244.07642446	0.050905	10	6
19	22	-1675.46838503	0.06322	10	8
19	23	12790.61969198	0.051315	10	7
19	24	1522.30642690	0.075125	10	9
19	25	753.00310915	0.064041	10	10
19	26	7482.32811656	0.062399	10	9
19	27	7323.44734025	0.064041	10	10
19	28	11022.90148276	0.045157	10	6
19	29	-2036.69444388	0.068557	10	9
19	30	-1850.57905057	0.047209	10	6
19	31	10095.65053606	0.092367	10	11
19	32	1120.04164018	0.039	10	5
19	33	-1281.81661023	0.05501	10	8
19	34	-1115.70512012	0.03941	10	5
19	35	8802.50895175	0.064041	10	10
19	36	256590.80751618	0.099757	10	12
19	37	4333.78123251	0.053779	10	6
19	38	8129.95231693	0.063631	10	9
19	39	-1091.84757930	0.069378	10	10
19	40	7314.50286827	0.086619	10	12
19	41	9710.43261992	0.08703	10	12
19	42	222381.98317499	0.111662	10	15
19	43	11190.14915614	0.065273	10	10
0	1	-636.28302244	0.093599	12	12
0	2	11731.16303150	0.081283	12	10
0	3	4667.19076821	0.217165	12	22
0	4	14306.28526774	0.133829	12	11
0	5	49871.32670782	0.144092	12	18
0	6	3841.73165988	0.095241	12	12
0	7	11583.25286536	0.116177	12	13
0	8	2334.15934637	0.074304	12	9
0	9	6713.02829535	0.133829	12	18
0	20	12439.16927448	0.863323	12	11
0	21	5783.95390070	0.083746	12	6
0	22	1916.25654479	0.089493	12	8
0	23	8110.43950907	0.077998	12	7
0	24	2301.92669978	0.092367	12	9
0	25	-598.32627230	0.096061	12	10
0	26	226.37941128	0.116588	12	9
0	27	7160.73696891	0.098935	12	10
0	28	10395.61369246	0.068968	12	6
0	29	-1347.42051779	0.099345	12	9
0	30	-1326.84300074	0.066094	12	6
0	31	6539.22185827	0.109198	12	11
0	32	256045.06083000	0.077178	12	5
0	33	-1713.06187693	0.091546	12	8
0	34	10697.59413065	0.050494	12	5
0	35	16085.87891866	0.081283	12	10
0	36	5168.61049303	0.125619	12	12
0	37	5597.25505879	0.076767	12	6
0	38	-517.08113092	0.077588	12	9
0	39	-1511.60052464	0.087441	12	10
0	40	4486.84374724	0.090314	12	12
0	41	3514.10016122	0.092777	12	12
0	42	6903.71112514	0.14204	12	15
0	43	3763.74120357	0.082515	12	10
1	2	11875.19850577	0.133829	12	10
1	3	9435.05245788	0.303784	12	22
1	4	11238.53885622	0.12644	12	11
1	5	-1717.46100927	0.184734	12	18
1	6	14769.26458857	0.090314	12	12
1	7	11480.47413547	0.154355	12	13
1	8	-1765.42429742	0.111662	12	9
1	9	9746.08690104	0.164207	12	18
1	20	10515.27831229	0.577191	12	11
1	21	-642.89368271	0.062809	12	6
1	22	-1111.64899788	0.073072	12	8
1	23	17433.38803613	0.075535	12	7
1	24	7407.62761554	0.077998	12	9
1	25	6867.63701221	0.140808	12	10
1	26	12436.61082509	0.100577	12	9
1	27	16184.46861206	0.090314	12	10
1	28	22185.64329969	0.05542	12	6
1	29	-1510.73130222	0.073483	12	9
1	30	-1650.87012905	0.054188	12	6
1	31	11842.17779468	0.106324	12	11
1	32	357.08694619	0.045979	12	5
1	33	-1788.95167384	0.066915	12	8
1	34	-1092.64682251	0.050083	12	5
1	35	14934.43725341	0.079641	12	10
1	36	11590.33832863	0.096062	12	12
1	37	13983.49460446	0.053778	12	6
1	38	64295.77913426	0.07102	12	9
1	39	-1450.16714490	0.082103	12	10
1	40	8945.77210097	0.668326	12	12
1	41	12227.73136130	0.107966	12	12
1	42	5307.13746573	0.140808	12	15
1	43	14055.09698777	0.09442	12	10
2	3	51898.37566200	0.139166	10	22
2	4	94941.26929437	0.067735	10	11
2	5	-703.19801540	0.101808	10	18
2	6	77418.33442217	0.090725	10	12
2	7	22867.04650143	0.087851	10	13
2	8	-1547.67640554	0.073483	10	9
2	9	58931.51171240	0.137524	10	18
2	20	29919.51986310	0.083746	10	11
2	21	8929.61781720	0.058294	10	6
2	22	11741.32110590	0.067736	10	8
2	23	94684.59531878	0.065684	10	7
2	24	22557.48161254	0.080872	10	9
2	25	12464.52654779	0.064041	10	10
2	26	83653.39216482	0.069788	10	9
2	27	17887.42437316	0.082104	10	10
2	28	31832.63614951	0.053778	10	6
2	29	-1554.85904761	0.061988	10	9
2	30	-1848.44728220	0.050494	10	6
2	31	28934.46757747	0.097293	10	11
2	32	21260.08737040	0.0468	10	5
2	33	-1533.08499917	0.059936	10	8
2	34	4333.39747963	0.043105	10	5
2	35	81937.94279449	0.07061	10	10
2	36	90064.27980045	0.084978	10	12
2	37	174117.64000481	0.064041	10	6
2	38	13803.81612456	0.06322	10	9
2	39	-1470.84575729	0.077589	10	10
2	40	21892.07896740	0.107145	10	12
2	41	81829.58831286	0.095241	10	12
2	42	7610.13022577	0.458961	10	15
2	43	23235.03644689	0.077589	10	10
3	4	61467.93858287	0.211418	22	11
3	5	-641.32377442	0.229481	22	18
3	6	177865.58129346	0.206491	22	12
3	7	170779.59445793	0.216754	22	13
3	8	2016.34027716	0.166671	22	9
3	9	123380.88590283	0.283669	22	18
3	20	109588.40327235	0.436383	22	11
3	21	714.37940300	0.106325	22	6
3	22	217.34315348	0.131777	22	8
3	23	113161.03853773	0.348531	22	7
3	24	6342.47578011	0.167903	22	9
3	25	48731.35943267	0.201565	22	10
3	26	95705.01440417	0.219218	22	9
3	27	105497.57318200	0.330879	22	10
3	28	19973.39933666	0.162566	22	6
3	29	-638.80852987	0.144914	22	9
3	30	-1046.07400956	0.09483	22	6
3	31	13817.83889861	0.187197	22	11
3	32	1031.99742158	0.137934	22	5
3	33	-648.85274701	0.137935	22	8
3	34	-251.01326937	0.083746	22	5
3	35	138457.11949499	0.198281	22	10
3	36	10654.50904591	0.196639	22	12
3	37	9123.06492184	0.139577	22	6
3	38	10518.34876941	0.164618	22	9
3	39	42938.38934801	0.172419	22	10
3	40	21289.29740893	0.28449	22	12
3	41	93382.40409521	0.216343	22	12
3	42	7516.42197161	0.223733	22	15
3	43	27297.36345256	0.199923	22	10
4	5	2827.65331835	0.171597	11	18
4	6	82212.19596705	0.105504	11	12
4	7	24773.16473990	0.094831	11	13
4	8	922.33174533	0.068557	11	9
4	9	70996.57294726	0.128904	11	18
4	20	23137.61614488	0.077178	11	11
4	21	8678.75133158	0.056241	11	6
4	22	10964.04259194	0.066915	11	8
4	23	108754.45330326	0.07102	11	7
4	24	17692.83158694	0.077177	11	9
4	25	11685.57246358	0.085799	11	10
4	26	84739.29233942	0.089904	11	9
4	27	17350.76968736	0.092777	11	10
4	28	40281.78829176	0.059525	11	6
4	29	-1536.33565540	0.070609	11	9
4	30	-1770.02026333	0.045568	11	6
4	31	29697.27609771	0.087441	11	11
4	32	18465.25677867	0.052957	11	5
4	33	-1157.79047905	0.066504	11	8
4	34	5275.14639303	0.048441	11	5
4	35	82478.23990143	0.083746	11	10
4	36	26084.27547038	0.11043	11	12
4	37	20535.69490334	0.061578	11	6
4	38	13227.57048183	0.09442	11	9
4	39	-916.35976174	0.086619	11	10
4	40	30581.09526358	0.105503	11	12
4	41	210037.86653570	0.105093	11	12
4	42	14108.87724677	0.107967	11	15
4	43	83198.32208101	0.081693	11	10
5	6	-748.73818464	0.125209	18	12
5	7	6345.24750498	0.141218	18	13
5	8	1499.81376174	0.11084	18	9
5	9	-1338.04822863	0.18186	18	18
5	20	-517.65760849	0.112071	18	11
5	21	-746.35806373	0.077178	18	6
5	22	-574.53975675	0.29229	18	8
5	23	-659.61674756	0.077999	18	7
5	24	-525.14116914	0.108377	18	9
5	25	-751.72049848	0.110841	18	10
5	26	-675.15975385	0.103862	18	9
5	27	3607.41523121	0.11084	18	10
5	28	1955.79426930	0.075536	18	6
5	29	-515.43759981	0.108788	18	9
5	30	-869.01042049	0.079641	18	6
5	31	-1050.87023955	0.228249	18	11
5	32	5056.27623121	0.065683	18	5
5	33	-959.57091884	0.083746	18	8
5	34	-390.47036420	0.272995	18	5
5	35	-221.79042161	0.116177	18	10
5	36	-805.64310935	0.137114	18	12
5	37	-382.72755251	0.088673	18	6
5	38	-1473.61717830	0.116177	18	9
5	39	-1179.77406434	0.127671	18	10
5	40	1363.72294116	0.222912	18	12
5	41	855.07382049	0.203617	18	12
5	42	-887.76629697	0.863323	18	15
5	43	2859.64557127	0.139166	18	10
6	7	139667.07441811	0.149018	12	13
6	8	-838.49136324	0.075125	12	9
6	9	70832.60858715	0.550507	12	18
6	20	85567.71105470	0.107556	12	11
6	21	1344.17980965	0.061167	12	6
6	22	-155.71703391	0.07102	12	8
6	23	107534.26808554	0.185555	12	7
6	24	10238.80288767	0.070609	12	9
6	25	8221.62673775	0.068967	12	10
6	26	141605.76947334	0.082514	12	9
6	27	260070.51592123	0.08744	12	10
6	28	36673.95480890	0.059526	12	6
6	29	-1110.00898556	0.077588	12	9
6	30	-1535.68457452	0.075125	12	6
6	31	20586.41975458	0.090725	12	11
6	32	4969.92792307	0.05583	12	5
6	33	-964.17244147	0.06363	12	8
6	34	3598.64733058	0.043515	12	5
6	35	191861.07271273	0.089903	12	10
6	36	12234.55676395	0.096882	12	12
6	37	16957.73626746	0.05542	12	6
6	38	17047.35068789	0.067736	12	9
6	39	-1032.72015889	0.082104	12	10
6	40	20385.08532579	0.091135	12	12
6	41	84365.12430132	0.345247	12	12
6	42	10659.49982355	0.129724	12	15
6	43	24072.28946517	0.084977	12	10
7	8	1918.10539506	0.088673	13	9
7	9	137640.30756516	0.206902	13	18
7	20	263303.14214383	0.119461	13	11
7	21	4505.89360581	0.066504	13	6
7	22	3117.36844368	0.080872	13	8
7	23	25938.83419162	0.066915	13	7
7	24	13146.16418294	0.112482	13	9
7	25	7019.05505247	0.100167	13	10
7	26	73234.14792225	0.114535	13	9
7	27	100538.75420646	0.299679	13	10
7	28	29282.53857434	0.070198	13	6
7	29	-1025.17226558	0.078409	13	9
7	30	-1215.81412028	0.056652	13	6
7	31	17890.08032622	0.088672	13	11
7	32	15964.69618355	0.06281	13	5
7	33	-1141.97482974	0.077588	13	8
7	34	5056.69070942	0.057884	13	5
7	35	34226.97723974	0.081283	13	10
7	36	18620.65330379	0.091135	13	12
7	37	17192.94370499	0.069377	13	6
7	38	13506.58737390	0.15805	13	9
7	39	474.62459122	0.085388	13	10
7	40	22319.90921929	0.097704	13	12
7	41	73917.04159615	0.162155	13	12
7	42	11650.37724478	0.137524	13	15
7	43	49745.40252982	0.08662	13	10
8	9	2327.61875135	0.113714	9	18
8	20	2686.18291434	0.080462	9	11
8	21	417.73357053	0.056241	9	6
8	22	-1699.41597858	0.059936	9	8
8	23	4648.33996846	0.051315	9	7
8	24	-2136.41010569	0.114945	9	9
8	25	-2268.96844211	0.057473	9	10
8	26	-1280.25233398	0.063221	9	9
8	27	1931.86523535	0.068967	9	10
8	28	-703.96304215	0.043926	9	6
8	29	-2354.38848321	0.07102	9	9
8	30	-1713.91490287	0.054189	9	6
8	31	-1100.32357753	0.09483	9	11
8	32	1003.55294329	0.036946	9	5
8	33	-905.98846187	0.052547	9	8
8	34	-1304.64954503	0.040231	9	5
8	35	3267.52113095	0.115356	9	10
8	36	-1076.72447407	0.084567	9	12
8	37	-1047.07156555	0.056241	9	6
8	38	-2078.37509817	0.067326	9	9
8	39	-595.37907569	0.069788	9	10
8	40	3328.08059289	0.077589	9	12
8	41	555.92323830	0.076357	9	12
8	42	-842.23122968	0.098935	9	15
8	43	676.54429685	0.067735	9	10
9	20	75773.07419586	0.144503	18	11
9	21	644.48140799	0.076767	18	6
9	22	28.54079979	0.089904	18	8
9	23	80361.87174358	0.130956	18	7
9	24	6971.23447976	0.125619	18	9
9	25	5917.20786326	0.155998	18	10
9	26	59119.79254322	0.136703	18	9
9	27	16812.78450368	0.183091	18	10
9	28	23540.29217076	0.105093	18	6
9	29	-900.24255132	0.121103	18	9
9	30	-938.70807884	0.084567	18	6
9	31	16141.06736849	0.17365	18	11
9	32	860.36973495	0.106735	18	5
9	33	-539.13505268	0.11864	18	8
9	34	-362.99500813	0.071431	18	5
9	35	81282.97494728	0.144092	18	10
9	36	13852.67219018	0.186787	18	12
9	37	10282.11600766	0.107146	18	6
9	38	11095.25336007	0.131366	18	9
9	39	-643.98226652	0.119051	18	10
9	40	28720.27609058	0.162565	18	12
9	41	110608.95241075	0.204438	18	12
9	42	4732.10331458	0.207312	18	15
9	43	36223.21929671	0.128903	18	10
20	21	7581.93318006	0.064862	11	6
20	22	4788.42154929	0.07882	11	8
20	23	107016.73676064	0.082925	11	7
20	24	14244.88936704	0.115356	11	9
20	25	6794.11817029	0.121924	11	10
20	26	80085.51961159	0.090314	11	9
20	27	97812.06265683	0.079231	11	10
20	28	23386.12760426	0.059114	11	6
20	29	-1179.92099891	0.198281	11	9
20	30	-1633.46730447	0.053778	11	6
20	31	21992.72488450	0.12644	11	11
20	32	17640.00906874	0.048031	11	5
20	33	-782.82026723	0.074715	11	8
20	34	5640.41454183	0.059525	11	5
20	35	35314.57775872	0.076767	11	10
20	36	37890.45461241	0.095651	11	12
20	37	23286.84162869	0.068967	11	6
20	38	12409.97431724	0.092777	11	9
20	39	721.45071184	0.082104	11	10
20	40	19436.03501857	0.144503	11	12
20	41	24875.22252264	0.091136	11	12
20	42	12829.32239142	0.11084	11	15
20	43	33169.68270130	0.082925	11	10
21	22	11886.95957592	0.042694	6	8
21	23	1270.83159348	0.040231	6	7
21	24	10253.11166094	0.042694	6	9
21	25	-1031.03247223	0.035715	6	10
21	26	-1151.26008752	0.044747	6	9
21	27	5273.34979358	0.047209	6	10
21	28	4221.58323902	0.039821	6	6
21	29	-1306.72009022	0.045978	6	9
21	30	-2468.14213547	0.039821	6	6
21	31	15363.92653202	0.329648	6	11
21	32	10941.03281221	0.036126	6	5
21	33	-2200.85694135	0.062809	6	8
21	34	5283.24076818	0.036125	6	5
21	35	1625.33829070	0.050904	6	10
21	36	11816.46682069	0.059115	6	12
21	37	9703.67638262	0.033252	6	6
21	38	-1378.30694442	0.046799	6	9
21	39	-835.55155363	0.061167	6	10
21	40	652.46409627	0.055009	6	12
21	41	8618.51824962	0.056652	6	12
21	42	2161.28577536	0.07102	6	15
21	43	86623.06924455	0.058294	6	10
22	23	-1376.88027071	0.049262	8	7
22	24	5925.31855059	0.064041	8	9
22	25	-1121.40182036	0.073893	8	10
22	26	-1372.56874565	0.151893	8	9
22	27	1846.12815232	0.064862	8	10
22	28	1985.97586710	0.098525	8	6
22	29	-1613.40516563	0.061578	8	9
22	30	-1394.91141908	0.040641	8	6
22	31	9020.75594538	0.064451	8	11
22	32	7395.27823356	0.037768	8	5
22	33	-2293.66924089	0.050083	8	8
22	34	2083.42645349	0.032842	8	5
22	35	-349.35614268	0.082104	8	10
22	36	10027.70057713	0.071841	8	12
22	37	11684.61562800	0.042283	8	6
22	38	-1965.19949127	0.097293	8	9
22	39	-1355.60577793	0.072252	8	10
22	40	-74.61434974	0.070199	8	12
22	41	11979.38221429	0.066915	8	12
22	42	1596.87384094	0.089904	8	15
22	43	649.44217731	0.059115	8	10
23	24	9016.91198558	0.048031	7	9
23	25	8190.36983958	0.054599	7	10
23	26	185133.60450440	0.058294	7	9
23	27	18973.17785750	0.057883	7	10
23	28	33474.86529419	0.038178	7	6
23	29	-1234.66458264	0.061988	7	9
23	30	-1830.19802177	0.031199	7	6
23	31	20316.64141369	0.073073	7	11
23	32	1378.11827347	0.032431	7	5
23	33	-646.74747924	0.091956	7	8
23	34	-1319.23495379	0.041462	7	5
23	35	110118.79168407	0.057063	7	10
23	36	15360.38470041	0.065273	7	12
23	37	16508.23790319	0.039821	7	6
23	38	20321.53074061	0.054599	7	9
23	39	-715.47210219	0.059115	7	10
23	40	28235.48398333	0.076357	7	12
23	41	107189.26671989	0.208133	7	12
23	42	9747.68015620	0.160513	7	15
23	43	93848.82057158	0.071841	7	10
24	25	366779.20622985	0.085388	9	10
24	26	14814.27757813	0.057883	9	9
24	27	13942.96648085	0.058704	9	10
24	28	22252.78077478	0.041052	9	6
24	29	-1307.94223953	0.057473	9	9
24	30	-1299.58481699	0.038179	9	6
24	31	16556.35172438	0.133829	9	11
24	32	4996.61004252	0.037358	9	5
24	33	-1846.01511051	0.073483	9	8
24	34	3763.67515984	0.057473	9	5
24	35	10323.94797285	0.067325	9	10
24	36	17859.07931747	0.074304	9	12
24	37	29290.36343225	0.044336	9	6
24	38	8066.81261707	0.058294	9	9
24	39	-1487.02307767	0.100167	9	10
24	40	13503.79723608	0.098936	9	12
24	41	17309.12027632	0.076356	9	12
24	42	5023.25544607	0.089904	9	15
24	43	14231.42776938	0.076767	9	10
25	26	13771.25094019	0.06281	10	9
25	27	78664.92634867	0.075536	10	10
25	28	18510.09762423	0.043925	10	6
25	29	-1499.16532138	0.075536	10	9
25	30	-1248.90550673	0.055421	10	6
25	31	10055.46211835	0.082514	10	11
25	32	-151.98158472	0.043926	10	5
25	33	-2020.15087253	0.060347	10	8
25	34	-444.48450815	0.038999	10	5
25	35	77908.84213811	0.083336	10	10
25	36	9228.66837735	0.081693	10	12
25	37	16520.83854322	0.048852	10	6
25	38	7866.34547234	0.05583	10	9
25	39	-1866.33361645	0.070199	10	10
25	40	11336.92122645	0.084156	10	12
25	41	11062.90695850	0.084567	10	12
25	42	1425.26214045	0.09442	10	15
25	43	11922.23690912	0.353047	10	10
26	27	84312.64765656	0.07061	9	10
26	28	35599.89006613	0.040641	9	6
26	29	-1599.90071732	0.064862	9	9
26	30	-1122.60318041	0.038999	9	6
26	31	22677.56384560	0.065683	9	11
26	32	848.44636457	0.039821	9	5
26	33	-1605.08734218	0.052547	9	8
26	34	-993.01090297	0.037358	9	5
26	35	81889.92867445	0.068146	9	10
26	36	13392.33223363	1.533291	9	12
26	37	13703.86566169	0.057063	9	6
26	38	14207.41225820	0.077999	9	9
26	39	-999.16758644	0.074715	9	10
26	40	77544.89297073	0.09524	9	12
26	41	80738.81598456	0.077588	9	12
26	42	4132.45973485	0.096882	9	15
26	43	25894.00878638	0.076767	9	10
27	28	33182.58158330	0.052957	10	6
27	29	-1210.19126897	0.064862	10	9
27	30	-1456.91924106	0.053368	10	6
27	31	14007.15523936	0.07923	10	11
27	32	9696.19356331	0.100166	10	5
27	33	-1657.87173470	0.060346	10	8
27	34	14730.69030675	0.035305	10	5
27	35	94364.65995328	0.075946	10	10
27	36	12612.57171454	0.25329	10	12
27	37	21920.28618262	0.053367	10	6
27	38	18836.16737755	0.061578	10	9
27	39	543.43978917	0.081283	10	10
27	40	12495.64930514	0.098524	10	12
27	41	31427.66222517	0.088262	10	12
27	42	16741.27954338	0.114945	10	15
27	43	20966.30282517	0.074304	10	10
28	29	-935.47608004	0.053367	6	9
28	30	-2154.27213890	0.036947	6	6
28	31	31925.29337413	0.067735	6	11
28	32	11217.43361257	0.051315	6	5
28	33	-1373.21519591	0.045978	6	8
28	34	8632.94487538	0.032842	6	5
28	35	30362.75453996	0.06363	6	10
28	36	20288.35851194	0.068146	6	12
28	37	21895.81579296	0.042694	6	6
28	38	25618.39627321	0.045978	6	9
28	39	-514.94951678	0.129725	6	10
28	40	25378.81736404	0.054599	6	12
28	41	41408.62511772	0.053778	6	12
28	42	16313.70500238	0.065683	6	15
28	43	38704.54629991	0.045567	6	10
29	30	-913.03231993	0.044746	9	6
29	31	-1425.54055589	0.073072	9	11
29	32	-1159.85379089	0.039409	9	5
29	33	-2283.60527414	0.052957	9	8
29	34	-721.80035470	0.038589	9	5
29	35	-1213.26035775	0.070199	9	10
29	36	-1554.34403326	0.082514	9	12
29	37	-1272.31760130	0.046799	9	6
29	38	-2334.95092088	0.059115	9	9
29	39	-1700.28090434	0.06322	9	10
29	40	-1466.13579052	0.076357	9	12
29	41	-1107.81399553	0.076356	9	12
29	42	-845.39285523	0.091956	9	15
29	43	-2053.62959558	0.087441	9	10
30	31	-1615.57603562	0.054599	6	11
30	32	-2345.56670335	0.038589	6	5
30	33	-2015.27047670	0.055009	6	8
30	34	-1887.09939995	0.039821	6	5
30	35	-1416.36646966	0.053368	6	10
30	36	-1663.76679739	0.061988	6	12
30	37	-2249.80995139	0.045978	6	6
30	38	-1817.73160739	0.056241	6	9
30	39	-1586.39886010	0.048441	6	10
30	40	-1542.81168071	0.057883	6	12
30	41	-1549.16745506	0.058705	6	12
30	42	-1123.87523336	0.069789	6	15
30	43	-1861.12117175	0.04721	6	10
31	32	15160.92090679	0.046389	11	5
31	33	-1100.74075705	0.06363	11	8
31	34	4995.16509943	0.046799	11	5
31	35	19080.39638656	0.078409	11	10
31	36	18597.22988704	0.114946	11	12
31	37	22000.86477019	0.05501	11	6
31	38	13649.15882860	0.156408	11	9
31	39	-1135.53697099	0.87728	11	10
31	40	16111.69136952	0.115767	11	12
31	41	30794.25496402	0.10263	11	12
31	42	10844.71524056	0.168313	11	15
31	43	25872.14949122	0.098935	11	10
32	33	-1906.30215142	0.033663	5	8
32	34	17818.08555423	0.025452	5	5
32	35	5503.05757140	0.040641	5	10
32	36	13455.03089699	0.069789	5	12
32	37	14014.67549235	0.030789	5	6
32	38	210.17364436	0.037357	5	9
32	39	-701.71656657	0.0468	5	10
32	40	937.53695431	0.056241	5	12
32	41	6534.52795454	0.04803	5	12
32	42	9896.05568448	0.073483	5	15
32	43	4334.71300382	0.050084	5	10
33	34	-2084.16559799	0.034073	8	5
33	35	-996.19108905	0.054188	8	10
33	36	-949.37393711	0.066504	8	12
33	37	-1999.44274738	0.04023	8	6
33	38	-1981.75136507	0.049673	8	9
33	39	-1247.28531349	0.057062	8	10
33	40	25961.78077985	0.068967	8	12
33	41	-1104.23178886	0.07882	8	12
33	42	-961.91431464	0.091546	8	15
33	43	-1568.41065591	0.052136	8	10
34	35	3627.38224255	0.05542	5	10
34	36	1971.99020856	0.05542	5	12
34	37	3512.01276474	0.0312	5	6
34	38	-1424.08390832	0.040231	5	9
34	39	-1033.97949359	0.041463	5	10
34	40	-772.63887887	0.056651	5	12
34	41	1483.16891597	0.058294	5	12
34	42	10207.56094000	0.077588	5	15
34	43	-653.22432663	0.043515	5	10
35	36	12594.36936268	0.102219	10	12
35	37	15430.78863014	0.057473	10	6
35	38	16990.20280002	0.058294	10	9
35	39	-832.44928572	0.085388	10	10
35	40	22951.09925221	0.082925	10	12
35	41	80078.04433015	0.108377	10	12
35	42	10788.78234247	0.107145	10	15
35	43	18468.63488278	0.074304	10	10
36	37	29679.94384725	0.057883	12	6
36	38	13935.04745354	0.08662	12	9
36	39	-748.46551085	0.080462	12	10
36	40	13120.92937032	0.093598	12	12
36	41	20152.44187356	0.093188	12	12
36	42	107018.41225812	0.131777	12	15
36	43	17351.37841699	0.089494	12	10
37	38	16531.54562093	0.045979	6	9
37	39	-835.86367079	0.052136	6	10
37	40	12936.00324628	0.057062	6	12
37	41	18404.65563569	0.056651	6	12
37	42	7121.57598511	0.066915	6	15
37	43	15473.28534170	0.045567	6	10
38	39	-1733.89473393	0.058704	9	10
38	40	11516.21134170	0.067325	9	12
38	41	14131.51069373	0.065683	9	12
38	42	6744.51931151	0.081694	9	15
38	43	16458.03359677	0.067736	9	10
39	40	-1183.88708248	0.083746	10	12
39	41	873.37879060	0.075125	10	12
39	42	-743.07656871	0.106324	10	15
39	43	140.00511424	0.077177	10	10
40	41	28446.81932053	0.101398	12	12
40	42	4790.58856803	0.127261	12	15
40	43	37667.60394989	0.08703	12	10
41	42	9656.29812756	0.233586	12	15
41	43	97216.06213289	0.098935	12	10
42	43	7263.40229131	0.098115	15	10
