44	45	18.74334402	1.61211	13	10
44	46	20.25900633	0.350583	13	7
44	47	21.74304897	0.25247	13	15
44	48	28.65287512	0.330058	13	9
44	49	19.66164963	0.275459	13	9
44	10	42.58126181	0.398614	13	15
44	11	26.88883612	0.340731	13	12
44	12	8.40276385	0.482771	13	7
44	13	22.29198745	0.287774	13	7
44	14	10.13592479	0.275458	13	10
44	15	26.44674599	0.320615	13	14
44	16	16.57805318	0.265606	13	10
44	17	19.34978914	0.22866	13	12
44	18	11.76613004	0.541886	13	11
44	19	16.05878075	0.264785	13	10
44	0	20.87661606	0.305837	13	12
44	1	18.77348374	0.344016	13	12
44	2	24.89441952	0.321027	13	10
44	3	21.78688932	2.259501	13	22
44	4	31.87553114	0.437614	13	11
44	5	6.28821713	0.533676	13	18
44	6	24.66403596	0.287364	13	12
44	7	21.39536139	0.321847	13	13
44	8	9.77090962	0.253701	13	9
44	9	20.74760094	0.455677	13	18
44	20	23.67011292	0.277922	13	11
44	21	11.82748216	0.277101	13	6
44	22	11.85815408	0.266838	13	8
44	23	16.80736096	1.869507	13	7
44	24	19.63012751	0.317332	13	9
44	25	11.31765685	0.270532	13	10
44	26	12.33269455	0.270533	13	9
44	27	17.64020474	0.325952	13	10
44	28	24.17826538	0.26889	13	6
44	29	6.62755804	0.259038	13	9
44	30	-0.29945478	0.266838	13	6
44	31	34.79444120	0.407646	13	11
44	32	19.35820262	0.267249	13	5
44	33	10.18074089	0.401488	13	8
44	34	41.31314980	0.218396	13	5
44	35	19.61571109	0.372752	13	10
44	36	23.93498020	4.636409	13	12
44	37	17.94691239	0.213881	13	6
44	38	23.87035319	0.270532	13	9
44	39	11.43121431	0.270122	13	10
44	40	14.33613828	0.257806	13	12
44	41	24.44688835	0.269711	13	12
44	42	10.51830522	0.303374	13	15
44	43	21.82636574	0.372342	13	10
45	46	16.63578549	0.416267	10	7
45	47	22.56060344	0.587454	10	15
45	48	15.07908439	0.15805	10	9
45	49	15.71976454	0.154766	10	9
45	10	20.36163244	0.22907	10	15
45	11	20.68012907	0.173239	10	12
45	12	9.31845337	0.132598	10	7
45	13	16.19797162	0.126851	10	7
45	14	-0.59190530	0.156818	10	10
45	15	20.77170291	0.210597	10	14
45	16	15.94803814	0.151071	10	10
45	17	17.70083864	0.250006	10	12
45	18	11.59698162	0.172008	10	11
45	19	4.31216344	0.385478	10	10
45	0	18.88814726	0.196229	10	12
45	1	5.97216693	0.183503	10	12
45	2	19.13321561	0.155177	10	10
45	3	20.00079999	0.375215	10	22
45	4	21.96761684	0.16585	10	11
45	5	6.68295955	0.308711	10	18
45	6	24.09209304	0.201976	10	12
45	7	23.40299292	0.18227	10	13
45	8	4.11943281	0.146966	10	9
45	9	17.13696878	0.272996	10	18
45	20	23.81023317	0.182682	10	11
45	21	9.03001168	0.130134	10	6
45	22	10.01091462	0.124798	10	8
45	23	17.57642696	0.144913	10	7
45	24	18.72434319	0.141629	10	9
45	25	39.01714241	0.139987	10	10
45	26	13.57562477	0.414215	10	9
45	27	17.94620848	0.155176	10	10
45	28	26.94851263	0.194586	10	6
45	29	3.08286516	0.151892	10	9
45	30	-1.56829241	0.128492	10	6
45	31	16.38504553	0.182682	10	11
45	32	17.19486493	0.135882	10	5
45	33	-2.89217759	0.139987	10	8
45	34	8.10094849	0.116587	10	5
45	35	14.06874264	0.151071	10	10
45	36	13.58405799	0.507403	10	12
45	37	23.21359920	0.125209	10	6
45	38	3.41264416	0.159282	10	9
45	39	6.87729591	0.193765	10	10
45	40	11.45746773	1.078435	10	12
45	41	24.31910020	0.170777	10	12
45	42	10.72183839	0.22127	10	15
45	43	20.91547542	0.162155	10	10
46	47	9.89631373	0.177344	7	15
46	48	9.23159578	0.113303	7	9
46	49	5.46247448	0.10263	7	9
46	10	25.92748536	0.167082	7	15
46	11	16.14140598	0.176523	7	12
46	12	-3.88701940	0.077588	7	7
46	13	9.69051373	0.095651	7	7
46	14	1.76523419	0.121924	7	10
46	15	46.56922776	0.206492	7	14
46	16	18.60176505	0.115356	7	10
46	17	29.80928083	0.123977	7	12
46	18	13.23950827	0.252059	7	11
46	19	21.79991714	0.082925	7	10
46	0	9.28552033	0.113304	7	12
46	1	-0.73441378	0.135471	7	12
46	2	18.29934682	0.090725	7	10
46	3	19.78406046	0.196228	7	22
46	4	29.29068608	0.161335	7	11
46	5	8.14293636	0.172829	7	18
46	6	15.75561442	0.105504	7	12
46	7	12.82453400	0.114125	7	13
46	8	57.47039589	0.08703	7	9
46	9	23.62817552	0.13424	7	18
46	20	48.87683446	0.113304	7	11
46	21	1.93741811	0.066504	7	6
46	22	7.35538273	0.066914	7	8
46	23	37.21981701	0.054599	7	7
46	24	8.82483303	0.083746	7	9
46	25	4.68160285	0.09483	7	10
46	26	12.19411028	0.079641	7	9
46	27	7.78991915	0.104683	7	10
46	28	19.83806776	0.058294	7	6
46	29	-1.94828294	0.070199	7	9
46	30	-4.58784427	0.061578	7	6
46	31	16.22357894	0.100988	7	11
46	32	9.94842451	0.053367	7	5
46	33	20.17416965	0.291059	7	8
46	34	3.34378597	0.057883	7	5
46	35	19.12422954	0.082104	7	10
46	36	23.40328667	0.09483	7	12
46	37	14.44274491	0.05501	7	6
46	38	9.86145629	0.082104	7	9
46	39	14.49057807	0.080872	7	10
46	40	30.52051339	0.098524	7	12
46	41	28.48730993	0.640821	7	12
46	42	10.20536270	0.126029	7	15
46	43	21.06150361	0.080873	7	10
47	48	11.32647555	0.227838	15	9
47	49	17.37794423	0.160103	15	9
47	10	22.95733242	0.168313	15	15
47	11	22.99444559	0.208954	15	12
47	12	11.55516433	0.12644	15	7
47	13	17.28177936	0.209365	15	7
47	14	7.50903667	0.202386	15	10
47	15	23.56071675	0.195818	15	14
47	16	17.57843049	0.193765	15	10
47	17	17.23474478	0.193765	15	12
47	18	13.94548654	0.163387	15	11
47	19	8.76644757	0.161745	15	10
47	0	15.99690239	0.164208	15	12
47	1	12.81172256	0.155587	15	12
47	2	19.88446909	0.250006	15	10
47	3	22.58889344	0.295985	15	22
47	4	23.26700859	0.20485	15	11
47	5	12.18833228	1.815728	15	18
47	6	24.01446081	0.177755	15	12
47	7	38.66269388	0.178165	15	13
47	8	4.68194915	0.172829	15	9
47	9	22.98768796	0.217986	15	18
47	20	51.67290276	0.185555	15	11
47	21	8.69531394	0.142451	15	6
47	22	12.90536773	0.153535	15	8
47	23	19.09757995	0.157639	15	7
47	24	17.91967081	0.150661	15	9
47	25	15.61235103	0.138756	15	10
47	26	13.21356634	0.165439	15	9
47	27	18.85602492	0.15066	15	10
47	28	16.06755709	0.161334	15	6
47	29	8.07751254	0.131777	15	9
47	30	0.90483773	0.144503	15	6
47	31	17.93570231	0.162155	15	11
47	32	13.06645487	0.11823	15	5
47	33	4.08609272	0.129314	15	8
47	34	11.29411833	0.142039	15	5
47	35	22.86998725	0.15025	15	10
47	36	17.91764412	0.181039	15	12
47	37	17.55509107	0.151481	15	6
47	38	3.67661089	0.163797	15	9
47	39	9.79823523	0.149018	15	10
47	40	7.87805790	0.160102	15	12
47	41	24.00277180	0.143681	15	12
47	42	9.32741284	0.170776	15	15
47	43	18.94597274	0.133419	15	10
48	49	10.27643304	0.073072	9	9
48	10	12.43008901	0.117408	9	15
48	11	14.77764004	0.101809	9	12
48	12	17.50038357	0.075125	9	7
48	13	12.47910011	0.060346	9	7
48	14	3.13361773	0.07923	9	10
48	15	13.26996148	0.117409	9	14
48	16	11.98707854	0.080051	9	10
48	17	14.43282216	0.08744	9	12
48	18	16.15949482	0.087851	9	11
48	19	9.25285541	0.089082	9	10
48	0	11.96872148	0.105914	9	12
48	1	67.78718531	0.131776	9	12
48	2	15.65606810	0.096473	9	10
48	3	11.59834427	0.270943	9	22
48	4	14.92242441	0.159282	9	11
48	5	4.82406366	0.146966	9	18
48	6	14.45562167	0.095651	9	12
48	7	12.75135891	0.092367	9	13
48	8	7.64890141	0.073894	9	9
48	9	10.84297882	0.13424	9	18
48	20	11.41845303	0.094009	9	11
48	21	20.80639754	0.064041	9	6
48	22	11.56451172	0.116177	9	8
48	23	18.21216387	0.362078	9	7
48	24	15.05538197	0.075535	9	9
48	25	11.45902070	0.080051	9	10
48	26	10.09145947	0.077998	9	9
48	27	13.16529884	0.091956	9	10
48	28	16.66390644	0.056241	9	6
48	29	2.99411976	0.072252	9	9
48	30	-1.96689884	0.057062	9	6
48	31	14.36609808	0.080462	9	11
48	32	11.83104001	0.046799	9	5
48	33	2.89410526	0.123977	9	8
48	34	5.44250443	0.064451	9	5
48	35	12.40119857	0.082925	9	10
48	36	16.52554664	0.163798	9	12
48	37	15.06784453	0.060347	9	6
48	38	25.39564902	0.081283	9	9
48	39	10.22157998	0.105914	9	10
48	40	11.77831222	0.084568	9	12
48	41	16.49525139	0.087851	9	12
48	42	6.10080224	0.116998	9	15
48	43	13.01144432	0.112072	9	10
49	10	13.71268638	0.109198	9	15
49	11	17.85757329	0.089493	9	12
49	12	8.70107364	0.05501	9	7
49	13	36.08856548	0.056652	9	7
49	14	5.70275215	0.07102	9	10
49	15	15.61761574	0.096883	9	14
49	16	10.53495732	0.07923	9	10
49	17	12.74892516	0.133009	9	12
49	18	9.74588310	0.089083	9	11
49	19	7.02909010	0.087851	9	10
49	0	31.87211785	0.09483	9	12
49	1	2.34708170	0.116177	9	12
49	2	21.62651110	0.074304	9	10
49	3	12.84972439	0.156819	9	22
49	4	16.67749713	0.097293	9	11
49	5	11.52743701	0.155177	9	18
49	6	15.94023266	0.110841	9	12
49	7	16.85334512	0.120283	9	13
49	8	-0.79936252	0.152714	9	9
49	9	12.55805415	0.135471	9	18
49	20	19.36916923	0.088672	9	11
49	21	15.84704072	0.052957	9	6
49	22	11.79738541	0.061988	9	8
49	23	11.04798879	0.057062	9	7
49	24	16.91823465	0.066504	9	9
49	25	13.19302981	0.069788	9	10
49	26	7.75844682	0.070609	9	9
49	27	12.67077454	0.080872	9	10
49	28	15.72805766	0.053367	9	6
49	29	5.38345345	0.353867	9	9
49	30	-0.00633046	0.058704	9	6
49	31	72.59443184	0.108788	9	11
49	32	36.05923161	0.057883	9	5
49	33	1.25313337	0.06281	9	8
49	34	12.07477313	0.048441	9	5
49	35	13.33071716	0.080873	9	10
49	36	14.66556788	0.128082	9	12
49	37	14.50038033	0.06281	9	6
49	38	-0.68359260	0.089493	9	9
49	39	14.22471747	0.075125	9	10
49	40	9.67680416	0.088262	9	12
49	41	19.33056467	0.08703	9	12
49	42	8.92222507	0.119872	9	15
49	43	16.10430634	0.075536	9	10
10	11	92.48364694	0.154765	15	12
10	12	10.61546761	0.111661	15	7
10	13	14.78829442	0.11002	15	7
10	14	7.88267525	0.110019	15	10
10	15	108.45909244	0.172829	15	14
10	16	31.58351424	0.127672	15	10
10	17	27.65097949	0.180218	15	12
10	18	11.76456905	0.114535	15	11
10	19	15.07680920	0.112072	15	10
10	0	19.17064004	0.133419	15	12
10	1	4.57620145	0.128493	15	12
10	2	57.77436026	0.133008	15	10
10	3	75.11976756	0.351405	15	22
10	4	85.74590380	0.116998	15	11
10	5	8.24436175	0.169545	15	18
10	6	62.99807239	0.327595	15	12
10	7	55.95994125	0.162155	15	13
10	8	11.50857186	0.110019	15	9
10	9	60.74281964	0.201975	15	18
10	20	47.62171746	0.133009	15	11
10	21	11.34684929	0.099757	15	6
10	22	12.41305367	0.107146	15	8
10	23	64.45582021	0.103861	15	7
10	24	19.42407437	0.14204	15	9
10	25	12.58344508	0.106735	15	10
10	26	50.18876791	0.124387	15	9
10	27	48.18782637	0.130956	15	10
10	28	23.62626643	0.110019	15	6
10	29	3.90010493	0.115766	15	9
10	30	0.29971562	0.098525	15	6
10	31	16.19832583	0.140808	15	11
10	32	13.77814306	0.093188	15	5
10	33	7.39982403	0.107967	15	8
10	34	10.99609261	0.092778	15	5
10	35	40.17667152	0.140808	15	10
10	36	61.40902574	0.135061	15	12
10	37	18.90025483	0.092777	15	6
10	38	8.17621439	0.114535	15	9
10	39	10.98764256	0.130545	15	10
10	40	16.64431021	0.12685	15	12
10	41	91.56611128	0.151892	15	12
10	42	10.50656600	0.166671	15	15
10	43	40.51971363	0.145735	15	10
11	12	10.43236441	0.081693	12	7
11	13	18.11501562	0.077588	12	7
11	14	13.48123869	0.101398	12	10
11	15	149.26768163	0.131777	12	14
11	16	43.24388225	0.141219	12	10
11	17	26.90698153	0.107967	12	12
11	18	15.95499634	0.106324	12	11
11	19	15.46170798	0.096061	12	10
11	0	19.81044839	0.112893	12	12
11	1	4.42873617	0.119461	12	12
11	2	69.39495909	0.11864	12	10
11	3	52.63164700	0.203208	12	22
11	4	74.46016119	0.29188	12	11
11	5	12.70425548	0.179397	12	18
11	6	50.63151423	0.128082	12	12
11	7	87.98538536	0.135882	12	13
11	8	12.32018745	0.093188	12	9
11	9	72.34303927	0.183502	12	18
11	20	33.14578544	0.121514	12	11
11	21	12.27928329	0.083336	12	6
11	22	18.34403790	0.096473	12	8
11	23	46.55326867	0.093598	12	7
11	24	29.88487395	0.096061	12	9
11	25	22.72871427	0.089083	12	10
11	26	44.59318640	0.099346	12	9
11	27	33.33958277	0.10222	12	10
11	28	34.37589714	0.077177	12	6
11	29	12.06054871	0.105914	12	9
11	30	6.58014855	0.089082	12	6
11	31	20.83241163	0.115356	12	11
11	32	15.41938629	0.114535	12	5
11	33	7.45841407	0.117409	12	8
11	34	16.64632702	0.091956	12	5
11	35	45.96858924	0.108377	12	10
11	36	62.70458515	0.147377	12	12
11	37	21.58671711	0.091135	12	6
11	38	8.83506890	0.119051	12	9
11	39	14.45462296	0.099346	12	10
11	40	15.19671755	0.123155	12	12
11	41	67.27701980	0.126029	12	12
11	42	17.58307377	0.140397	12	15
11	43	22.09999271	0.108788	12	10
12	13	4.08179716	0.052957	7	7
12	14	7.24554563	0.137114	7	10
12	15	7.68366355	0.108378	7	14
12	16	9.18149021	0.070199	7	10
12	17	7.62450312	0.073894	7	12
12	18	10.78322287	0.073893	7	11
12	19	6.36917013	0.070199	7	10
12	0	11.08652568	0.076356	7	12
12	1	11.46913184	0.114946	7	12
12	2	10.55560190	0.069378	7	10
12	3	7.04053244	0.135882	7	22
12	4	8.86601888	0.079641	7	11
12	5	6.44535116	0.205671	7	18
12	6	11.34676091	0.080872	7	12
12	7	8.37572449	0.079231	7	13
12	8	0.68812276	0.163797	7	9
12	9	5.30746833	0.120693	7	18
12	20	7.30081908	0.083336	7	11
12	21	56.23252139	0.061988	7	6
12	22	12.39216265	0.062399	7	8
12	23	7.24614036	0.050904	7	7
12	24	14.10788645	0.069378	7	9
12	25	10.71176794	0.052957	7	10
12	26	9.34318544	0.062809	7	9
12	27	13.32266906	0.066094	7	10
12	28	9.11057323	0.04762	7	6
12	29	38.33202588	0.069788	7	9
12	30	4.16029730	0.043105	7	6
12	31	8.16790337	0.068557	7	11
12	32	4.24279258	0.046389	7	5
12	33	-8.10422819	0.059115	7	8
12	34	50.44142514	0.061578	7	5
12	35	12.26246185	0.067736	7	10
12	36	11.75073265	0.09483	7	12
12	37	15.02452748	0.043104	7	6
12	38	1.04877280	0.057883	7	9
12	39	6.05573583	0.066504	7	10
12	40	0.55437229	0.080872	7	12
12	41	8.73076507	0.083335	7	12
12	42	11.59824582	0.099756	7	15
12	43	8.00231401	0.069788	7	10
13	14	14.19145210	0.06322	7	10
13	15	15.18597851	0.094419	7	14
13	16	10.67580706	0.061578	7	10
13	17	13.46684589	0.064862	7	12
13	18	2.34221988	0.061578	7	11
13	19	11.56721699	0.070199	7	10
13	0	146.06983160	0.089494	7	12
13	1	5.39887017	0.075125	7	12
13	2	21.61892374	0.061989	7	10
13	3	12.00374015	0.124387	7	22
13	4	21.64413330	0.064452	7	11
13	5	12.51628207	0.130546	7	18
13	6	17.31966037	0.087852	7	12
13	7	16.01243126	0.089083	7	13
13	8	7.48143788	0.059525	7	9
13	9	13.11507359	0.111661	7	18
13	20	17.97068605	0.064452	7	11
13	21	17.88599919	0.038589	7	6
13	22	10.38166332	0.053368	7	8
13	23	9.92112628	0.043515	7	7
13	24	13.28595681	0.054599	7	9
13	25	9.29459823	0.067735	7	10
13	26	12.36999149	0.054599	7	9
13	27	15.29743742	0.058704	7	10
13	28	20.41841992	0.038179	7	6
13	29	3.13480761	0.052547	7	9
13	30	-6.50638311	0.037357	7	6
13	31	19.96884199	0.066504	7	11
13	32	113.94420094	0.104272	7	5
13	33	0.31645635	0.048031	7	8
13	34	14.77876995	0.036126	7	5
13	35	14.66811428	0.057062	7	10
13	36	16.45597730	0.073072	7	12
13	37	20.42823190	0.038999	7	6
13	38	2.82856772	0.059525	7	9
13	39	6.10398113	0.061988	7	10
13	40	10.32649172	0.071841	7	12
13	41	14.89630725	0.073894	7	12
13	42	10.71320724	0.089494	7	15
13	43	15.03617185	0.059115	7	10
14	15	8.83031481	0.111661	10	14
14	16	5.10266107	0.073893	10	10
14	17	5.77228056	0.097704	10	12
14	18	5.28477292	0.146966	10	11
14	19	4.24109256	0.073073	10	10
14	0	10.26352767	0.084978	10	12
14	1	3.16216565	0.090314	10	12
14	2	7.72972470	0.074304	10	10
14	3	7.71716634	0.180218	10	22
14	4	9.74526173	0.08703	10	11
14	5	32.86575579	0.154766	10	18
14	6	11.22496922	3.077255	10	12
14	7	9.49741413	0.11864	10	13
14	8	3.48241372	0.087441	10	9
14	9	7.78978098	0.250827	10	18
14	20	6.46327105	0.096472	10	11
14	21	7.89368945	0.057883	10	6
14	22	4.09454968	0.077178	10	8
14	23	9.18858419	0.081694	10	7
14	24	12.93234469	0.073893	10	9
14	25	4.63432760	0.089493	10	10
14	26	12.79483393	0.072252	10	9
14	27	12.90216388	0.109198	10	10
14	28	5.34124113	0.068557	10	6
14	29	5.53490816	0.091546	10	9
14	30	-1.60387208	0.080872	10	6
14	31	7.19391811	0.093188	10	11
14	32	4.92324045	0.054189	10	5
14	33	-0.37589331	0.064862	10	8
14	34	11.01157427	0.046799	10	5
14	35	8.55422216	0.07143	10	10
14	36	8.77248183	0.089904	10	12
14	37	11.06704106	0.05501	10	6
14	38	-0.25468757	0.068557	10	9
14	39	2.70354102	0.075535	10	10
14	40	3.94630087	0.097293	10	12
14	41	8.68976049	0.09524	10	12
14	42	8.02203567	0.115767	10	15
14	43	-0.65184760	0.091957	10	10
15	16	34.87783049	0.128904	14	10
15	17	29.81510052	0.153124	14	12
15	18	12.92156605	0.13383	14	11
15	19	16.08779733	0.129724	14	10
15	0	19.71252846	0.120282	14	12
15	1	6.69333685	0.12603	14	12
15	2	83.47027860	0.13383	14	10
15	3	68.69411346	0.233585	14	22
15	4	54.76552953	0.118229	14	11
15	5	11.46196134	0.192533	14	18
15	6	44.15194607	0.138345	14	12
15	7	94.37309563	0.145324	14	13
15	8	11.39029597	0.109608	14	9
15	9	80.23354733	0.196229	14	18
15	20	70.71863538	0.151072	14	11
15	21	11.13349372	0.093598	14	6
15	22	17.16323112	0.100988	14	8
15	23	51.78758472	0.199923	14	7
15	24	23.58331856	1.034099	14	9
15	25	17.13643215	0.140808	14	10
15	26	32.62231590	0.131367	14	9
15	27	27.10748386	0.132187	14	10
15	28	26.76860195	0.089494	14	6
15	29	1.79854814	0.11084	14	9
15	30	-0.09799658	0.08662	14	6
15	31	16.43377387	0.122335	14	11
15	32	12.57008468	0.181861	14	5
15	33	7.65405267	0.094009	14	8
15	34	12.46800244	0.076357	14	5
15	35	40.71241126	0.117408	14	10
15	36	63.78619299	0.12644	14	12
15	37	18.85210078	0.109608	14	6
15	38	5.68614925	0.119461	14	9
15	39	10.65670399	0.128903	14	10
15	40	16.17872112	0.140808	14	12
15	41	65.11487583	0.977037	14	12
15	42	12.72830971	0.203618	14	15
15	43	27.47975883	0.180218	14	10
16	17	22.49410850	0.106735	10	12
16	18	15.29416739	0.091135	10	11
16	19	12.61668077	0.07923	10	10
16	0	16.09598117	0.09483	10	12
16	1	7.69452502	0.09483	10	12
16	2	37.44866238	0.096472	10	10
16	3	30.95431600	0.172418	10	22
16	4	38.02927809	0.113714	10	11
16	5	9.60833292	0.15805	10	18
16	6	39.42071718	0.123156	10	12
16	7	21.10228040	0.096882	10	13
16	8	14.98878748	0.075125	10	9
16	9	55.80943776	0.143271	10	18
16	20	19.42339016	0.081694	10	11
16	21	9.65613745	0.067326	10	6
16	22	12.45979004	0.059936	10	8
16	23	99.61866946	0.073893	10	7
16	24	20.70354703	0.072662	10	9
16	25	13.67966258	0.094419	10	10
16	26	42.77940220	0.184324	10	9
16	27	43.49462584	0.098936	10	10
16	28	29.31366969	0.073072	10	6
16	29	6.78244363	0.089083	10	9
16	30	0.63847459	0.066915	10	6
16	31	18.53600031	0.087852	10	11
16	32	14.10556119	3.94961	10	5
16	33	8.08779821	0.072252	10	8
16	34	10.09512500	0.050494	10	5
16	35	45.05419445	0.084977	10	10
16	36	14.44372873	0.084567	10	12
16	37	21.27542819	0.056652	10	6
16	38	7.36910801	0.07923	10	9
16	39	10.29956507	0.194997	10	10
16	40	10.93522459	0.095651	10	12
16	41	38.36780258	0.110019	10	12
16	42	14.37625167	0.109199	10	15
16	43	38.49210094	0.077588	10	10
17	18	57.54597939	0.103451	12	11
17	19	33.56212761	0.112482	12	10
17	0	15.84694032	0.098114	12	12
17	1	3.94478312	0.123156	12	12
17	2	37.73468882	0.100167	12	10
17	3	27.60542182	0.193355	12	22
17	4	24.68268428	0.116998	12	11
17	5	11.18125628	0.302143	12	18
17	6	25.86592831	0.118641	12	12
17	7	19.97048591	0.112072	12	13
17	8	18.75924562	0.082514	12	9
17	9	29.27066707	0.144093	12	18
17	20	21.37186085	0.109198	12	11
17	21	7.44375862	0.077178	12	6
17	22	9.73196819	0.083335	12	8
17	23	32.00769238	0.084567	12	7
17	24	19.32738569	0.100577	12	9
17	25	15.56296390	0.082925	12	10
17	26	23.93361239	0.105093	12	9
17	27	17.42409226	0.148608	12	10
17	28	23.23948031	0.100167	12	6
17	29	4.76891912	0.085388	12	9
17	30	6.94154323	0.066915	12	6
17	31	14.93362257	0.097703	12	11
17	32	9.08284813	0.083336	12	5
17	33	8.99636293	0.096062	12	8
17	34	4.42050860	0.059936	12	5
17	35	23.35726991	0.107967	12	10
17	36	22.28544482	0.106735	12	12
17	37	36.04114100	0.097294	12	6
17	38	5.42917924	0.083746	12	9
17	39	12.65447726	0.090314	12	10
17	40	16.84593885	0.097704	12	12
17	41	23.95503474	0.096882	12	12
17	42	26.27327968	0.141629	12	15
17	43	20.48170231	0.137524	12	10
18	19	9.70273377	0.097293	11	10
18	0	8.15529044	0.105914	11	12
18	1	8.70137999	0.124388	11	12
18	2	37.45926777	0.091956	11	10
18	3	13.55096958	0.263143	11	22
18	4	12.22830832	0.105093	11	11
18	5	13.40124669	0.149018	11	18
18	6	18.42044881	0.110019	11	12
18	7	14.17880614	0.108788	11	13
18	8	6.35606847	0.07882	11	9
18	9	12.30348553	0.215933	11	18
18	20	15.23313835	0.08662	11	11
18	21	10.09697936	0.060757	11	6
18	22	14.47807336	0.069378	11	8
18	23	16.85863425	0.061167	11	7
18	24	21.85600563	0.068967	11	9
18	25	16.56572494	0.072252	11	10
18	26	21.46054595	0.073483	11	9
18	27	15.36455359	0.076357	11	10
18	28	15.13126672	0.06322	11	6
18	29	16.16588180	0.075125	11	9
18	30	11.82831696	0.064452	11	6
18	31	10.96636599	0.151071	11	11
18	32	4.55308607	0.058705	11	5
18	33	9.26153325	0.073072	11	8
18	34	7.05766656	0.05501	11	5
18	35	14.48356055	0.089493	11	10
18	36	13.23023446	0.105093	11	12
18	37	13.36181637	0.067735	11	6
18	38	4.61726684	0.077999	11	9
18	39	15.17192410	0.07964	11	10
18	40	18.43955522	0.097293	11	12
18	41	14.40275962	0.112483	11	12
18	42	11.48441969	0.137114	11	15
18	43	14.18433760	0.089083	11	10
19	0	10.26330257	0.105504	10	12
19	1	4.20835570	0.102219	10	12
19	2	6.69985764	0.077999	10	10
19	3	15.01337080	0.16585	10	22
19	4	19.38074585	0.079641	10	11
19	5	13.42354615	0.148198	10	18
19	6	10.18356751	0.093188	10	12
19	7	13.77115447	0.102219	10	13
19	8	10.92183395	0.07882	10	9
19	9	16.66650485	0.14204	10	18
19	20	17.44832771	0.074304	10	11
19	21	5.51944003	0.053367	10	6
19	22	3.77769487	0.061168	10	8
19	23	16.16503023	0.058294	10	7
19	24	9.11432107	0.07143	10	9
19	25	4.66329576	0.062399	10	10
19	26	7.09614809	0.086209	10	9
19	27	11.44568573	0.073072	10	10
19	28	15.63081950	0.051726	10	6
19	29	1.57375577	0.071431	10	9
19	30	-1.88788579	0.054188	10	6
19	31	8.21058680	0.08744	10	11
19	32	13.84866945	0.052957	10	5
19	33	9.36454006	0.084567	10	8
19	34	4.11179002	0.04721	10	5
19	35	14.64283762	0.075946	10	10
19	36	98.66945397	0.100167	10	12
19	37	13.97784039	0.051725	10	6
19	38	4.13334250	0.076767	10	9
19	39	15.42754103	0.075125	10	10
19	40	14.35174529	0.082515	10	12
19	41	16.30350190	0.088673	10	12
19	42	86.16460003	0.200333	10	15
19	43	13.30857855	0.114535	10	10
0	1	1.85616454	0.135472	12	12
0	2	17.67364954	0.111661	12	10
0	3	14.93864953	0.21347	12	22
0	4	21.62204103	0.089494	12	11
0	5	30.66908900	0.163387	12	18
0	6	18.89301301	0.114124	12	12
0	7	20.66493022	0.097293	12	13
0	8	7.72712565	0.077178	12	9
0	9	13.49133104	0.139166	12	18
0	20	18.53898067	0.084567	12	11
0	21	11.75816132	0.065684	12	6
0	22	13.79505265	0.074715	12	8
0	23	14.66759255	0.139166	12	7
0	24	14.11163352	0.084978	12	9
0	25	9.73993626	0.070609	12	10
0	26	11.62679029	0.077999	12	9
0	27	17.59514374	0.080051	12	10
0	28	20.57554629	0.065683	12	6
0	29	6.99993712	0.075536	12	9
0	30	2.85984805	0.056241	12	6
0	31	18.66902525	0.092777	12	11
0	32	106.16864590	0.071841	12	5
0	33	0.77090171	0.267659	12	8
0	34	13.54742491	0.059936	12	5
0	35	14.74860466	0.128082	12	10
0	36	15.15978700	0.106324	12	12
0	37	16.06703506	0.068556	12	6
0	38	1.88582297	0.494676	12	9
0	39	6.64607697	0.097703	12	10
0	40	8.49205740	0.098525	12	12
0	41	18.89385457	0.107557	12	12
0	42	18.02223613	0.127671	12	15
0	43	13.98583498	0.094009	12	10
1	2	7.43398442	0.108377	12	10
1	3	7.71880761	0.193765	12	22
1	4	5.95481941	0.107557	12	11
1	5	0.95171770	0.159692	12	18
1	6	10.15312646	0.113714	12	12
1	7	5.48331560	0.112893	12	13
1	8	2.30597698	0.087441	12	9
1	9	7.13726692	0.153534	12	18
1	20	5.41653098	0.105093	12	11
1	21	11.09005186	0.070199	12	6
1	22	8.82218590	0.087031	12	8
1	23	12.64591591	0.098525	12	7
1	24	8.02098543	0.083336	12	9
1	25	6.58244903	0.073483	12	10
1	26	5.15428903	0.079641	12	9
1	27	6.84646653	0.083336	12	10
1	28	10.03670119	0.066504	12	6
1	29	5.36734879	0.075125	12	9
1	30	-1.73931593	0.070199	12	6
1	31	7.21933199	0.088672	12	11
1	32	4.99055445	0.054188	12	5
1	33	0.06004528	0.079641	12	8
1	34	2.41559381	0.083335	12	5
1	35	10.41664807	0.087851	12	10
1	36	6.10793580	0.130545	12	12
1	37	9.23159329	0.066915	12	6
1	38	20.23950658	0.129724	12	9
1	39	7.61389676	0.098936	12	10
1	40	-1.84326126	0.115766	12	12
1	41	9.07910127	0.120692	12	12
1	42	2.54543287	0.135882	12	15
1	43	6.75980620	0.108378	12	10
2	3	33.61307993	0.204028	10	22
2	4	50.80752446	0.14286	10	11
2	5	10.54841695	0.134239	10	18
2	6	43.23741862	0.099756	10	12
2	7	26.77390039	0.093598	10	13
2	8	6.48168712	0.07143	10	9
2	9	34.42510794	0.130135	10	18
2	20	23.85068342	0.094419	10	11
2	21	15.92558710	0.058294	10	6
2	22	20.30959501	0.072662	10	8
2	23	41.17577918	0.076356	10	7
2	24	20.79297552	0.071841	10	9
2	25	13.19588864	0.076767	10	10
2	26	38.30532808	0.075536	10	9
2	27	20.48931212	0.068967	10	10
2	28	31.20824867	0.056652	10	6
2	29	5.84192229	0.07102	10	9
2	30	-2.33050921	0.059114	10	6
2	31	20.00159557	0.089083	10	11
2	32	15.90307437	0.056241	10	5
2	33	4.73121691	0.056241	10	8
2	34	16.80205532	0.090314	10	5
2	35	40.37293964	0.129725	10	10
2	36	50.66029931	0.100167	10	12
2	37	77.18628176	0.124388	10	6
2	38	5.48336509	0.068967	10	9
2	39	8.88367072	0.073483	10	10
2	40	13.00908441	0.089082	10	12
2	41	47.08223492	0.091135	10	12
2	42	12.33872824	0.098114	10	15
2	43	19.91106597	0.068967	10	10
3	4	38.98200564	0.227428	22	11
3	5	13.96003909	0.272996	22	18
3	6	75.64595831	0.256575	22	12
3	7	76.41847167	0.277511	22	13
3	8	11.30269735	0.187197	22	9
3	9	62.10226999	0.337858	22	18
3	20	54.16837462	0.298859	22	11
3	21	7.89522407	0.161334	22	6
3	22	8.27689087	0.22086	22	8
3	23	49.19800595	0.20526	22	7
3	24	15.92533362	0.217165	22	9
3	25	26.44600424	0.203618	22	10
3	26	43.49884170	0.181039	22	9
3	27	52.46148372	0.199513	22	10
3	28	21.95702368	0.162977	22	6
3	29	8.76337741	0.153534	22	9
3	30	-0.60559532	0.133419	22	6
3	31	12.63741886	0.208133	22	11
3	32	9.73022121	0.210186	22	5
3	33	6.82610738	0.166671	22	8
3	34	7.29540731	0.138755	22	5
3	35	66.89566321	0.208544	22	10
3	36	23.19746205	0.216754	22	12
3	37	13.35535427	0.162155	22	6
3	38	5.82949906	0.180218	22	9
3	39	23.91601815	0.190071	22	10
3	40	15.74754930	0.202796	22	12
3	41	50.26281030	0.22866	22	12
3	42	13.23145257	0.22948	22	15
3	43	21.39078092	0.207723	22	10
4	5	10.44059112	0.142861	11	18
4	6	46.80986845	0.12562	11	12
4	7	30.18837857	0.091546	11	13
4	8	17.53823925	0.069788	11	9
4	9	43.75192051	0.140808	11	18
4	20	30.85604810	0.073893	11	11
4	21	13.29911278	0.059936	11	6
4	22	20.72699178	0.062399	11	8
4	23	53.54387077	0.07143	11	7
4	24	17.96918763	0.073894	11	9
4	25	13.57711929	0.08621	11	10
4	26	34.91010692	0.081283	11	9
4	27	26.16054756	0.07882	11	10
4	28	28.36527812	0.065683	11	6
4	29	4.02547456	0.070609	11	9
4	30	-3.57344092	0.059525	11	6
4	31	20.57334211	0.094009	11	11
4	32	13.92920503	0.054599	11	5
4	33	7.81964747	0.065683	11	8
4	34	17.66742181	0.051725	11	5
4	35	44.50110892	0.081283	11	10
4	36	32.24046072	0.085799	11	12
4	37	24.15299663	0.059115	11	6
4	38	5.76774050	0.073073	11	9
4	39	13.48721674	0.085798	11	10
4	40	18.36885765	0.095651	11	12
4	41	92.04646385	0.100166	11	12
4	42	17.55127562	0.11864	11	15
4	43	47.42846372	0.098114	11	10
5	6	13.41526547	0.15764	18	12
5	7	14.07430981	0.143682	18	13
5	8	6.44119388	0.139166	18	9
5	9	10.70871167	0.199102	18	18
5	20	15.10337090	0.14245	18	11
5	21	4.98072361	0.105093	18	6
5	22	10.71436009	0.128493	18	8
5	23	7.15499221	0.127261	18	7
5	24	12.67795993	0.127672	18	9
5	25	11.51731541	0.12685	18	10
5	26	10.72740756	0.132187	18	9
5	27	18.00523365	0.134651	18	10
5	28	8.06869121	0.115356	18	6
5	29	13.37632650	0.125619	18	9
5	30	3.68973574	0.11823	18	6
5	31	8.01752908	0.145735	18	11
5	32	10.03664543	0.098114	18	5
5	33	6.28008404	0.135882	18	8
5	34	7.79561416	0.107556	18	5
5	35	17.85537101	0.148608	18	10
5	36	12.83321852	0.167492	18	12
5	37	9.58471530	0.115767	18	6
5	38	0.69901230	0.131777	18	9
5	39	5.87066308	0.141218	18	10
5	40	8.64350606	0.206491	18	12
5	41	13.25199032	0.15764	18	12
5	42	15.05667013	0.198281	18	15
5	43	7.30500783	0.13424	18	10
6	7	68.53982417	0.12644	12	13
6	8	14.46424515	0.082104	12	9
6	9	34.76674926	0.160103	12	18
6	20	52.81156031	0.100167	12	11
6	21	10.97343807	0.065272	12	6
6	22	12.94748150	0.077178	12	8
6	23	50.22229654	0.072251	12	7
6	24	23.30326421	0.079641	12	9
6	25	20.76923197	0.084977	12	10
6	26	61.37829978	0.095651	12	9
6	27	111.39002010	0.090725	12	10
6	28	31.82892295	0.066504	12	6
6	29	9.54648749	0.083335	12	9
6	30	-0.37900336	0.066915	12	6
6	31	18.27188900	0.093188	12	11
6	32	14.59263459	0.076767	12	5
6	33	9.35614567	0.076767	12	8
6	34	15.81350118	0.06322	12	5
6	35	86.98052724	0.119872	12	10
6	36	20.26835623	0.103861	12	12
6	37	20.96950144	0.076356	12	6
6	38	5.96551230	0.083336	12	9
6	39	12.68122522	0.10263	12	10
6	40	12.62664526	0.11864	12	12
6	41	42.61618626	0.107145	12	12
6	42	11.98335851	0.131777	12	15
6	43	24.45383895	0.079641	12	10
7	8	6.27476401	0.085798	13	9
7	9	67.04153662	0.182681	13	18
7	20	104.77914461	0.12644	13	11
7	21	9.14246664	0.094009	13	6
7	22	12.52335412	0.096061	13	8
7	23	20.82579863	0.081693	13	7
7	24	24.19712293	0.100577	13	9
7	25	17.61082619	0.09483	13	10
7	26	35.62395590	0.094419	13	9
7	27	54.07058176	0.091545	13	10
7	28	30.36593443	0.073483	13	6
7	29	10.08748616	0.081283	13	9
7	30	2.29258867	0.068557	13	6
7	31	14.76756563	0.097703	13	11
7	32	12.86406286	0.068557	13	5
7	33	7.29938190	0.082925	13	8
7	34	11.60464766	0.070199	13	5
7	35	31.85242673	0.12644	13	10
7	36	24.27675119	0.114945	13	12
7	37	17.16941558	0.075125	13	6
7	38	5.02501799	0.094009	13	9
7	39	9.44953110	0.271764	13	10
7	40	8.59047606	0.103041	13	12
7	41	40.53530506	0.105093	13	12
7	42	12.30013220	0.129725	13	15
7	43	20.84182261	0.08703	13	10
8	9	13.97453503	0.19787	9	18
8	20	12.44115026	0.085388	9	11
8	21	2.46813316	0.043925	9	6
8	22	5.26780969	0.052547	9	8
8	23	22.76782856	0.072252	9	7
8	24	1.67313798	0.060346	9	9
8	25	-1.07457585	0.28449	9	10
8	26	12.34326158	0.070199	9	9
8	27	8.88101779	0.066915	9	10
8	28	13.37643066	0.049673	9	6
8	29	-0.56831289	0.060346	9	9
8	30	1.20289320	0.048031	9	6
8	31	11.91450177	0.073893	9	11
8	32	5.10872916	0.041873	9	5
8	33	16.72084733	0.057473	9	8
8	34	3.32339411	0.03941	9	5
8	35	18.37794345	0.07143	9	10
8	36	10.69611830	0.082515	9	12
8	37	9.05924242	0.048851	9	6
8	38	2.64453060	0.075125	9	9
8	39	20.86949237	0.071841	9	10
8	40	9.28226170	0.077588	9	12
8	41	16.40223030	0.074714	9	12
8	42	10.95821932	0.097703	9	15
8	43	10.18575650	0.064452	9	10
9	20	39.84369825	0.162566	18	11
9	21	5.84261424	0.105093	18	6
9	22	8.59898195	0.123156	18	8
9	23	42.88473642	0.145734	18	7
9	24	15.75297379	0.143271	18	9
9	25	14.77543022	0.13424	18	10
9	26	33.17634723	0.142451	18	9
9	27	22.75293831	0.208544	18	10
9	28	21.12939360	0.144503	18	6
9	29	7.51544186	0.204028	18	9
9	30	3.28230611	0.111662	18	6
9	31	18.75893684	0.155997	18	11
9	32	9.24546487	0.093188	18	5
9	33	11.52888822	0.132187	18	8
9	34	6.94674831	0.095652	18	5
9	35	41.78787589	0.153945	18	10
9	36	23.24316148	0.154766	18	12
9	37	13.76944322	0.113714	18	6
9	38	5.93810612	0.125619	18	9
9	39	12.24794546	0.133829	18	10
9	40	17.02785440	0.163798	18	12
9	41	54.58837954	0.193766	18	12
9	42	12.59854860	0.19007	18	15
9	43	22.33502486	0.147788	18	10
20	21	8.77704516	0.065273	11	6
20	22	9.08459665	0.066094	11	8
20	23	52.60787827	0.083335	11	7
20	24	20.34793406	0.068967	11	9
20	25	16.72970139	0.064041	11	10
20	26	39.36691815	0.087441	11	9
20	27	54.19871336	0.084157	11	10
20	28	26.31820585	0.075536	11	6
20	29	9.14109495	0.075946	11	9
20	30	-0.99247967	0.077177	11	6
20	31	19.57080537	0.091135	11	11
20	32	15.26589288	0.062809	11	5
20	33	13.98072927	0.074304	11	8
20	34	12.01249291	0.061578	11	5
20	35	28.90136269	0.080462	11	10
20	36	26.87519965	0.091957	11	12
20	37	24.57552983	0.059115	11	6
20	38	4.07782506	0.075536	11	9
20	39	11.30243841	0.075946	11	10
20	40	15.38629739	0.084567	11	12
20	41	27.04377567	0.08621	11	12
20	42	10.91999280	0.108377	11	15
20	43	24.13337172	0.137113	11	10
21	22	12.86888295	0.060757	6	8
21	23	8.62497019	0.045157	6	7
21	24	12.24995742	0.053778	6	9
21	25	8.36930663	0.057062	6	10
21	26	7.59189173	0.061989	6	9
21	27	17.56334480	0.490161	6	10
21	28	11.19461152	0.040641	6	6
21	29	6.14489744	0.050904	6	9
21	30	-2.46932433	0.034894	6	6
21	31	13.24309806	0.053368	6	11
21	32	12.34674525	0.032021	6	5
21	33	-3.85525143	0.049673	6	8
21	34	16.52669331	0.029968	6	5
21	35	13.01306299	0.053368	6	10
21	36	15.11490971	0.075536	6	12
21	37	14.49243314	0.050083	6	6
21	38	5.75589935	0.06322	6	9
21	39	11.14705599	0.059525	6	10
21	40	3.30574809	0.067736	6	12
21	41	11.09055843	0.062809	6	12
21	42	5.24228326	0.063631	6	15
21	43	42.18519856	0.058294	6	10
22	23	7.59581815	0.059525	8	7
22	24	19.33923554	0.056242	8	9
22	25	11.40181579	0.049673	8	10
22	26	9.19120264	0.065684	8	9
22	27	12.89911820	0.05501	8	10
22	28	13.86589426	0.04023	8	6
22	29	6.46259408	0.055421	8	9
22	30	7.73895008	0.040231	8	6
22	31	12.25737017	0.066504	8	11
22	32	12.50974953	0.037358	8	5
22	33	-1.32808503	0.054599	8	8
22	34	14.76514457	0.041873	8	5
22	35	11.10870202	0.059936	8	10
22	36	13.62222213	0.538191	8	12
22	37	19.60786710	0.045568	8	6
22	38	1.89248061	0.063631	8	9
22	39	8.35687111	0.069377	8	10
22	40	10.25410887	0.074715	8	12
22	41	17.23585601	0.085388	8	12
22	42	11.53315997	0.11084	8	15
22	43	13.26846006	0.137113	8	10
23	24	17.40222332	0.05542	7	9
23	25	12.90038333	0.047209	7	10
23	26	75.77126091	0.055009	7	9
23	27	20.95475782	0.059114	7	10
23	28	25.16364838	0.047209	7	6
23	29	7.94279087	0.050905	7	9
23	30	3.03091690	0.040642	7	6
23	31	23.08200548	0.065273	7	11
23	32	13.06846648	0.033663	7	5
23	33	18.28607234	0.046389	7	8
23	34	4.98448947	0.030789	7	5
23	35	52.20435606	0.059525	7	10
23	36	19.38890835	0.064041	7	12
23	37	16.70014048	0.037357	7	6
23	38	10.05887661	0.061578	7	9
23	39	13.76586418	0.053778	7	10
23	40	21.97390527	0.066504	7	12
23	41	52.28557401	0.07923	7	12
23	42	12.80673497	0.077998	7	15
23	43	46.23662761	0.053367	7	10
24	25	145.22025756	0.059526	9	10
24	26	25.00327082	0.060757	9	9
24	27	22.80051384	0.06322	9	10
24	28	23.07292663	0.046389	9	6
24	29	12.10655207	0.062809	9	9
24	30	7.45946576	0.042284	9	6
24	31	22.03181177	0.069378	9	11
24	32	11.66595818	0.039	9	5
24	33	2.14573957	0.052547	9	8
24	34	19.62480243	0.042283	9	5
24	35	19.05847998	0.066094	9	10
24	36	21.30079797	0.074304	9	12
24	37	25.48054611	0.045157	9	6
24	38	4.46624917	0.054599	9	9
24	39	8.17651427	0.063631	9	10
24	40	13.43470730	0.080872	9	12
24	41	16.73851564	0.073072	9	12
24	42	14.91482709	0.087852	9	15
24	43	14.26537213	0.06281	9	10
25	26	18.06766345	0.071841	10	9
25	27	41.94410781	0.081693	10	10
25	28	15.48909706	0.06322	10	6
25	29	8.46059247	0.07923	10	9
25	30	6.56593767	0.06322	10	6
25	31	12.62428430	0.083335	10	11
25	32	6.19862572	0.049263	10	5
25	33	-0.82307058	0.06322	10	8
25	34	13.32646305	0.102219	10	5
25	35	40.97681521	0.084978	10	10
25	36	10.09475491	0.082104	10	12
25	37	15.93084898	0.052136	10	6
25	38	4.80870809	0.097704	10	9
25	39	5.07585910	0.07143	10	10
25	40	8.48786164	0.082514	10	12
25	41	12.62613971	0.083335	10	12
25	42	10.49489113	0.101399	10	15
25	43	9.07842453	0.070198	10	10
26	27	39.17813821	0.076767	9	10
26	28	23.32906195	0.044336	9	6
26	29	8.47163487	0.059115	9	9
26	30	10.57883957	0.046389	9	6
26	31	12.94999679	0.187607	9	11
26	32	9.33768925	0.038179	9	5
26	33	6.14727414	0.052547	9	8
26	34	7.71586775	0.037358	9	5
26	35	38.95716546	0.070199	9	10
26	36	10.00374425	0.074305	9	12
26	37	16.93768204	0.041873	9	6
26	38	2.57334790	0.066504	9	9
26	39	14.39722704	0.061988	9	10
26	40	32.08453310	0.077999	9	12
26	41	34.54252304	0.100167	9	12
26	42	9.77620392	0.301321	9	15
26	43	6.72363945	0.059115	9	10
27	28	24.46889646	0.04803	10	6
27	29	11.42723375	0.05583	10	9
27	30	2.59959700	0.044747	10	6
27	31	14.54369893	0.114125	10	11
27	32	14.38297265	0.057062	10	5
27	33	3.52653826	0.067736	10	8
27	34	20.87487011	0.048441	10	5
27	35	55.27737169	0.075535	10	10
27	36	17.04387155	0.097704	10	12
27	37	25.30594214	0.053367	10	6
27	38	7.46870183	0.064041	10	9
27	39	11.53348896	0.066915	10	10
27	40	11.68275824	0.07882	10	12
27	41	25.28558379	0.088673	10	12
27	42	18.06337517	0.100988	10	15
27	43	19.32892722	0.064451	10	10
28	29	9.63926098	0.041873	6	9
28	30	-0.68073628	0.030789	6	6
28	31	22.53709570	0.053367	6	11
28	32	22.20995793	0.026273	6	5
28	33	5.17867545	0.043104	6	8
28	34	16.06297982	0.025863	6	5
28	35	27.86471723	0.046388	6	10
28	36	21.60829055	0.053778	6	12
28	37	28.31464405	0.028736	6	6
28	38	12.08517116	0.043926	6	9
28	39	14.28858397	0.048442	6	10
28	40	16.25232582	0.054188	6	12
28	41	28.91475411	0.051315	6	12
28	42	15.69195048	0.064862	6	15
28	43	26.60621061	0.045158	6	10
29	30	12.86543078	0.045567	9	6
29	31	6.55537144	0.067326	9	11
29	32	3.83434725	0.03202	9	5
29	33	-2.13741377	0.046389	9	8
29	34	11.85156225	0.03982	9	5
29	35	10.74008338	0.071841	9	10
29	36	4.32370114	0.08662	9	12
29	37	6.40003184	0.045157	9	6
29	38	-0.49436238	0.077178	9	9
29	39	5.57402666	0.069378	9	10
29	40	4.76400496	0.076767	9	12
29	41	9.93409748	0.075535	9	12
29	42	10.32981892	0.090724	9	15
29	43	0.07309295	0.061989	9	10
30	31	0.38754081	0.068146	6	11
30	32	-5.80455854	0.027916	6	5
30	33	0.17621514	0.043926	6	8
30	34	2.65029525	0.028325	6	5
30	35	4.44819389	0.048852	6	10
30	36	-1.91868124	0.051725	6	12
30	37	-0.53194242	0.032842	6	6
30	38	-0.13927181	0.046799	6	9
30	39	1.90228067	0.084978	6	10
30	40	-0.07830269	0.057473	6	12
30	41	-0.85662752	0.049673	6	12
30	42	2.28235955	0.054188	6	15
30	43	-2.51133234	0.036536	6	10
31	32	14.21752937	0.03982	11	5
31	33	9.72609371	0.052547	11	8
31	34	15.00167094	0.042284	11	5
31	35	19.69457356	0.065683	11	10
31	36	16.51535568	0.073072	11	12
31	37	19.62100566	0.045157	11	6
31	38	2.13681038	0.068968	11	9
31	39	12.53559414	0.065684	11	10
31	40	13.74117729	0.080872	11	12
31	41	21.46676062	0.152713	11	12
31	42	12.30565301	0.158461	11	15
31	43	17.15285079	0.083335	11	10
32	33	-3.92570019	0.029147	5	8
32	34	16.38879993	0.0234	5	5
32	35	12.41763920	0.052136	5	10
32	36	15.33392016	0.040231	5	12
32	37	15.59535492	0.0234	5	6
32	38	3.26362964	0.032431	5	9
32	39	9.09525571	0.034483	5	10
32	40	10.48758437	0.050494	5	12
32	41	12.68093779	0.04803	5	12
32	42	11.33862043	0.056652	5	15
32	43	14.26383364	0.042694	5	10
33	34	-4.36460605	0.027505	8	5
33	35	11.77554914	0.05542	8	10
33	36	11.30724977	0.057884	8	12
33	37	-0.69170184	0.034894	8	6
33	38	1.46149848	0.048031	8	9
33	39	10.00257559	0.045978	8	10
33	40	9.40983611	0.05501	8	12
33	41	7.85986854	0.058294	8	12
33	42	7.74387893	0.069378	8	15
33	43	5.35862681	0.045568	8	10
34	35	10.58596310	0.037768	5	10
34	36	18.24070558	0.036126	5	12
34	37	15.68182035	0.026274	5	6
34	38	1.86671649	0.03161	5	9
34	39	5.75781620	0.034073	5	10
34	40	5.59069998	0.042283	5	12
34	41	13.11526171	0.040641	5	12
34	42	8.22907280	0.052546	5	15
34	43	9.85360384	0.065683	5	10
35	36	19.99528154	0.065684	10	12
35	37	18.00788752	0.045567	10	6
35	38	7.65659199	0.05501	10	9
35	39	17.55346304	0.052957	10	10
35	40	18.31695654	0.065273	10	12
35	41	46.33005636	0.129724	10	12
35	42	17.66402854	0.109608	10	15
35	43	19.55254612	0.175292	10	10
36	37	24.40339673	0.062399	12	6
36	38	6.75889210	0.066915	12	9
36	39	17.07858120	0.067736	12	10
36	40	12.56501330	0.080462	12	12
36	41	25.57892413	0.085798	12	12
36	42	47.66346943	0.112072	12	15
36	43	20.21875660	0.084156	12	10
37	38	7.66300673	0.049673	6	9
37	39	10.70584545	0.051725	6	10
37	40	15.86635846	0.048442	6	12
37	41	21.39045316	0.053368	6	12
37	42	11.05488728	0.059115	6	15
37	43	15.10343563	0.044336	6	10
38	39	5.55122605	0.053367	9	10
38	40	5.55266535	0.073894	9	12
38	41	5.09182028	0.06322	9	12
38	42	6.49530986	0.073483	9	15
38	43	6.68605359	0.048852	9	10
39	40	9.50537094	0.073073	10	12
39	41	15.95929686	0.068967	10	12
39	42	13.81121726	0.08662	10	15
39	43	12.25607917	0.057062	10	10
40	41	19.40008850	0.077588	12	12
40	42	13.17574001	0.100167	12	15
40	43	15.35773181	0.073894	12	10
41	42	15.28532931	0.104272	12	15
41	43	48.38434999	0.07143	12	10
42	43	11.21147998	0.109608	15	10
