44	45	0.01856917
44	46	0.01387389
44	47	0.01480945
44	48	0.12574828
44	49	0.04248826
44	10	0.06991320
44	11	0.03210963
44	12	0.01285433
44	13	0.03928198
44	14	0.01102940
44	15	0.02042928
44	16	0.00932778
44	17	0.01801955
44	18	0.01425448
44	19	0.00961713
44	0	0.03186796
44	1	0.04876570
44	2	0.02642551
44	3	0.01966260
44	4	0.03991557
44	5	0.01808105
44	6	0.02725742
44	7	0.02700746
44	8	0.00452780
44	9	0.01611897
44	20	0.01598833
44	21	0.01990487
44	22	0.01407411
44	23	0.00929469
44	24	0.01574568
44	25	0.01221432
44	26	0.01497619
44	27	0.01560547
44	28	0.02616092
44	29	0.02024350
44	30	0.00011816
44	31	0.07474777
44	32	0.03099261
44	33	0.00894485
44	34	0.09734141
44	35	0.01778757
44	36	0.01632528
44	37	0.01461582
44	38	0.05600002
44	39	0.00644046
44	40	0.01810721
44	41	0.03353625
44	42	0.01106425
44	43	0.01156881
45	46	0.02324040
45	47	0.02310567
45	48	0.01981206
45	49	0.00826522
45	10	0.02278560
45	11	0.01567073
45	12	0.00594337
45	13	0.01228691
45	14	0.00273432
45	15	0.02213970
45	16	0.02157034
45	17	0.01604055
45	18	0.00577385
45	19	0.00365922
45	0	0.02453674
45	1	0.00538719
45	2	0.01268050
45	3	0.03347626
45	4	0.01872135
45	5	0.00353561
45	6	0.02897611
45	7	0.03631385
45	8	0.00280215
45	9	0.01289138
45	20	0.02351995
45	21	0.00665077
45	22	0.00819267
45	23	0.01197160
45	24	0.00958799
45	25	0.06716269
45	26	0.01377448
45	27	0.01619816
45	28	0.03850187
45	29	0.00692397
45	30	0.00128658
45	31	0.00981235
45	32	0.02468878
45	33	0.00081523
45	34	0.00838786
45	35	0.01184788
45	36	0.00921278
45	37	0.01518263
45	38	0.00788066
45	39	0.00289585
45	40	0.01740311
45	41	0.02196217
45	42	0.01154493
45	43	0.01641531
46	47	0.01269694
46	48	0.00659527
46	49	0.00631963
46	10	0.02710346
46	11	0.02071485
46	12	0.01221651
46	13	0.00599216
46	14	0.01011654
46	15	0.08332240
46	16	0.02339482
46	17	0.02322477
46	18	0.01922320
46	19	0.02144781
46	0	0.01707690
46	1	0.00709565
46	2	0.02213448
46	3	0.02135031
46	4	0.02788437
46	5	0.00658042
46	6	0.01985204
46	7	0.01037691
46	8	0.18583806
46	9	0.02003681
46	20	0.09026690
46	21	0.00364613
46	22	0.01407988
46	23	0.03344839
46	24	0.00787263
46	25	0.00631735
46	26	0.01368927
46	27	0.00642256
46	28	0.02140793
46	29	0.00821838
46	30	0.00985896
46	31	0.03230939
46	32	0.00609928
46	33	0.03208938
46	34	0.01276408
46	35	0.02777638
46	36	0.02690055
46	37	0.01583222
46	38	0.00964167
46	39	0.03894107
46	40	0.05586583
46	41	0.03998760
46	42	0.01790933
46	43	0.02174704
47	48	0.01336246
47	49	0.01957246
47	10	0.02681429
47	11	0.02802703
47	12	0.01706276
47	13	0.01131189
47	14	0.00343057
47	15	0.03957724
47	16	0.01647011
47	17	0.02647000
47	18	0.00815155
47	19	0.01708701
47	0	0.01253289
47	1	0.01405568
47	2	0.01504452
47	3	0.03451606
47	4	0.02042393
47	5	0.01080387
47	6	0.03309217
47	7	0.10105434
47	8	0.00509844
47	9	0.02966977
47	20	0.14645966
47	21	0.00644958
47	22	0.02215342
47	23	0.01960054
47	24	0.01634285
47	25	0.01182310
47	26	0.01113766
47	27	0.01711098
47	28	0.01811487
47	29	0.00918711
47	30	0.00028209
47	31	0.02077123
47	32	0.00922557
47	33	0.00715579
47	34	0.01151708
47	35	0.04022018
47	36	0.01980631
47	37	0.00802643
47	38	0.00490128
47	39	0.00579174
47	40	0.01556439
47	41	0.03217489
47	42	0.01994407
47	43	0.01599385
48	49	0.02575118
48	10	0.01158101
48	11	0.01480306
48	12	0.03381675
48	13	0.04052108
48	14	0.00253841
48	15	0.01555663
48	16	0.01205682
48	17	0.01801007
48	18	0.01040778
48	19	0.01567382
48	0	0.02900810
48	1	0.08211054
48	2	0.01126642
48	3	0.01455569
48	4	0.01485124
48	5	0.00817003
48	6	0.01100683
48	7	0.01344191
48	8	0.00252717
48	9	0.01538143
48	20	0.00654104
48	21	0.02602286
48	22	0.00445184
48	23	0.01212530
48	24	0.00922845
48	25	0.00594711
48	26	0.01906304
48	27	0.01774119
48	28	0.02424238
48	29	0.01272365
48	30	0.00027905
48	31	0.02875600
48	32	0.02614362
48	33	0.00749309
48	34	0.01691688
48	35	0.01135633
48	36	0.02486463
48	37	0.01166316
48	38	0.06311564
48	39	0.01372608
48	40	0.02184051
48	41	0.02286676
48	42	0.01422867
48	43	0.00757440
49	10	0.01208789
49	11	0.01538358
49	12	0.01244070
49	13	0.08293345
49	14	0.00516716
49	15	0.01580572
49	16	0.01551532
49	17	0.01275140
49	18	0.01444048
49	19	0.00318722
49	0	0.05925644
49	1	0.00950266
49	2	0.01660139
49	3	0.01872601
49	4	0.01973614
49	5	0.02785383
49	6	0.02085268
49	7	0.02420234
49	8	0.00354274
49	9	0.00952781
49	20	0.01529850
49	21	0.05290093
49	22	0.01754334
49	23	0.00613206
49	24	0.01850275
49	25	0.01752421
49	26	0.00664014
49	27	0.01223033
49	28	0.01167469
49	29	0.01040295
49	30	0.00225508
49	31	0.15879379
49	32	0.05747902
49	33	0.01340689
49	34	0.01458580
49	35	0.02572326
49	36	0.02593123
49	37	0.00964390
49	38	0.01027477
49	39	0.00750617
49	40	0.00635930
49	41	0.01637814
49	42	0.01089218
49	43	0.00405456
10	11	0.22358676
10	12	0.01276100
10	13	0.01932999
10	14	0.00597051
10	15	0.25099241
10	16	0.06252023
10	17	0.02142327
10	18	0.00926284
10	19	0.00682479
10	0	0.01991636
10	1	0.00748400
10	2	0.16074732
10	3	0.17102982
10	4	0.16886536
10	5	0.00977321
10	6	0.12304891
10	7	0.12459456
10	8	0.00945372
10	9	0.13446343
10	20	0.07688785
10	21	0.01173670
10	22	0.01490846
10	23	0.13646442
10	24	0.01341763
10	25	0.00983934
10	26	0.11469520
10	27	0.09217171
10	28	0.03666984
10	29	0.01133294
10	30	0.00111996
10	31	0.02148620
10	32	0.01879487
10	33	0.00574097
10	34	0.01594945
10	35	0.08192020
10	36	0.15205863
10	37	0.01185412
10	38	0.01121716
10	39	0.00552484
10	40	0.02074876
10	41	0.21942735
10	42	0.01301681
10	43	0.08484984
11	12	0.02185445
11	13	0.02377855
11	14	0.02303347
11	15	0.34417473
11	16	0.10555677
11	17	0.04202278
11	18	0.02695060
11	19	0.02487741
11	0	0.02537056
11	1	0.00923790
11	2	0.18853191
11	3	0.11681075
11	4	0.20038043
11	5	0.02438646
11	6	0.09425161
11	7	0.21402167
11	8	0.01422445
11	9	0.17166510
11	20	0.04412191
11	21	0.01712838
11	22	0.04321294
11	23	0.09062251
11	24	0.03666411
11	25	0.03320926
11	26	0.09410591
11	27	0.06848723
11	28	0.04813327
11	29	0.03358764
11	30	0.00809682
11	31	0.02381046
11	32	0.02034423
11	33	0.01590592
11	34	0.02958302
11	35	0.08301235
11	36	0.17906646
11	37	0.01292540
11	38	0.01604934
11	39	0.02108205
11	40	0.02169310
11	41	0.14279427
11	42	0.03162175
11	43	0.01620544
12	13	0.00589944
12	14	0.00833604
12	15	0.01731671
12	16	0.00848912
12	17	0.01743357
12	18	0.01163345
12	19	0.01126266
12	0	0.01192476
12	1	0.01254080
12	2	0.08466109
12	3	0.00981895
12	4	0.01695268
12	5	0.01179533
12	6	0.03306246
12	7	0.01848123
12	8	0.00063919
12	9	0.00946386
12	20	0.00645718
12	21	0.11107513
12	22	0.01934702
12	23	0.00610355
12	24	0.02269722
12	25	0.00988216
12	26	0.01196724
12	27	0.01749989
12	28	0.01292313
12	29	0.08754183
12	30	0.00225476
12	31	0.00740922
12	32	0.00526087
12	33	0.00031466
12	34	0.16046792
12	35	0.02550626
12	36	0.00529869
12	37	0.01085458
12	38	0.00947265
12	39	0.00444725
12	40	0.01848753
12	41	0.01734009
12	42	0.02966549
12	43	0.01836261
13	14	0.00397816
13	15	0.02033009
13	16	0.00867734
13	17	0.01497370
13	18	0.00173176
13	19	0.01139392
13	0	0.40500212
13	1	0.01002435
13	2	0.02292735
13	3	0.01389410
13	4	0.02605057
13	5	0.01453814
13	6	0.01405367
13	7	0.01989236
13	8	0.00575578
13	9	0.01501975
13	20	0.01533043
13	21	0.04658658
13	22	0.02334671
13	23	0.00935519
13	24	0.00538478
13	25	0.00425440
13	26	0.00731073
13	27	0.01579794
13	28	0.02444377
13	29	0.00471194
13	30	0.00020372
13	31	0.02703990
13	32	0.29791952
13	33	0.00509704
13	34	0.01251780
13	35	0.01303776
13	36	0.01720419
13	37	0.01597413
13	38	0.00498857
13	39	0.00438836
13	40	0.00843717
13	41	0.01376383
13	42	0.01555657
13	43	0.00655139
14	15	0.00817885
14	16	0.01121014
14	17	0.00387692
14	18	0.00865392
14	19	0.00818371
14	0	0.00888682
14	1	0.00129049
14	2	0.00751852
14	3	0.00821510
14	4	0.01458885
14	5	0.12520456
14	6	0.00983448
14	7	0.01287194
14	8	0.00260793
14	9	0.00447609
14	20	0.00952726
14	21	0.00316371
14	22	0.00258967
14	23	0.00428112
14	24	0.00478777
14	25	0.00367684
14	26	0.01136777
14	27	0.00968054
14	28	0.00495888
14	29	0.00538506
14	30	0.00785053
14	31	0.00847902
14	32	0.00298493
14	33	0.01076134
14	34	0.02157213
14	35	0.00611672
14	36	0.01103945
14	37	0.00433112
14	38	0.00657699
14	39	0.00462286
14	40	0.01135457
14	41	0.01388466
14	42	0.01298726
14	43	0.00227148
15	16	0.07223987
15	17	0.03380627
15	18	0.01189486
15	19	0.01146574
15	0	0.02421763
15	1	0.00595624
15	2	0.22287623
15	3	0.14204321
15	4	0.09486072
15	5	0.01114597
15	6	0.08752854
15	7	0.23335666
15	8	0.01429966
15	9	0.18560491
15	20	0.14776440
15	21	0.01514539
15	22	0.02840851
15	23	0.09413236
15	24	0.02458637
15	25	0.02200891
15	26	0.06481886
15	27	0.04523233
15	28	0.03228002
15	29	0.00959466
15	30	0.00101040
15	31	0.02235827
15	32	0.01713422
15	33	0.00706352
15	34	0.02219717
15	35	0.07634579
15	36	0.16817403
15	37	0.01368569
15	38	0.00866277
15	39	0.00588044
15	40	0.01707394
15	41	0.14878088
15	42	0.01808361
15	43	0.03189171
16	17	0.03230647
16	18	0.01894834
16	19	0.01702198
16	0	0.03158801
16	1	0.00706169
16	2	0.06308258
16	3	0.06154693
16	4	0.07020194
16	5	0.02296844
16	6	0.07587463
16	7	0.02497000
16	8	0.01659923
16	9	0.12159428
16	20	0.02114504
16	21	0.00891724
16	22	0.00744135
16	23	0.32169041
16	24	0.02660612
16	25	0.02332441
16	26	0.17105330
16	27	0.11179869
16	28	0.02891286
16	29	0.01144933
16	30	0.00587152
16	31	0.03553458
16	32	0.01115395
16	33	0.01783098
16	34	0.00642154
16	35	0.08007496
16	36	0.07024036
16	37	0.00607384
16	38	0.01441596
16	39	0.01947119
16	40	0.02352429
16	41	0.07416102
16	42	0.03228257
16	43	0.08008762
17	18	0.15299234
17	19	0.08417477
17	0	0.01588670
17	1	0.00810533
17	2	0.07029922
17	3	0.01796451
17	4	0.01552609
17	5	0.01129955
17	6	0.02137826
17	7	0.02554809
17	8	0.02554573
17	9	0.02578847
17	20	0.01445791
17	21	0.00498316
17	22	0.01016347
17	23	0.02583012
17	24	0.03051107
17	25	0.02710160
17	26	0.02604937
17	27	0.03138180
17	28	0.03829913
17	29	0.01767076
17	30	0.01638864
17	31	0.02240044
17	32	0.00658188
17	33	0.02611728
17	34	0.00565194
17	35	0.02735332
17	36	0.03078173
17	37	0.07425644
17	38	0.01562216
17	39	0.02419283
17	40	0.01339084
17	41	0.02243082
17	42	0.07379829
17	43	0.01002776
18	19	0.00763529
18	0	0.01744729
18	1	0.01377489
18	2	0.08779191
18	3	0.01801393
18	4	0.01071876
18	5	0.03705624
18	6	0.01883941
18	7	0.02052752
18	8	0.00837988
18	9	0.01166783
18	20	0.01392460
18	21	0.01434422
18	22	0.03730086
18	23	0.01251465
18	24	0.02127189
18	25	0.01778970
18	26	0.02224710
18	27	0.01871362
18	28	0.01506594
18	29	0.04468555
18	30	0.02787298
18	31	0.01291172
18	32	0.00189498
18	33	0.03413729
18	34	0.00406534
18	35	0.01587022
18	36	0.02729877
18	37	0.00750328
18	38	0.01681920
18	39	0.03259668
18	40	0.04026078
18	41	0.02545217
18	42	0.02254672
18	43	0.00547628
19	0	0.00531419
19	1	0.01835750
19	2	0.00625625
19	3	0.01057033
19	4	0.01306787
19	5	0.02163535
19	6	0.00749131
19	7	0.01649712
19	8	0.00386021
19	9	0.01724823
19	20	0.01067101
19	21	0.00385308
19	22	0.00382475
19	23	0.00621393
19	24	0.00497948
19	25	0.00319754
19	26	0.01235537
19	27	0.01357755
19	28	0.02098635
19	29	0.00368776
19	30	0.01064051
19	31	0.00405185
19	32	0.00248054
19	33	0.00516688
19	34	0.00303691
19	35	0.01349302
19	36	0.14783965
19	37	0.00331701
19	38	0.00712566
19	39	0.00639585
19	40	0.00627157
19	41	0.01685975
19	42	0.19598955
19	43	0.00503134
0	1	0.00480821
0	2	0.02233951
0	3	0.02533889
0	4	0.02308949
0	5	0.08059909
0	6	0.02307415
0	7	0.02730887
0	8	0.01103704
0	9	0.01339582
0	20	0.02499472
0	21	0.02597221
0	22	0.02246254
0	23	0.02023775
0	24	0.01547627
0	25	0.01481186
0	26	0.01407080
0	27	0.02403321
0	28	0.03259144
0	29	0.01220125
0	30	0.00564873
0	31	0.03011458
0	32	0.31886137
0	33	0.00480174
0	34	0.01160915
0	35	0.01658929
0	36	0.02003256
0	37	0.01910411
0	38	0.00594068
0	39	0.01155872
0	40	0.01005642
0	41	0.02445398
0	42	0.02638315
0	43	0.00822053
1	2	0.00424626
1	3	0.00782039
1	4	0.00628965
1	5	0.00850639
1	6	0.01096185
1	7	0.00457114
1	8	0.01768254
1	9	0.00834128
1	20	0.00612417
1	21	0.01532480
1	22	0.00263510
1	23	0.01797633
1	24	0.00759326
1	25	0.00551996
1	26	0.01559662
1	27	0.00569439
1	28	0.01678659
1	29	0.00463390
1	30	0.00011910
1	31	0.02548137
1	32	0.00536209
1	33	0.02711779
1	34	0.00337884
1	35	0.01592826
1	36	0.02254960
1	37	0.00293472
1	38	0.05549224
1	39	0.03202801
1	40	0.01825313
1	41	0.01103684
1	42	0.00770689
1	43	0.00774092
2	3	0.04882292
2	4	0.08015126
2	5	0.01166181
2	6	0.06477294
2	7	0.03456902
2	8	0.01002602
2	9	0.05563678
2	20	0.01783192
2	21	0.01400032
2	22	0.02482703
2	23	0.06828518
2	24	0.01985507
2	25	0.01304854
2	26	0.06893633
2	27	0.02254546
2	28	0.02451945
2	29	0.07871924
2	30	0.00102685
2	31	0.01724141
2	32	0.02126644
2	33	0.01448972
2	34	0.02676783
2	35	0.06647421
2	36	0.18711547
2	37	0.18131656
2	38	0.01736805
2	39	0.01046721
2	40	0.01792347
2	41	0.07456338
2	42	0.00998576
2	43	0.00856406
3	4	0.06668058
3	5	0.02445254
3	6	0.19427967
3	7	0.20228706
3	8	0.01076637
3	9	0.12745309
3	20	0.12383679
3	21	0.01353386
3	22	0.00992657
3	23	0.11862384
3	24	0.02102096
3	25	0.06235366
3	26	0.09805002
3	27	0.13071584
3	28	0.06332403
3	29	0.00996145
3	30	0.00600233
3	31	0.01733020
3	32	0.01232398
3	33	0.00882983
3	34	0.01221136
3	35	0.16513130
3	36	0.05377487
3	37	0.01226176
3	38	0.01371306
3	39	0.06705288
3	40	0.02370772
3	41	0.11204923
3	42	0.02567540
3	43	0.02442568
4	5	0.01268701
4	6	0.07671964
4	7	0.04233965
4	8	0.01480627
4	9	0.06423955
4	20	0.03049756
4	21	0.01551216
4	22	0.04168563
4	23	0.07696840
4	24	0.01496445
4	25	0.01426202
4	26	0.06262034
4	27	0.03484419
4	28	0.03112069
4	29	0.01134947
4	30	0.00671134
4	31	0.02414048
4	32	0.02184846
4	33	0.01448152
4	34	0.02380319
4	35	0.07508988
4	36	0.07607009
4	37	0.01149755
4	38	0.00973519
4	39	0.01108280
4	40	0.02661458
4	41	0.24498021
4	42	0.02157731
4	43	0.15815048
5	6	0.02604279
5	7	0.02219344
5	8	0.00425104
5	9	0.01236758
5	20	0.01951147
5	21	0.00899859
5	22	0.01257047
5	23	0.00712762
5	24	0.02132045
5	25	0.02040024
5	26	0.01690446
5	27	0.02831569
5	28	0.00967780
5	29	0.02551243
5	30	0.00615798
5	31	0.01810356
5	32	0.00820236
5	33	0.01190026
5	34	0.01648356
5	35	0.02068341
5	36	0.01408298
5	37	0.01108602
5	38	0.00673008
5	39	0.01022640
5	40	0.01173266
5	41	0.01469919
5	42	0.02674138
5	43	0.00553431
6	7	0.15811336
6	8	0.01105205
6	9	0.07963054
6	20	0.10577913
6	21	0.00546642
6	22	0.01262880
6	23	0.08503335
6	24	0.02669966
6	25	0.02969960
6	26	0.13552391
6	27	0.35638280
6	28	0.04839681
6	29	0.02406080
6	30	0.00590192
6	31	0.02121719
6	32	0.01239140
6	33	0.02147374
6	34	0.03297627
6	35	0.22995252
6	36	0.05937643
6	37	0.01265089
6	38	0.01045448
6	39	0.01102638
6	40	0.01807721
6	41	0.07125347
6	42	0.02756491
6	43	0.01791819
7	8	0.00566465
7	9	0.15226186
7	20	0.29209582
7	21	0.01445601
7	22	0.01775287
7	23	0.02675116
7	24	0.02928884
7	25	0.03093711
7	26	0.08042594
7	27	0.10818961
7	28	0.05978473
7	29	0.01769245
7	30	0.00970032
7	31	0.01244768
7	32	0.02236563
7	33	0.00755282
7	34	0.04675215
7	35	0.05580041
7	36	0.02501351
7	37	0.02092843
7	38	0.01387468
7	39	0.01733373
7	40	0.01234418
7	41	0.07650741
7	42	0.02849129
7	43	0.01842682
8	9	0.00717277
8	20	0.00726084
8	21	0.00127679
8	22	0.01582054
8	23	0.02324049
8	24	0.00214790
8	25	0.00188744
8	26	0.00312706
8	27	0.00527130
8	28	0.00997160
8	29	0.00204206
8	30	0.00006829
8	31	0.01742756
8	32	0.00300034
8	33	0.04653844
8	34	0.00397350
8	35	0.02494920
8	36	0.01214427
8	37	0.01303781
8	38	0.00252298
8	39	0.18038028
8	40	0.02534353
8	41	0.03126898
8	42	0.01021551
8	43	0.01175746
9	20	0.07126957
9	21	0.00618563
9	22	0.00888589
9	23	0.08430430
9	24	0.01456195
9	25	0.01922606
9	26	0.07027738
9	27	0.05064090
9	28	0.03680664
9	29	0.01512694
9	30	0.00051397
9	31	0.02951011
9	32	0.00897153
9	33	0.03066854
9	34	0.01514757
9	35	0.07623754
9	36	0.05427444
9	37	0.01188301
9	38	0.01434053
9	39	0.01680884
9	40	0.02861707
9	41	0.11865617
9	42	0.02168973
9	43	0.01974311
20	21	0.00870121
20	22	0.00874347
20	23	0.10486239
20	24	0.01847686
20	25	0.02255793
20	26	0.09291024
20	27	0.10704560
20	28	0.03246554
20	29	0.01516425
20	30	0.00095693
20	31	0.01719727
20	32	0.01489861
20	33	0.01303747
20	34	0.01408399
20	35	0.04117226
20	36	0.02212979
20	37	0.01764625
20	38	0.00728507
20	39	0.00870754
20	40	0.01154103
20	41	0.02735215
20	42	0.01620432
20	43	0.02252251
21	22	0.00550578
21	23	0.00612059
21	24	0.01757171
21	25	0.01708656
21	26	0.00440800
21	27	0.03071413
21	28	0.00679740
21	29	0.00925417
21	30	0.01196052
21	31	0.03284245
21	32	0.02983946
21	33	0.00118477
21	34	0.02321423
21	35	0.02013392
21	36	0.01456365
21	37	0.00573421
21	38	0.02334871
21	39	0.01604116
21	40	0.00593487
21	41	0.00898594
21	42	0.00801243
21	43	0.00709393
22	23	0.00626625
22	24	0.01795201
22	25	0.01509424
22	26	0.01125058
22	27	0.00754033
22	28	0.01272919
22	29	0.01807072
22	30	0.00349971
22	31	0.01070598
22	32	0.02106175
22	33	0.01850969
22	34	0.02137141
22	35	0.01633559
22	36	0.01401816
22	37	0.00725425
22	38	0.01021869
22	39	0.01290615
22	40	0.03081795
22	41	0.03847826
22	42	0.02034014
22	43	0.00473288
23	24	0.01423381
23	25	0.01184971
23	26	0.18792961
23	27	0.01822273
23	28	0.02610913
23	29	0.01274494
23	30	0.00017200
23	31	0.02209306
23	32	0.01354800
23	33	0.02362521
23	34	0.00466231
23	35	0.10105038
23	36	0.06787387
23	37	0.00654553
23	38	0.01153942
23	39	0.01774534
23	40	0.02741265
23	41	0.08725288
23	42	0.01520878
23	43	0.10057470
24	25	0.44017140
24	26	0.02230537
24	27	0.02893028
24	28	0.01932007
24	29	0.02364436
24	30	0.00589004
24	31	0.01727001
24	32	0.00551833
24	33	0.00768684
24	34	0.03217219
24	35	0.02010984
24	36	0.03201680
24	37	0.02001846
24	38	0.00581405
24	39	0.00853822
24	40	0.01360707
24	41	0.01367239
24	42	0.03359444
24	43	0.00854527
25	26	0.01916103
25	27	0.09832820
25	28	0.01418402
25	29	0.02162118
25	30	0.00725969
25	31	0.01327732
25	32	0.00448338
25	33	0.00675288
25	34	0.02899950
25	35	0.08688598
25	36	0.01751580
25	37	0.00478535
25	38	0.00578289
25	39	0.00575906
25	40	0.01151209
25	41	0.01197093
25	42	0.02240601
25	43	0.00563001
26	27	0.09230602
26	28	0.02254640
26	29	0.02200532
26	30	0.00156981
26	31	0.01645807
26	32	0.00796892
26	33	0.01573634
26	34	0.00717833
26	35	0.07743572
26	36	0.06408521
26	37	0.00570507
26	38	0.01308760
26	39	0.02253699
26	40	0.07405313
26	41	0.07813795
26	42	0.01699787
26	43	0.00725932
27	28	0.03757295
27	29	0.02899601
27	30	0.00476433
27	31	0.01249905
27	32	0.00928303
27	33	0.01528319
27	34	0.04228708
27	35	0.11573693
27	36	0.01603835
27	37	0.01057681
27	38	0.01269674
27	39	0.01338685
27	40	0.01006500
27	41	0.03165593
27	42	0.02930578
27	43	0.01556446
28	29	0.02094564
28	30	0.01113013
28	31	0.03248634
28	32	0.01564464
28	33	0.00808514
28	34	0.02492288
28	35	0.04281975
28	36	0.02226633
28	37	0.02249283
28	38	0.01097149
28	39	0.02283688
28	40	0.03060331
28	41	0.02918040
28	42	0.01976476
28	43	0.02375816
29	30	0.02872917
29	31	0.02121080
29	32	0.00483264
29	33	0.01135796
29	34	0.03153305
29	35	0.02104092
29	36	0.00901238
29	37	0.00350116
29	38	0.01264896
29	39	0.00968704
29	40	0.02269350
29	41	0.03032940
29	42	0.01699829
29	43	0.00313824
30	31	0.00009349
30	32	0.00021350
30	33	0.00000000
30	34	0.00014666
30	35	0.01056852
30	36	0.00039493
30	37	0.00022600
30	38	0.01339915
30	39	0.01066046
30	40	0.00017154
30	41	0.00129715
30	42	0.01066754
30	43	0.00139370
31	32	0.01590071
31	33	0.02208715
31	34	0.01154986
31	35	0.03525258
31	36	0.02300471
31	37	0.01096879
31	38	0.00984649
31	39	0.02415334
31	40	0.03528240
31	41	0.02483198
31	42	0.02135012
31	43	0.01138960
32	33	0.00007271
32	34	0.01041742
32	35	0.01322543
32	36	0.01472290
32	37	0.01187732
32	38	0.00692478
32	39	0.00176403
32	40	0.00622276
32	41	0.01474858
32	42	0.00821971
32	43	0.01018955
33	34	0.00215668
33	35	0.01733882
33	36	0.01761105
33	37	0.00649063
33	38	0.00836813
33	39	0.02319802
33	40	0.06321928
33	41	0.01520882
33	42	0.02514391
33	43	0.00637053
34	35	0.02182086
34	36	0.03551064
34	37	0.01920425
34	38	0.00811960
34	39	0.00821974
34	40	0.02176518
34	41	0.02321322
34	42	0.00689499
34	43	0.00384437
35	36	0.06609645
35	37	0.01125013
35	38	0.01737199
35	39	0.04677451
35	40	0.02662885
35	41	0.08203624
35	42	0.03600303
35	43	0.01698515
36	37	0.02815537
36	38	0.02272115
36	39	0.02220760
36	40	0.02260070
36	41	0.07025082
36	42	0.07957144
36	43	0.00808754
37	38	0.00453958
37	39	0.00937336
37	40	0.01076764
37	41	0.01275039
37	42	0.00596358
37	43	0.00883968
38	39	0.01491364
38	40	0.01795988
38	41	0.01073224
38	42	0.02682313
38	43	0.00572572
39	40	0.02670653
39	41	0.01663428
39	42	0.02165157
39	43	0.00470562
40	41	0.03127260
40	42	0.03133284
40	43	0.02146314
41	42	0.02493803
41	43	0.20231577
42	43	0.00995205
