<?xml version="1.0" encoding="UTF-8"?>
<session version="1.0">
<refactoring comment="Copy element &apos;Pincombe_annotated_xLisa_corrected.json&apos; to &apos;dataset3&apos;&#x0D;&#x0A;- Original project: &apos;SemRelDocSearch-master&apos;&#x0D;&#x0A;- Destination element: &apos;dataset3&apos;&#x0D;&#x0A;- Original element: &apos;Pincombe_annotated_xLisa_corrected.json&apos;" description="Copy file" element1="data/Pincombe_annotated_xLisa_corrected.json" files="1" flags="589830" folders="0" id="org.eclipse.jdt.ui.copy" policy="org.eclipse.jdt.ui.copyResources" stamp="1452162910197" target="/Onsim/src/main/resources/dataset3" units="0" version="1.0"/>
</session>